-----------------IMPORTANT-------------------
# The following files will be installed 
# with this patch 
---------------------------------------------
$INSTALL_HOME/sys/dm_prov_telco/dm_prov_telco.so
$INSTALL_HOME/sys/cmmp/cmmp_v1.so
$INSTALL_HOME/sys/bip_udf/data/create_temporary_tables.plb
$INSTALL_HOME/sys/dm_vertex/dm_vertex_ctq20005.so
$INSTALL_HOME/sys/dm_vertex/dm_vertex_ctq10106.so
$INSTALL_HOME/sys/dm_vertex/dm_vertex_stq406.so
$INSTALL_HOME/sys/dm_vertex/dm_vertex_ctq10013.so
$INSTALL_HOME/sys/dm_vertex/dm_vertex_stq3221.so
$INSTALL_HOME/sys/dm_vertex/dm_vertex_stq316.so
$INSTALL_HOME/sys/diagnostics/pin_adu_validate/pin_adu_validate
$INSTALL_HOME/sys/msgs/eradescr/era_descr.fr
$INSTALL_HOME/sys/msgs/eradescr/era_descr.es
$INSTALL_HOME/sys/msgs/eradescr/era_descr.ja
$INSTALL_HOME/sys/msgs/errorcodes/errors.zh_TW
$INSTALL_HOME/sys/msgs/errorcodes/errors.ko
$INSTALL_HOME/sys/msgs/errorcodes/errors.es
$INSTALL_HOME/sys/msgs/errorcodes/errors.it
$INSTALL_HOME/sys/msgs/errorcodes/errors.fr
$INSTALL_HOME/sys/msgs/errorcodes/errors.ja
$INSTALL_HOME/sys/msgs/errorcodes/errors.pt_BR
$INSTALL_HOME/sys/msgs/errorcodes/errors.en_US
$INSTALL_HOME/sys/msgs/errorcodes/errors.zh
$INSTALL_HOME/sys/msgs/numdevicestates/num_device_states.zh
$INSTALL_HOME/sys/msgs/numdevicestates/num_device_states.ja
$INSTALL_HOME/sys/msgs/numdevicestates/num_device_states.it
$INSTALL_HOME/sys/msgs/numdevicestates/num_device_states.en_US
$INSTALL_HOME/sys/msgs/numdevicestates/num_device_states.zh_TW
$INSTALL_HOME/sys/msgs/numdevicestates/num_device_states.es
$INSTALL_HOME/sys/msgs/numdevicestates/num_device_states.ko
$INSTALL_HOME/sys/msgs/numdevicestates/num_device_states.fr
$INSTALL_HOME/sys/msgs/numdevicestates/num_device_states.pt_BR
$INSTALL_HOME/sys/msgs/reasoncodes/reasons.es
$INSTALL_HOME/sys/msgs/reasoncodes/reasons.zh
$INSTALL_HOME/sys/msgs/reasoncodes/reasons.fr
$INSTALL_HOME/sys/msgs/reasoncodes/reasons.zh_TW
$INSTALL_HOME/sys/msgs/reasoncodes/reasons.it
$INSTALL_HOME/sys/msgs/reasoncodes/reasons.ja
$INSTALL_HOME/sys/msgs/localedescr/locale_descr.en_US
$INSTALL_HOME/sys/data/config/pin_telco_gsm_fax_aaa_params.xml
$INSTALL_HOME/sys/data/config/pin_telco_gsm_telephony_aaa_params.xml
$INSTALL_HOME/sys/data/config/pin_notify_telco
$INSTALL_HOME/sys/data/config/pin_telco_provisioning_gsm
$INSTALL_HOME/sys/data/config/pin_device_state_num
$INSTALL_HOME/sys/data/config/pin_telco_gsm_data_aaa_params.xml
$INSTALL_HOME/sys/data/config/pin_telco_gprs_aaa_params.xml
$INSTALL_HOME/sys/data/config/bus_params_rating.xml
$INSTALL_HOME/sys/data/config/pin_config_opcodemap_tcf
$INSTALL_HOME/sys/data/config/bus_params_subscription.xml
$INSTALL_HOME/sys/data/config/pin_telco_gsm_aaa_params.xml
$INSTALL_HOME/sys/data/config/bus_params_act.xml
$INSTALL_HOME/sys/data/config/bus_params_billing.xml
$INSTALL_HOME/sys/data/config/bus_params_rerate.xml
$INSTALL_HOME/sys/data/config/pin_telco_gsm_sms_aaa_params.xml
$INSTALL_HOME/sys/data/config/pin_telco_aaa_params.xml
$INSTALL_HOME/sys/dm_invoice/data/dd_objects.source
$INSTALL_HOME/sys/cm/cm_login_null.so
$INSTALL_HOME/sys/cm/cm_login_pw001.so
$INSTALL_HOME/sys/cm/taxcodes_map
$INSTALL_HOME/sys/dm_eai/plugin_http.so
$INSTALL_HOME/sys/dm_eai/plugin_flist.so
$INSTALL_HOME/sys/dm_eai/libdm_eai.so
$INSTALL_HOME/sys/dm_eai/plugin_xml.so
$INSTALL_HOME/sys/dd/data/drop_tables_telco_aaa_oracle.source
$INSTALL_HOME/sys/dd/data/dd_objects_collections.source
$INSTALL_HOME/sys/dd/data/drop_tables_collections_oracle.source
$INSTALL_HOME/sys/dd/data/init_objects.source
$INSTALL_HOME/sys/dd/data/init_objects_collections.source
$INSTALL_HOME/sys/dd/data/dd_objects_telco_aaa.source
$INSTALL_HOME/sys/dd/data/dd_objects_reservation.source
$INSTALL_HOME/sys/dd/data/dd_objects.source
$INSTALL_HOME/sys/dm_oracle/dm_oracle10g64.so
$INSTALL_HOME/sys/dm_oracle/dm_oracle11g64.so
$INSTALL_HOME/sys/dm_oracle/data/create_pkg_pin_sequence_oracle.plb
$INSTALL_HOME/sys/dm_oracle/data/create_indexes.source
$INSTALL_HOME/sys/dm_oracle/data/job_rerate_procedures_oracle.plb
$INSTALL_HOME/sys/dm_oracle/data/create_dd_UTF8.source
$INSTALL_HOME/sys/dm_oracle/data/create_get_fields.plb
$INSTALL_HOME/sys/dm_oracle/data/create_indexes_base_audit_tables_oracle.source
$INSTALL_HOME/sys/dm_oracle/data/create_procedures_UTF8.plb
$INSTALL_HOME/sys/dm_oracle/data/create_procedures_AL32UTF8.plb
$INSTALL_HOME/sys/dm_oracle/data/create_dd_AL32UTF8.source
$INSTALL_HOME/sys/dm_oracle/data/drop_indexes.source
$INSTALL_HOME/lib/fm_utils.so
$INSTALL_HOME/lib/libloadapp.so
$INSTALL_HOME/lib/fm_stub.so
$INSTALL_HOME/lib/fm_rate.so
$INSTALL_HOME/lib/libportal64.so
$INSTALL_HOME/lib/fm_num_pol.so
$INSTALL_HOME/lib/fm_asm.so
$INSTALL_HOME/lib/fm_monitor.so
$INSTALL_HOME/lib/libcmpin.so
$INSTALL_HOME/lib/libxercesc.so
$INSTALL_HOME/lib/fm_voucher.so
$INSTALL_HOME/lib/fm_num.so
$INSTALL_HOME/lib/fm_gsm_aaa.so
$INSTALL_HOME/lib/fm_gprs_aaa_pol.so
$INSTALL_HOME/lib/fm_order_pol.so
$INSTALL_HOME/lib/fm_trans_pol.so
$INSTALL_HOME/lib/fm_adu.so
$INSTALL_HOME/lib/libctq.so
$INSTALL_HOME/lib/fm_zonemap.so
$INSTALL_HOME/lib/libLoadValidRating.so
$INSTALL_HOME/lib/fm_tcf_gprs.so
$INSTALL_HOME/lib/fm_gsm_pol.so
$INSTALL_HOME/lib/fm_gl.so
$INSTALL_HOME/lib/fm_filter_set.so
$INSTALL_HOME/lib/portal_op_flds.dat
$INSTALL_HOME/lib/fm_bal_pol.so
$INSTALL_HOME/lib/fm_bill_utils.so
$INSTALL_HOME/lib/fm_reserve.so
$INSTALL_HOME/lib/libpcmcpp6064.so
$INSTALL_HOME/lib/libpin_crypt4dm64.so
$INSTALL_HOME/lib/libloc.so
$INSTALL_HOME/lib/libpin_crypt_aes4dm.so
$INSTALL_HOME/lib/fm_publish.so
$INSTALL_HOME/lib/fm_inv_pol.so
$INSTALL_HOME/lib/pcmif.so
$INSTALL_HOME/lib/fm_tcf_pol.so
$INSTALL_HOME/lib/libpsiu_for_cm.a
$INSTALL_HOME/lib/fm_prov.so
$INSTALL_HOME/lib/libpin_crypt_aes.so
$INSTALL_HOME/lib/fm_subscription.so
$INSTALL_HOME/lib/fm_rate_pol.so
$INSTALL_HOME/lib/libpcm.a
$INSTALL_HOME/lib/libpinsys.a
$INSTALL_HOME/lib/libpin_crypt_aes4dm64.so
$INSTALL_HOME/lib/fm_search.so
$INSTALL_HOME/lib/fm_sim.so
$INSTALL_HOME/lib/fm_gel.so
$INSTALL_HOME/lib/fm_sim_pol.so
$INSTALL_HOME/lib/fm_delivery.so
$INSTALL_HOME/lib/fm_tcf_aaa.so
$INSTALL_HOME/lib/libLoadValidFinancial.so
$INSTALL_HOME/lib/pcmdd.so
$INSTALL_HOME/lib/fm_tcf_gprs_pol.so
$INSTALL_HOME/lib/libpcmext64.so
$INSTALL_HOME/lib/fm_device.so
$INSTALL_HOME/lib/fm_suspense.so
$INSTALL_HOME/lib/libmta.a
$INSTALL_HOME/lib/fm_cust_pol.so
$INSTALL_HOME/lib/fm_collections_pol.so
$INSTALL_HOME/lib/fm_bal.so
$INSTALL_HOME/lib/libpin_crypt.so
$INSTALL_HOME/lib/libpcmcpp60.so
$INSTALL_HOME/lib/fm_group.so
$INSTALL_HOME/lib/fm_ar.so
$INSTALL_HOME/lib/fm_custcare.so
$INSTALL_HOME/lib/libpcmcpp67.so
$INSTALL_HOME/lib/libdmpin64.so
$INSTALL_HOME/lib/libpinlog.a
$INSTALL_HOME/lib/fm_zonemap_pol.so
$INSTALL_HOME/lib/fm_gl_pol.so
$INSTALL_HOME/lib/fm_device_pol.so
$INSTALL_HOME/lib/aes_db.pm
$INSTALL_HOME/lib/fm_price_pol.so
$INSTALL_HOME/lib/fm_prov_pol.so
$INSTALL_HOME/lib/libSCR.so
$INSTALL_HOME/lib/fm_order.so
$INSTALL_HOME/lib/fm_sdk.so
$INSTALL_HOME/lib/fm_tcf.so
$INSTALL_HOME/lib/fm_subscription_pol.so
$INSTALL_HOME/lib/libpcp.a
$INSTALL_HOME/lib/fm_inv.so
$INSTALL_HOME/lib/fm_remit.so
$INSTALL_HOME/lib/libBAS.so
$INSTALL_HOME/lib/fm_ar_pol.so
$INSTALL_HOME/lib/fm_collections.so
$INSTALL_HOME/lib/fm_gsm.so
$INSTALL_HOME/lib/libADT.so
$INSTALL_HOME/lib/fm_bill_pol.so
$INSTALL_HOME/lib/fm_adu_pol.so
$INSTALL_HOME/lib/aes.so
$INSTALL_HOME/lib/fm_pymt.so
$INSTALL_HOME/lib/fm_bill.so
$INSTALL_HOME/lib/fm_act.so
$INSTALL_HOME/lib/fm_cust.so
$INSTALL_HOME/lib/libportal.so
$INSTALL_HOME/lib/libpin_crypt4dm.so
$INSTALL_HOME/lib/fm_pymt_pol.so
$INSTALL_HOME/lib/fm_global_search_stub.so
$INSTALL_HOME/lib/fm_global_search.so
$INSTALL_HOME/lib/libBAS64.so
$INSTALL_HOME/lib/fm_rerate.so
$INSTALL_HOME/lib/fm_voucher_pol.so
$INSTALL_HOME/lib/fm_ums.so
$INSTALL_HOME/lib/fm_reserve_pol.so
$INSTALL_HOME/lib/fm_act_pol.so
$INSTALL_HOME/lib/libvst.so
$INSTALL_HOME/lib/libpin_cc.so
$INSTALL_HOME/lib/libpcmext.so
$INSTALL_HOME/lib/fm_tcf_aaa_pol.so
$INSTALL_HOME/lib/libloadutils.so
$INSTALL_HOME/lib/libdmpin.so
$INSTALL_HOME/lib/libregex.a
$INSTALL_HOME/lib/fm_gsm_aaa_pol.so
$INSTALL_HOME/lib/libpsiu.a
$INSTALL_HOME/lib/fm_price.so
$INSTALL_HOME/lib/fm_perm.so
$INSTALL_HOME/lib/libcm_main.so
$INSTALL_HOME/lib/fm_remit_pol.so
$INSTALL_HOME/lib/libqutil.so
$INSTALL_HOME/diagnostics/pin_cfg_bpdump/pin_cfg_bpdump
$INSTALL_HOME/deploy/web_services/infranetwebsvc.war
$INSTALL_HOME/deploy/web_services/schemas/PCM_OP_CUSTCARE_MOVE_ACCT.xsd
$INSTALL_HOME/deploy/web_services/schemas/PCM_OP_AR_GET_BILLS.xsd
$INSTALL_HOME/deploy/web_services/schemas/PCM_OP_CUST_UPDATE_SERVICES.xsd
$INSTALL_HOME/deploy/web_services/schemas/PCM_OP_BILL_DEBIT.xsd
$INSTALL_HOME/deploy/web_services/schemas/PCM_OP_CUST_MODIFY_CUSTOMER.xsd
$INSTALL_HOME/deploy/web_services/schemas/PCM_OP_AR_GET_ACCT_ACTION_ITEMS.xsd
$INSTALL_HOME/deploy/web_services/schemas/PCM_OP_PRICE_GET_PRICE_LIST.xsd
$INSTALL_HOME/deploy/web_services/schemas/PCM_OP_AR_GET_ACCT_BILLS.xsd
$INSTALL_HOME/deploy/web_services/schemas/PCM_OP_CUST_SET_STATUS.xsd
$INSTALL_HOME/deploy/web_services/schemas/PCM_OP_BAL_GET_BALANCES.xsd
$INSTALL_HOME/deploy/web_services/schemas/PCM_OP_PRICE_SET_PRICE_LIST.xsd
$INSTALL_HOME/deploy/web_services/schemas/PCM_OP_SUBSCRIPTION_GET_PURCHASED_OFFERINGS.xsd
$INSTALL_HOME/deploy/web_services/schemas/PCM_OP_CUST_COMMIT_CUSTOMER.xsd
$INSTALL_HOME/deploy/web_services/schemas/PCM_OP_AR_GET_BILL_ITEMS.xsd
$INSTALL_HOME/deploy/web_services/schemas/PCM_OP_CUST_UPDATE_CUSTOMER.xsd
$INSTALL_HOME/deploy/web_services/schemas/PCM_OP_BILL_GET_ITEM_EVENT_CHARGE_DISCOUNT.xsd
$INSTALL_HOME/deploy/web_services/schemas/PCM_OP_PYMT_COLLECT.xsd
$INSTALL_HOME/deploy/web_services/schemas/PCM_OP_SUBSCRIPTION_PURCHASE_DEAL.xsd
$INSTALL_HOME/deploy/web_services/schemas/PCM_OP_BILL_GROUP_MOVE_MEMBER.xsd
$INSTALL_HOME/deploy/web_services/schemas/PCM_OP_SUBSCRIPTION_SET_PRODINFO.xsd
$INSTALL_HOME/deploy/web_services/schemas/PCM_OP_SUBSCRIPTION_TRANSFER_SUBSCRIPTION.xsd
$INSTALL_HOME/deploy/web_services/schemas/PCM_OP_AR_GET_ACTION_ITEMS.xsd
$INSTALL_HOME/deploy/web_services/lib/infranetwebsvc.jar
$INSTALL_HOME/deploy/web_services/opspecs/PCM_OP_CUST_UPDATE_CUSTOMER.xml
$INSTALL_HOME/deploy/web_services/opspecs/PCM_OP_BAL_GET_BALANCES.xml
$INSTALL_HOME/deploy/web_services/opspecs/PCM_OP_SUBSCRIPTION_GET_PURCHASED_OFFERINGS.xml
$INSTALL_HOME/deploy/web_services/opspecs/PCM_OP_SUBSCRIPTION_TRANSFER_SUBSCRIPTION.xml
$INSTALL_HOME/deploy/web_services/opspecs/PCM_OP_COLLECTIONS_SET_ACTION_STATUS.xml
$INSTALL_HOME/deploy/web_services/opspecs/PCM_OP_AR_GET_ACCT_BILLS.xml
$INSTALL_HOME/deploy/web_services/opspecs/PCM_OP_SUBSCRIPTION_PURCHASE_DEAL.xml
$INSTALL_HOME/deploy/web_services/opspecs/PCM_OP_CUST_UPDATE_SERVICES.xml
$INSTALL_HOME/deploy/web_services/opspecs/PCM_OP_CUST_MODIFY_CUSTOMER.xml
$INSTALL_HOME/deploy/web_services/opspecs/PCM_OP_CUST_SET_STATUS.xml
$INSTALL_HOME/deploy/web_services/opspecs/PCM_OP_AR_GET_BILL_ITEMS.xml
$INSTALL_HOME/deploy/web_services/opspecs/PCM_OP_BILL_GET_ITEM_EVENT_CHARGE_DISCOUNT.xml
$INSTALL_HOME/deploy/web_services/opspecs/PCM_OP_AR_GET_BILLS.xml
$INSTALL_HOME/deploy/web_services/opspecs/PCM_OP_BILL_GROUP_MOVE_MEMBER.xml
$INSTALL_HOME/deploy/web_services/opspecs/PCM_OP_CUST_COMMIT_CUSTOMER.xml
$INSTALL_HOME/deploy/web_services/opspecs/PCM_OP_AR_GET_ACCT_ACTION_ITEMS.xml
$INSTALL_HOME/deploy/web_services/opspecs/PCM_OP_BILL_DEBIT.xml
$INSTALL_HOME/deploy/web_services/opspecs/PCM_OP_CUST_CREATE_PROFILE.xml
$INSTALL_HOME/deploy/web_services/opspecs/PCM_OP_AR_GET_ACTION_ITEMS.xml
$INSTALL_HOME/deploy/web_services/opspecs/PCM_OP_SUBSCRIPTION_SET_PRODINFO.xml
$INSTALL_HOME/deploy/web_services/opspecs/PCM_OP_PRICE_SET_PRICE_LIST.xml
$INSTALL_HOME/deploy/web_services/opspecs/PCM_OP_PYMT_COLLECT.xml
$INSTALL_HOME/deploy/web_services/opspecs/PCM_OP_PRICE_GET_PRICE_LIST.xml
$INSTALL_HOME/include/pin_os.h
$INSTALL_HOME/include/pin_os_time.h
$INSTALL_HOME/include/pin_errs.h
$INSTALL_HOME/include/fm_bill_utils.h
$INSTALL_HOME/include/pin_bill.h
$INSTALL_HOME/include/pin_inv.h
$INSTALL_HOME/include/pcm.h
$INSTALL_HOME/include/PinFlds.h
$INSTALL_HOME/include/pin_ar.h
$INSTALL_HOME/include/pin_os_string.h
$INSTALL_HOME/include/pin_tcf.h
$INSTALL_HOME/include/cm_fm.h
$INSTALL_HOME/include/fm_collections.h
$INSTALL_HOME/include/psiu_business_params.h
$INSTALL_HOME/include/pin_rate.h
$INSTALL_HOME/include/pin_cust.h
$INSTALL_HOME/include/fm_utils.h
$INSTALL_HOME/include/pin_act.h
$INSTALL_HOME/include/pin_flds.h
$INSTALL_HOME/include/pin_subscription.h
$INSTALL_HOME/include/ops/base.h
$INSTALL_HOME/include/ops/collections.h
$INSTALL_HOME/include/ops/cust.h
$INSTALL_HOME/include/ops/rate.h
$INSTALL_HOME/include/ops/bill.h
$INSTALL_HOME/include/ops/ar.h
$INSTALL_HOME/include/ops/tcf.h
$INSTALL_HOME/include/ops/pymt.h
$INSTALL_HOME/include/ops/bal.h
$INSTALL_HOME/include/ops/price.h
$INSTALL_HOME/xsd/bus_params_subscription.xsd
$INSTALL_HOME/xsd/bus_params_rating.xsd
$INSTALL_HOME/xsd/bus_params_act.xsl
$INSTALL_HOME/xsd/bus_params_rerate.xsd
$INSTALL_HOME/xsd/bus_params_rerate.xsl
$INSTALL_HOME/xsd/bus_params_billing.xsl
$INSTALL_HOME/xsd/bus_params_to_rerate.xsl
$INSTALL_HOME/xsd/bus_params_billing.xsd
$INSTALL_HOME/xsd/bus_params_rating.xsl
$INSTALL_HOME/xsd/PinTypes.xsd
$INSTALL_HOME/xsd/pin_telco_aaa_params.xsd
$INSTALL_HOME/xsd/bus_params_act.xsd
$INSTALL_HOME/xsd/bus_params_to_subscription.xsl
$INSTALL_HOME/xsd/bus_params_conf.xsd
$INSTALL_HOME/xsd/bus_params_subscription.xsl
$INSTALL_HOME/xsd/bus_params_to_billing.xsl
$INSTALL_HOME/xsd/bus_params_to_act.xsl
$INSTALL_HOME/setup/scripts/pin_res.pl
$INSTALL_HOME/setup/scripts/pin_cnf_pin_collections.pl
$INSTALL_HOME/setup/scripts/pin_cnf_dm.pl
$INSTALL_HOME/setup/scripts/pin_cnf_infmgr_cli.pl
$INSTALL_HOME/setup/scripts/pin_cnf_infmgr.pl
$INSTALL_HOME/setup/scripts/pin_cnf_tcf_aaa.pl
$INSTALL_HOME/setup/scripts/price_list.xsd
$INSTALL_HOME/setup/scripts/pin_cmp_dm_oracle.pl
$INSTALL_HOME/setup/scripts/pin_cnf_dm_db.pl
$INSTALL_HOME/setup/scripts/pin_cmp_pin_billd.pl
$INSTALL_HOME/setup/scripts/pin_cmp_storable_class_to_xml.pl
$INSTALL_HOME/setup/scripts/pin_setup.pl
$INSTALL_HOME/setup/scripts/pin_cmp_load_config.pl
$INSTALL_HOME/setup/scripts/pin_functions.pl
$INSTALL_HOME/setup/scripts/pin_cmp_dm_db.pl
$INSTALL_HOME/setup/scripts/pin_cnf_connect.pl
$INSTALL_HOME/setup/scripts/pin_oracle_functions.pl
$INSTALL_HOME/setup/scripts/pin_cnf_cm.pl
$INSTALL_HOME/setup/scripts/pin_cnf_dm_fusa.pl
$INSTALL_HOME/setup/scripts/pin_cmp_pin_collections.pl
$INSTALL_HOME/setup/scripts/pin_cnf_load_config.pl
$INSTALL_HOME/setup/scripts/pin_cnf_qm.pl
$INSTALL_HOME/jars/WSDLGenerator.jar
$INSTALL_HOME/jars/pfc.jar
$INSTALL_HOME/jars/agentsimulator.jar
$INSTALL_HOME/jars/loadpricelist.jar
$INSTALL_HOME/jars/pcm.jar
$INSTALL_HOME/jars/pxslt.jar
$INSTALL_HOME/jars/batch.jar
$INSTALL_HOME/jars/js.jar
$INSTALL_HOME/jars/pcmext.jar
$INSTALL_HOME/jars/formatter.jar
$INSTALL_HOME/jars/eai.jar
$INSTALL_HOME/jars/ExpandCompactEventSet.jar
$INSTALL_HOME/jars/storableclasstoxml.jar
$INSTALL_HOME/apps/partition_utils/sql_utils/oracle/partition_utils.plb
$INSTALL_HOME/apps/uel/uel
$INSTALL_HOME/apps/uel/uel.jar
$INSTALL_HOME/apps/load_notification_event/load_notification_event
$INSTALL_HOME/apps/load_notification_event/EventNotificationThreshold.xsd
$INSTALL_HOME/apps/telco/agent_sim.pl
$INSTALL_HOME/bin/pin_collections_process
$INSTALL_HOME/bin/answer_b
$INSTALL_HOME/bin/pin_wsdl_generator
$INSTALL_HOME/bin/pin_cycle_fees
$INSTALL_HOME/bin/dm
$INSTALL_HOME/bin/dm_fusa
$INSTALL_HOME/bin/load_tax_supplier
$INSTALL_HOME/bin/load_pin_beid
$INSTALL_HOME/bin/pin_rerate
$INSTALL_HOME/bin/load_pin_bill_suppression
$INSTALL_HOME/bin/load_pin_ach
$INSTALL_HOME/bin/load_pin_config_business_type
$INSTALL_HOME/bin/start_batch_controller
$INSTALL_HOME/bin/load_pin_telco_service_order_state
$INSTALL_HOME/bin/load_config
$INSTALL_HOME/bin/load_config_item_tags
$INSTALL_HOME/bin/load_pin_network_elements
$INSTALL_HOME/bin/load_config_provisioning_tags
$INSTALL_HOME/bin/pin_export_price
$INSTALL_HOME/bin/pin_make_corrective_bills
$INSTALL_HOME/bin/load_pin_glid
$INSTALL_HOME/bin/OODHandler
$INSTALL_HOME/bin/pin_crypt_rewrite
$INSTALL_HOME/bin/pin_change_num_quarantine
$INSTALL_HOME/bin/load_pin_invoice_data_map
$INSTALL_HOME/bin/load_pin_sim_config
$INSTALL_HOME/bin/load_pin_spec_rates
$INSTALL_HOME/bin/pin_trial_bill_accts
$INSTALL_HOME/bin/pin_crypt_app
$INSTALL_HOME/bin/pin_ctl
$INSTALL_HOME/bin/load_pin_billing_segment
$INSTALL_HOME/bin/pin_opspec_to_schema
$INSTALL_HOME/bin/start_formatter
$INSTALL_HOME/bin/pin_collect
$INSTALL_HOME/bin/load_aaa_config_opcodemap_tcf
$INSTALL_HOME/bin/pin_inv_send
$INSTALL_HOME/bin/pin_recover
$INSTALL_HOME/bin/pin_bus_params
$INSTALL_HOME/bin/start_dm_oracle
$INSTALL_HOME/bin/pin_clean
$INSTALL_HOME/bin/pin_rate_change
$INSTALL_HOME/bin/dm_oracle
$INSTALL_HOME/bin/pin_voucher_expiration
$INSTALL_HOME/bin/pin_load_invoice_template
$INSTALL_HOME/bin/testnap
$INSTALL_HOME/bin/load_event_map
$INSTALL_HOME/bin/pin_configure_ha
$INSTALL_HOME/bin/nmgr
$INSTALL_HOME/bin/load_usage_map
$INSTALL_HOME/bin/pin_unlock_service
$INSTALL_HOME/bin/pin_crypt_upgrade
$INSTALL_HOME/bin/load_pin_bus_params
$INSTALL_HOME/bin/pin_mta_monitor
$INSTALL_HOME/bin/dm_email
$INSTALL_HOME/bin/load_config_reservation_aaa_prefs
$INSTALL_HOME/bin/load_pin_event_record_map
$INSTALL_HOME/bin/infmgr_cli
$INSTALL_HOME/bin/load_pin_rtp_trim_flist
$INSTALL_HOME/bin/load_localized_strings
$INSTALL_HOME/bin/load_config_item_types
$INSTALL_HOME/bin/pin_refund
$INSTALL_HOME/bin/pin_sub_balance_cleanup
$INSTALL_HOME/bin/dm_eai
$INSTALL_HOME/bin/load_pin_service_framework_permitted_service_types
$INSTALL_HOME/bin/load_pin_dealers
$INSTALL_HOME/bin/start_dm_invoice
$INSTALL_HOME/bin/load_pin_business_profile
$INSTALL_HOME/bin/fusamux
$INSTALL_HOME/bin/cm_proxy
$INSTALL_HOME/bin/pin_load_invoice_events
$INSTALL_HOME/bin/pin_monitor_balance
$INSTALL_HOME/bin/load_pin_customer_segment
$INSTALL_HOME/bin/partition_utils
$INSTALL_HOME/bin/pin_dd_to_schema
$INSTALL_HOME/bin/pin_product_clear
$INSTALL_HOME/bin/load_pin_config_export_gl
$INSTALL_HOME/bin/load_pin_sub_bal_contributor
$INSTALL_HOME/bin/load_pin_order_state
$INSTALL_HOME/bin/load_pin_recharge_card_type
$INSTALL_HOME/bin/infmgr
$INSTALL_HOME/bin/load_pin_telco_provisioning
$INSTALL_HOME/bin/fldgen
$INSTALL_HOME/bin/answer_s
$INSTALL_HOME/bin/pin_bill_accts
$INSTALL_HOME/bin/pin_uei_deploy
$INSTALL_HOME/bin/cm
$INSTALL_HOME/bin/load_pin_rerate_flds
$INSTALL_HOME/bin/load_pin_excluded_logins
$INSTALL_HOME/bin/load_pin_config_auth_reauth_info
$INSTALL_HOME/bin/pin_upd_assoc_bus_profile
$INSTALL_HOME/bin/start_dm_eai
$INSTALL_HOME/bin/pin_deferred_act
$INSTALL_HOME/bin/pin_rollover
$INSTALL_HOME/bin/pin_cycle_forward
$INSTALL_HOME/bin/pin_load_template
$INSTALL_HOME/bin/pin_mass_refund
$INSTALL_HOME/bin/pin_inv_accts
$INSTALL_HOME/bin/load_pin_num_config
$INSTALL_HOME/bin/load_pin_telco_tags
$INSTALL_HOME/bin/pin_get_results
$INSTALL_HOME/bin/load_pin_payment_term
$INSTALL_HOME/bin/dm_invoice
$INSTALL_HOME/bin/load_pin_impact_category
$INSTALL_HOME/bin/load_pin_rum
$INSTALL_HOME/bin/pin_trial_bill_purge
$INSTALL_HOME/bin/parse_custom_ops_fields.pl
$INSTALL_HOME/bin/pin_load_rerate_jobs
$INSTALL_HOME/bin/load_pin_remittance_flds
$INSTALL_HOME/bin/pin_config_distribution
$INSTALL_HOME/bin/pin_iscript
$INSTALL_HOME/bin/load_pin_snowball_distribution
$INSTALL_HOME/bin/load_pin_calendar
$INSTALL_HOME/bin/pin_inv_export
$INSTALL_HOME/bin/BillHandler
$INSTALL_HOME/bin/start_dm_prov_telco
$INSTALL_HOME/bin/pin_balance_transfer
$INSTALL_HOME/bin/pin_collections_send_dunning
$INSTALL_HOME/bin/load_pin_glchartaccts
$INSTALL_HOME/bin/splitPinlog
$INSTALL_HOME/bin/load_transition_type
$INSTALL_HOME/bin/load_pin_voucher_config
$INSTALL_HOME/bin/pin_ledger_report
$INSTALL_HOME/bin/load_pin_verify
$INSTALL_HOME/bin/pin_recycle
$INSTALL_HOME/bin/load_pin_remittance_spec
$INSTALL_HOME/bin/pin_virtual_time
$INSTALL_HOME/bin/pin_bill_day
$INSTALL_HOME/bin/stop_all
$INSTALL_HOME/bin/load_pin_config_ood_criteria
$INSTALL_HOME/bin/pin_apply_bulk_adjustment
$INSTALL_HOME/bin/start_all
$INSTALL_HOME/bin/load_pin_telco_aaa_params
$INSTALL_HOME/bin/pin_ctl.conf
$INSTALL_HOME/bin/pin_deposit
$INSTALL_HOME/bin/load_pin_suspense_edr_fld_map
$INSTALL_HOME/bin/dm_vertex
$INSTALL_HOME/bin/pin_deploy
$INSTALL_HOME/bin/pin_discount_cleanup
$INSTALL_HOME/bin/pin_clean_asos
$INSTALL_HOME/bin/pin_remittance
$INSTALL_HOME/bin/pin_clean_rsvns
$INSTALL_HOME/bin/load_pin_suspense_params
$INSTALL_HOME/bin/load_pin_notify
$INSTALL_HOME/bin/pin_mta_test_caf
$INSTALL_HOME/bin/cmmp
$INSTALL_HOME/bin/start_eai_js
$INSTALL_HOME/bin/dm_prov_telco
$INSTALL_HOME/bin/opgen
$INSTALL_HOME/bin/load_pin_ar_taxes
$INSTALL_HOME/source/sys/fm_bill_pol/fm_bill_pol_config.c
$INSTALL_HOME/source/sys/fm_bill_pol/Makefile
$INSTALL_HOME/source/sys/fm_bill_pol/fm_bill_pol_spec_future_cycle.c
$INSTALL_HOME/source/sys/fm_remit_pol/Makefile
$INSTALL_HOME/source/sys/fm_collections_pol/Makefile
$INSTALL_HOME/source/sys/fm_collections_pol/fm_collections_pol_config.c
$INSTALL_HOME/source/sys/fm_cust_pol/fm_cust_pol_post_commit.c
$INSTALL_HOME/source/sys/fm_cust_pol/fm_cust_pol_tax_calc.c
$INSTALL_HOME/source/sys/fm_cust_pol/fm_cust_pol_prep_payinfo.c
$INSTALL_HOME/source/sys/fm_cust_pol/fm_cust_pol_valid_passwd.c
$INSTALL_HOME/source/sys/fm_cust_pol/fm_cust_pol_prep_passwd.c
$INSTALL_HOME/source/sys/fm_cust_pol/fm_cust_pol_get_subscribed_plans.c
$INSTALL_HOME/source/sys/fm_cust_pol/fm_cust_pol_get_intro_msg.c
$INSTALL_HOME/source/sys/fm_cust_pol/fm_cust_pol_compare_passwd.c
$INSTALL_HOME/source/sys/fm_cust_pol/Makefile
$INSTALL_HOME/source/sys/fm_cust_pol/fm_cust_pol_valid_login.c
$INSTALL_HOME/source/sys/fm_cust_pol/fm_cust_pol_valid_billinfo.c
$INSTALL_HOME/source/sys/fm_cust_pol/fm_cust_pol_encrypt_passwd.c
$INSTALL_HOME/source/sys/fm_cust_pol/fm_cust_pol_util.c
$INSTALL_HOME/source/sys/fm_cust_pol/fm_cust_pol_prep_billinfo.c
$INSTALL_HOME/source/sys/fm_cust_pol/fm_cust_pol_get_db_no.c
$INSTALL_HOME/source/sys/fm_cust_pol/fm_cust_pol_valid_payinfo.c
$INSTALL_HOME/source/sys/fm_cust_pol/fm_cust_pol_valid_profile.c
$INSTALL_HOME/source/sys/fm_cust_pol/fm_cust_pol_tax_init.c
$INSTALL_HOME/source/sys/fm_cust_pol/fm_cust_pol_prep_nameinfo.c
$INSTALL_HOME/source/sys/fm_price_pol/Makefile
$INSTALL_HOME/source/sys/fm_act_pol/fm_act_pol_config_billing_cycle.c
$INSTALL_HOME/source/sys/fm_act_pol/fm_act_pol_event_notify.c
$INSTALL_HOME/source/sys/fm_tcf_pol/Makefile
$INSTALL_HOME/source/sys/fm_num_pol/Makefile
$INSTALL_HOME/source/sys/fm_num_pol/fm_num_pol_device_associate.c
$INSTALL_HOME/source/sys/fm_device_pol/Makefile
$INSTALL_HOME/source/sys/fm_order_pol/Makefile
$INSTALL_HOME/source/sys/fm_sim_pol/fm_sim_pol_device_associate.c
$INSTALL_HOME/source/sys/fm_sim_pol/Makefile
$INSTALL_HOME/source/sys/fm_sim_pol/fm_sim_pol_config.c
$INSTALL_HOME/source/sys/fm_subscription_pol/Makefile
$INSTALL_HOME/source/sys/fm_subscription_pol/fm_subscription_pol_config_eet.c
$INSTALL_HOME/source/sys/fm_subscription_pol/fm_subscription_pol_provisioning.c
$INSTALL_HOME/source/sys/fm_subscription_pol/fm_subscription_pol_config.c
$INSTALL_HOME/source/sys/fm_subscription_pol/fm_subscription_pol_prep_fold.c
$INSTALL_HOME/source/sys/fm_prov_pol/Makefile
$INSTALL_HOME/source/sys/fm_ar_pol/Makefile
$INSTALL_HOME/source/sys/fm_ar_pol/fm_ar_pol_config.c
$INSTALL_HOME/source/sys/fm_trans_pol/Makefile
$INSTALL_HOME/source/sys/fm_bal_pol/Makefile
$INSTALL_HOME/source/sys/fm_bal_pol/fm_bal_pol_config.c
$INSTALL_HOME/source/sys/fm_inv_pol/fm_inv_pol_prep_invoice.c
$INSTALL_HOME/source/sys/fm_inv_pol/Makefile
$INSTALL_HOME/source/sys/fm_zonemap_pol/Makefile
$INSTALL_HOME/source/sys/fm_zonemap_pol/fm_zonemap_pol_get_lineage.c
$INSTALL_HOME/source/sys/fm_gsm_aaa_pol/Makefile
$INSTALL_HOME/source/sys/fm_gl_pol/Makefile
$INSTALL_HOME/source/sys/fm_pymt_pol/fm_pymt_pol_config.c
$INSTALL_HOME/source/sys/fm_pymt_pol/fm_pymt_pol_validate_payment.c
$INSTALL_HOME/source/sys/fm_pymt_pol/Makefile
$INSTALL_HOME/source/sys/fm_pymt_pol/fm_pymt_pol_suspend_payment.c
$INSTALL_HOME/source/sys/fm_pymt_pol/fm_pymt_pol_pre_collect.c
$INSTALL_HOME/source/sys/fm_adu_pol/Makefile
$INSTALL_HOME/source/sys/fm_voucher_pol/Makefile
$INSTALL_HOME/source/sys/fm_voucher_pol/fm_voucher_pol_device_associate.c
$INSTALL_HOME/source/sys/fm_rate_pol/fm_rate_pol_process_eras.c
$INSTALL_HOME/source/sys/fm_rate_pol/Makefile
$INSTALL_HOME/source/sys/fm_rate_pol/fm_rate_pol_tax_code.c
$INSTALL_HOME/source/apps/sample/sample_del
$INSTALL_HOME/source/apps/sample/sample_app
$INSTALL_HOME/source/apps/sample/sample_act
$INSTALL_HOME/source/apps/sample/Makefile
$INSTALL_HOME/source/apps/sample/sample_who
$INSTALL_HOME/source/apps/sample/sample_search
$INSTALL_HOME/sys/msgs/revenueassurance/ra_alert_message.zh
$INSTALL_HOME/sys/msgs/revenueassurance/ra_alert_message.it
$INSTALL_HOME/sys/msgs/revenueassurance/ra_alert_message.fr
$INSTALL_HOME/sys/msgs/revenueassurance/ra_alert_message.pt_BR
$INSTALL_HOME/sys/msgs/revenueassurance/ra_alert_message.ru_RU
$INSTALL_HOME/sys/msgs/revenueassurance/ra_alert_message.ko
$INSTALL_HOME/sys/msgs/revenueassurance/ra_alert_message.en_US
$INSTALL_HOME/sys/msgs/revenueassurance/ra_alert_message.ja
$INSTALL_HOME/sys/msgs/revenueassurance/ra_alert_message.es
$INSTALL_HOME/sys/msgs/revenueassurance/ra_alert_message.zh_TW
$INSTALL_HOME/sys/msgs/lifecycle_states/lifecycle_states.en_US
$INSTALL_HOME/sys/msgs/lifecycle_states/lifecycle_states.zh
$INSTALL_HOME/sys/msgs/lifecycle_states/lifecycle_states.es
$INSTALL_HOME/sys/msgs/lifecycle_states/lifecycle_states.it
$INSTALL_HOME/sys/msgs/lifecycle_states/lifecycle_states.ru_RU
$INSTALL_HOME/sys/msgs/lifecycle_states/lifecycle_states.zh_TW
$INSTALL_HOME/sys/msgs/lifecycle_states/lifecycle_states.ja
$INSTALL_HOME/sys/msgs/lifecycle_states/lifecycle_states.pt_BR
$INSTALL_HOME/sys/msgs/lifecycle_states/lifecycle_states.fr
$INSTALL_HOME/sys/msgs/lifecycle_states/lifecycle_states.ko
$INSTALL_HOME/sys/msgs/eradescr/era_descr.ru_RU
$INSTALL_HOME/sys/msgs/featuresandprofilestates/features_and_profiles_states.ru_RU
$INSTALL_HOME/sys/msgs/simcardtypes/sim_card_types.ru_RU
$INSTALL_HOME/sys/msgs/ipdevicestates/ip_device_states.pt_BR
$INSTALL_HOME/sys/msgs/ipdevicestates/ip_device_states.ko
$INSTALL_HOME/sys/msgs/ipdevicestates/ip_device_states.ru_RU
$INSTALL_HOME/sys/msgs/numcategories/num_categories.ru_RU
$INSTALL_HOME/sys/msgs/paymentchannel/payment_channel.pt_BR
$INSTALL_HOME/sys/msgs/paymentchannel/payment_channel.ru_RU
$INSTALL_HOME/sys/msgs/paymentchannel/payment_channel.ko
$INSTALL_HOME/sys/msgs/numvanities/num_vanities.ru_RU
$INSTALL_HOME/sys/msgs/errorcodes/errors.ru_RU
$INSTALL_HOME/sys/msgs/active_mediation/active_mediation.zh
$INSTALL_HOME/sys/msgs/active_mediation/active_mediation.pt_BR
$INSTALL_HOME/sys/msgs/active_mediation/active_mediation.fr
$INSTALL_HOME/sys/msgs/active_mediation/active_mediation.it
$INSTALL_HOME/sys/msgs/active_mediation/active_mediation.zh_TW
$INSTALL_HOME/sys/msgs/active_mediation/active_mediation.es
$INSTALL_HOME/sys/msgs/active_mediation/active_mediation.ja
$INSTALL_HOME/sys/msgs/active_mediation/active_mediation.en_US
$INSTALL_HOME/sys/msgs/active_mediation/active_mediation.ko
$INSTALL_HOME/sys/msgs/active_mediation/active_mediation.ru_RU
$INSTALL_HOME/sys/msgs/licenseerrors/license_error.ru_RU
$INSTALL_HOME/sys/msgs/collections/collections.en_US
$INSTALL_HOME/sys/msgs/collections/collections.zh
$INSTALL_HOME/sys/msgs/collections/collections.pt_BR
$INSTALL_HOME/sys/msgs/collections/collections.ja
$INSTALL_HOME/sys/msgs/collections/collections.ko
$INSTALL_HOME/sys/msgs/collections/collections.es
$INSTALL_HOME/sys/msgs/collections/collections.zh_TW
$INSTALL_HOME/sys/msgs/collections/collections.fr
$INSTALL_HOME/sys/msgs/collections/collections.it
$INSTALL_HOME/sys/msgs/collections/collections.ru_RU
$INSTALL_HOME/sys/msgs/businessprofile/business_profile_descr.pt_BR
$INSTALL_HOME/sys/msgs/businessprofile/business_profile_descr.ko
$INSTALL_HOME/sys/msgs/businessprofile/business_profile_descr.ru_RU
$INSTALL_HOME/sys/msgs/apndevicestates/apn_device_states.ru_RU
$INSTALL_HOME/sys/msgs/apndevicestates/apn_device_states.pt_BR
$INSTALL_HOME/sys/msgs/apndevicestates/apn_device_states.ko
$INSTALL_HOME/sys/msgs/simdevicestates/sim_device_states.ru_RU
$INSTALL_HOME/sys/msgs/numdevicestates/num_device_states.ru_RU
$INSTALL_HOME/sys/msgs/reasoncodes/reasons.ru_RU
$INSTALL_HOME/sys/msgs/localedescr/locale_descr.ru_RU
$INSTALL_HOME/sys/data/config/bus_params_AAA.xml
$INSTALL_HOME/sys/data/config/bus_params_customer.xml
$INSTALL_HOME/sys/data/config/pin_slm_business_profile.xml
$INSTALL_HOME/sys/data/config/config_collections_scenario_params.xml
$INSTALL_HOME/sys/data/config/config_lifecycle_states.xml
$INSTALL_HOME/sys/data/config/pin_offer_profile_provisioning_tags_policy_attributes.xml
$INSTALL_HOME/sys/data/config/config_service_state_map.xml
$INSTALL_HOME/sys/data/config/pin_notify_ipc
$INSTALL_HOME/sys/data/config/config_subscriber_preferences_map.xml
$INSTALL_HOME/sys/eai_js/payloadconfig_ipc.xml
$INSTALL_HOME/sys/dd/data/7.4PS2_create_indexes_collections_AIA.source
$INSTALL_HOME/sys/dd/data/7.4PS2_create_collections_view_AIA.source
$INSTALL_HOME/sys/dd/data/device_framework_secondary_schema_75ps4.sql
$INSTALL_HOME/sys/dd/data/create_indexes_collections_AIA.source
$INSTALL_HOME/sys/dd/data/create_collections_view_AIA.source
$INSTALL_HOME/sys/dd/data/device_framework_primary_schema_75ps4.sql
$INSTALL_HOME/sys/dm_oracle/data/create_indexes_audit_tables_oracle.source
$INSTALL_HOME/sys/dm_oracle/data/grant_permissions_oracle.plb
$INSTALL_HOME/sys/dm_oracle/data/update_disable_compact_event.sql
$INSTALL_HOME/sys/dm_oracle/data/update_compact_event.sql
$INSTALL_HOME/lib/libxalan-c.so
$INSTALL_HOME/lib/libssl.so.1.0.0
$INSTALL_HOME/lib/libxalanMsg.so
$INSTALL_HOME/lib/libcm_hash.so
$INSTALL_HOME/lib/libpin_crypt4qm.so
$INSTALL_HOME/lib/libLoadValidSLM.so
$INSTALL_HOME/lib/libssl.so
$INSTALL_HOME/lib/libpin_crypt_aes4qm.so
$INSTALL_HOME/lib/libLoadValidCollections.so
$INSTALL_HOME/lib/fm_offer_profile.so
$INSTALL_HOME/lib/libcrypto.so
$INSTALL_HOME/lib/libLoadValidTCFAAA.so
$INSTALL_HOME/lib/libpin_crypt_sha1.so
$INSTALL_HOME/lib/libcrypto.so.1.0.0
$INSTALL_HOME/include/ops/asm.h
$INSTALL_HOME/include/ops/offer_profile.h
$INSTALL_HOME/xsd/bus_params_customer.xsd
$INSTALL_HOME/xsd/PinTransforms.xsl
$INSTALL_HOME/xsd/config_service_state_map.xsd
$INSTALL_HOME/xsd/config_collections_profile_default.xsd
$INSTALL_HOME/xsd/config_collections_scenario_params.xsd
$INSTALL_HOME/xsd/config_collections_action.xsd
$INSTALL_HOME/xsd/config_subscriber_preferences_map.xsd
$INSTALL_HOME/xsd/bus_params_to_AAA.xsl
$INSTALL_HOME/xsd/config_collections_scenario.xsd
$INSTALL_HOME/xsd/config_collections_action_custom.xsd
$INSTALL_HOME/xsd/config_lifecycle_states.xsd
$INSTALL_HOME/xsd/config_collections_aging_buckets.xsd
$INSTALL_HOME/xsd/bus_params_AAA.xsl
$INSTALL_HOME/xsd/bus_params_customer.xsl
$INSTALL_HOME/xsd/config_collections_profile.xsd
$INSTALL_HOME/xsd/bus_params_AAA.xsd
$INSTALL_HOME/xsd/config_collections_action_custom_late_fee.xsd
$INSTALL_HOME/xsd/config_lifecycle_states.xsl
$INSTALL_HOME/xsd/config_collections_action_custom_finance_charge.xsd
$INSTALL_HOME/xsd/bus_params_to_customer.xsl
$INSTALL_HOME/setup/scripts/pin_offer_profile_policy_labels.xml
$INSTALL_HOME/setup/scripts/pin_cnf_pin_state_change.pl
$INSTALL_HOME/setup/scripts/pin_cnf_upgrade.pl
$INSTALL_HOME/setup/scripts/pin_cmp_qm_port.pl
$INSTALL_HOME/setup/scripts/create_unified_collections_view_AIA.pl
$INSTALL_HOME/setup/scripts/pin_cmp_upgrade.pl
$INSTALL_HOME/setup/scripts/pin_cmp_virtual_col.pl
$INSTALL_HOME/jars/osdt_cert.jar
$INSTALL_HOME/jars/owm-3_0.jar
$INSTALL_HOME/jars/ojmisc.jar
$INSTALL_HOME/jars/cryptoj_5_0.jar
$INSTALL_HOME/jars/virtualcolumns.jar
$INSTALL_HOME/jars/osdt_core.jar
$INSTALL_HOME/jars/oraclepki.jar
$INSTALL_HOME/apps/pin_inv_doc_gen/pin_inv_doc_gen.jar
$INSTALL_HOME/apps/pin_inv_doc_gen/docgen.sh
$INSTALL_HOME/apps/pin_inv_doc_gen/Infranet.properties.sample
$INSTALL_HOME/apps/pin_inv_doc_gen/InvoiceList.xsd
$INSTALL_HOME/apps/pin_inv_doc_gen/InvoiceList.xml
$INSTALL_HOME/apps/pin_inv_doc_gen/invoice_bursting.plb
$INSTALL_HOME/apps/pin_inv_doc_gen/Create_Xmlp_Invoice_Job.sql
$INSTALL_HOME/apps/pin_inv_doc_gen/lib/ApacheLicense.txt
$INSTALL_HOME/apps/pin_inv_doc_gen/lib/xmlp/xmlef.jar
$INSTALL_HOME/apps/pin_inv_doc_gen/lib/xmlp/commons-logging.jar
$INSTALL_HOME/apps/pin_inv_doc_gen/lib/xmlp/mail.jar
$INSTALL_HOME/apps/pin_inv_doc_gen/lib/xmlp/xmlparserv2.jar
$INSTALL_HOME/apps/pin_inv_doc_gen/lib/xmlp/xdo-core.jar
$INSTALL_HOME/apps/pin_inv_doc_gen/lib/xmlp/jaxrpc.jar
$INSTALL_HOME/apps/pin_inv_doc_gen/lib/xmlp/orawsdl.jar
$INSTALL_HOME/apps/pin_inv_doc_gen/lib/xmlp/xdo-server.jar
$INSTALL_HOME/apps/pin_inv_doc_gen/lib/xmlp/axis_bip.jar
$INSTALL_HOME/apps/pin_inv_doc_gen/lib/xmlp/commons-discovery.jar
$INSTALL_HOME/apps/pin_inv_doc_gen/lib/wls/ojdbc6.jar
$INSTALL_HOME/apps/pin_inv_doc_gen/lib/wls/wlfullclient.jar
$INSTALL_HOME/apps/pin_inv_doc_gen/lib/xerces/xercesImpl.jar
$INSTALL_HOME/apps/pin_virtual_columns/pin_virtual_gen
$INSTALL_HOME/apps/pin_virtual_columns/oracle/create_pkg_pin_virtual_columns.plb
$INSTALL_HOME/bin/pin_update_items_journals
$INSTALL_HOME/bin/pin_state_change
$INSTALL_HOME/bin/create_svr_wallet_cert
$INSTALL_HOME/bin/orapki
$INSTALL_HOME/wallet/root/ewallet.p12
$INSTALL_HOME/wallet/client/cwallet.sso
$INSTALL_HOME/wallet/client/ewallet.p12
---------------------------------------------
# The following files were packaged with 
# this patch, However only the applicable 
# files will be installed 
---------------------------------------------
$PATCH_HOME/sys/dm_prov_telco/dm_prov_telco.so
$PATCH_HOME/sys/cmmp/cmmp_v1.so
$PATCH_HOME/sys/bip_udf/data/create_temporary_tables.plb
$PATCH_HOME/sys/dm_vertex/dm_vertex_ctq20005.so
$PATCH_HOME/sys/dm_vertex/dm_vertex_ctq10106.so
$PATCH_HOME/sys/dm_vertex/dm_vertex_stq406.so
$PATCH_HOME/sys/dm_vertex/dm_vertex_ctq10013.so
$PATCH_HOME/sys/dm_vertex/dm_vertex_stq3221.so
$PATCH_HOME/sys/dm_vertex/dm_vertex_stq316.so
$PATCH_HOME/sys/dm_ifw_sync/libplugin_ifw_sync10g.so
$PATCH_HOME/sys/dm_ifw_sync/libplugin_ifw_sync11g.so
$PATCH_HOME/sys/dm_ifw_sync/ifw_sync_queuenames
$PATCH_HOME/sys/dm_ifw_sync/libdm_eai.so
$PATCH_HOME/sys/diagnostics/pin_adu_validate/pin_adu_validate
$PATCH_HOME/sys/msgs/revenueassurance/ra_alert_message.zh
$PATCH_HOME/sys/msgs/revenueassurance/ra_alert_message.it
$PATCH_HOME/sys/msgs/revenueassurance/ra_alert_message.fr
$PATCH_HOME/sys/msgs/revenueassurance/ra_alert_message.pt_BR
$PATCH_HOME/sys/msgs/revenueassurance/ra_alert_message.ru_RU
$PATCH_HOME/sys/msgs/revenueassurance/ra_alert_message.ko
$PATCH_HOME/sys/msgs/revenueassurance/ra_alert_message.en_US
$PATCH_HOME/sys/msgs/revenueassurance/ra_alert_message.ja
$PATCH_HOME/sys/msgs/revenueassurance/ra_alert_message.es
$PATCH_HOME/sys/msgs/revenueassurance/ra_alert_message.zh_TW
$PATCH_HOME/sys/msgs/lifecycle_states/lifecycle_states.en_US
$PATCH_HOME/sys/msgs/lifecycle_states/lifecycle_states.zh
$PATCH_HOME/sys/msgs/lifecycle_states/lifecycle_states.es
$PATCH_HOME/sys/msgs/lifecycle_states/lifecycle_states.it
$PATCH_HOME/sys/msgs/lifecycle_states/lifecycle_states.ru_RU
$PATCH_HOME/sys/msgs/lifecycle_states/lifecycle_states.zh_TW
$PATCH_HOME/sys/msgs/lifecycle_states/lifecycle_states.ja
$PATCH_HOME/sys/msgs/lifecycle_states/lifecycle_states.pt_BR
$PATCH_HOME/sys/msgs/lifecycle_states/lifecycle_states.fr
$PATCH_HOME/sys/msgs/lifecycle_states/lifecycle_states.ko
$PATCH_HOME/sys/msgs/eradescr/era_descr.fr
$PATCH_HOME/sys/msgs/eradescr/era_descr.es
$PATCH_HOME/sys/msgs/eradescr/era_descr.ru_RU
$PATCH_HOME/sys/msgs/eradescr/era_descr.ja
$PATCH_HOME/sys/msgs/featuresandprofilestates/features_and_profiles_states.ru_RU
$PATCH_HOME/sys/msgs/simcardtypes/sim_card_types.en_US
$PATCH_HOME/sys/msgs/simcardtypes/sim_card_types.es
$PATCH_HOME/sys/msgs/simcardtypes/sim_card_types.zh_TW
$PATCH_HOME/sys/msgs/simcardtypes/sim_card_types.it
$PATCH_HOME/sys/msgs/simcardtypes/sim_card_types.ru_RU
$PATCH_HOME/sys/msgs/simcardtypes/sim_card_types.fr
$PATCH_HOME/sys/msgs/simcardtypes/sim_card_types.ko
$PATCH_HOME/sys/msgs/simcardtypes/sim_card_types.ja
$PATCH_HOME/sys/msgs/simcardtypes/sim_card_types.zh
$PATCH_HOME/sys/msgs/simcardtypes/sim_card_types.pt_BR
$PATCH_HOME/sys/msgs/ipdevicestates/ip_device_states.pt_BR
$PATCH_HOME/sys/msgs/ipdevicestates/ip_device_states.ko
$PATCH_HOME/sys/msgs/ipdevicestates/ip_device_states.ru_RU
$PATCH_HOME/sys/msgs/numcategories/num_categories.ko
$PATCH_HOME/sys/msgs/numcategories/num_categories.es
$PATCH_HOME/sys/msgs/numcategories/num_categories.zh_TW
$PATCH_HOME/sys/msgs/numcategories/num_categories.zh
$PATCH_HOME/sys/msgs/numcategories/num_categories.pt_BR
$PATCH_HOME/sys/msgs/numcategories/num_categories.ru_RU
$PATCH_HOME/sys/msgs/numcategories/num_categories.it
$PATCH_HOME/sys/msgs/numcategories/num_categories.ja
$PATCH_HOME/sys/msgs/numcategories/num_categories.en_US
$PATCH_HOME/sys/msgs/numcategories/num_categories.fr
$PATCH_HOME/sys/msgs/paymentchannel/payment_channel.pt_BR
$PATCH_HOME/sys/msgs/paymentchannel/payment_channel.ru_RU
$PATCH_HOME/sys/msgs/paymentchannel/payment_channel.ko
$PATCH_HOME/sys/msgs/numvanities/num_vanities.fr
$PATCH_HOME/sys/msgs/numvanities/num_vanities.ja
$PATCH_HOME/sys/msgs/numvanities/num_vanities.pt_BR
$PATCH_HOME/sys/msgs/numvanities/num_vanities.ko
$PATCH_HOME/sys/msgs/numvanities/num_vanities.en_US
$PATCH_HOME/sys/msgs/numvanities/num_vanities.zh
$PATCH_HOME/sys/msgs/numvanities/num_vanities.es
$PATCH_HOME/sys/msgs/numvanities/num_vanities.zh_TW
$PATCH_HOME/sys/msgs/numvanities/num_vanities.ru_RU
$PATCH_HOME/sys/msgs/numvanities/num_vanities.it
$PATCH_HOME/sys/msgs/errorcodes/errors.ru_RU
$PATCH_HOME/sys/msgs/errorcodes/errors.zh_TW
$PATCH_HOME/sys/msgs/errorcodes/errors.ko
$PATCH_HOME/sys/msgs/errorcodes/errors.es
$PATCH_HOME/sys/msgs/errorcodes/errors.it
$PATCH_HOME/sys/msgs/errorcodes/errors.fr
$PATCH_HOME/sys/msgs/errorcodes/errors.ja
$PATCH_HOME/sys/msgs/errorcodes/errors.pt_BR
$PATCH_HOME/sys/msgs/errorcodes/errors.en_US
$PATCH_HOME/sys/msgs/errorcodes/errors.zh
$PATCH_HOME/sys/msgs/active_mediation/active_mediation.zh
$PATCH_HOME/sys/msgs/active_mediation/active_mediation.pt_BR
$PATCH_HOME/sys/msgs/active_mediation/active_mediation.fr
$PATCH_HOME/sys/msgs/active_mediation/active_mediation.it
$PATCH_HOME/sys/msgs/active_mediation/active_mediation.zh_TW
$PATCH_HOME/sys/msgs/active_mediation/active_mediation.es
$PATCH_HOME/sys/msgs/active_mediation/active_mediation.ja
$PATCH_HOME/sys/msgs/active_mediation/active_mediation.en_US
$PATCH_HOME/sys/msgs/active_mediation/active_mediation.ko
$PATCH_HOME/sys/msgs/active_mediation/active_mediation.ru_RU
$PATCH_HOME/sys/msgs/licenseerrors/license_error.ru_RU
$PATCH_HOME/sys/msgs/collections/collections.en_US
$PATCH_HOME/sys/msgs/collections/collections.zh
$PATCH_HOME/sys/msgs/collections/collections.pt_BR
$PATCH_HOME/sys/msgs/collections/collections.ja
$PATCH_HOME/sys/msgs/collections/collections.ko
$PATCH_HOME/sys/msgs/collections/collections.es
$PATCH_HOME/sys/msgs/collections/collections.zh_TW
$PATCH_HOME/sys/msgs/collections/collections.fr
$PATCH_HOME/sys/msgs/collections/collections.it
$PATCH_HOME/sys/msgs/collections/collections.ru_RU
$PATCH_HOME/sys/msgs/businessprofile/business_profile_descr.pt_BR
$PATCH_HOME/sys/msgs/businessprofile/business_profile_descr.ko
$PATCH_HOME/sys/msgs/businessprofile/business_profile_descr.ru_RU
$PATCH_HOME/sys/msgs/apndevicestates/apn_device_states.ru_RU
$PATCH_HOME/sys/msgs/apndevicestates/apn_device_states.pt_BR
$PATCH_HOME/sys/msgs/apndevicestates/apn_device_states.ko
$PATCH_HOME/sys/msgs/simdevicestates/sim_device_states.it
$PATCH_HOME/sys/msgs/simdevicestates/sim_device_states.en_US
$PATCH_HOME/sys/msgs/simdevicestates/sim_device_states.fr
$PATCH_HOME/sys/msgs/simdevicestates/sim_device_states.ko
$PATCH_HOME/sys/msgs/simdevicestates/sim_device_states.ja
$PATCH_HOME/sys/msgs/simdevicestates/sim_device_states.pt_BR
$PATCH_HOME/sys/msgs/simdevicestates/sim_device_states.zh
$PATCH_HOME/sys/msgs/simdevicestates/sim_device_states.ru_RU
$PATCH_HOME/sys/msgs/simdevicestates/sim_device_states.es
$PATCH_HOME/sys/msgs/simdevicestates/sim_device_states.zh_TW
$PATCH_HOME/sys/msgs/numdevicestates/num_device_states.zh
$PATCH_HOME/sys/msgs/numdevicestates/num_device_states.ja
$PATCH_HOME/sys/msgs/numdevicestates/num_device_states.it
$PATCH_HOME/sys/msgs/numdevicestates/num_device_states.en_US
$PATCH_HOME/sys/msgs/numdevicestates/num_device_states.zh_TW
$PATCH_HOME/sys/msgs/numdevicestates/num_device_states.es
$PATCH_HOME/sys/msgs/numdevicestates/num_device_states.ko
$PATCH_HOME/sys/msgs/numdevicestates/num_device_states.ru_RU
$PATCH_HOME/sys/msgs/numdevicestates/num_device_states.fr
$PATCH_HOME/sys/msgs/numdevicestates/num_device_states.pt_BR
$PATCH_HOME/sys/msgs/reasoncodes/reasons.ru_RU
$PATCH_HOME/sys/msgs/reasoncodes/reasons.es
$PATCH_HOME/sys/msgs/reasoncodes/reasons.zh
$PATCH_HOME/sys/msgs/reasoncodes/reasons.fr
$PATCH_HOME/sys/msgs/reasoncodes/reasons.zh_TW
$PATCH_HOME/sys/msgs/reasoncodes/reasons.it
$PATCH_HOME/sys/msgs/reasoncodes/reasons.ja
$PATCH_HOME/sys/msgs/localedescr/locale_descr.ru_RU
$PATCH_HOME/sys/msgs/localedescr/locale_descr.en_US
$PATCH_HOME/sys/data/config/pin_telco_gsm_fax_aaa_params.xml
$PATCH_HOME/sys/data/config/bus_params_AAA.xml
$PATCH_HOME/sys/data/config/pin_telco_gsm_telephony_aaa_params.xml
$PATCH_HOME/sys/data/config/bus_params_customer.xml
$PATCH_HOME/sys/data/config/pin_slm_business_profile.xml
$PATCH_HOME/sys/data/config/pin_notify_telco
$PATCH_HOME/sys/data/config/pin_telco_provisioning_gsm
$PATCH_HOME/sys/data/config/pin_notify_collections
$PATCH_HOME/sys/data/config/config_collections_scenario_params.xml
$PATCH_HOME/sys/data/config/config_lifecycle_states.xml
$PATCH_HOME/sys/data/config/pin_device_state_num
$PATCH_HOME/sys/data/config/pin_telco_gsm_data_aaa_params.xml
$PATCH_HOME/sys/data/config/pin_offer_profile_provisioning_tags_policy_attributes.xml
$PATCH_HOME/sys/data/config/pin_telco_gprs_aaa_params.xml
$PATCH_HOME/sys/data/config/bus_params_rating.xml
$PATCH_HOME/sys/data/config/pin_config_opcodemap_tcf
$PATCH_HOME/sys/data/config/config_service_state_map.xml
$PATCH_HOME/sys/data/config/bus_params_subscription.xml
$PATCH_HOME/sys/data/config/pin_notify_ipc
$PATCH_HOME/sys/data/config/pin_telco_gsm_aaa_params.xml
$PATCH_HOME/sys/data/config/bus_params_act.xml
$PATCH_HOME/sys/data/config/config_subscriber_preferences_map.xml
$PATCH_HOME/sys/data/config/bus_params_billing.xml
$PATCH_HOME/sys/data/config/bus_params_rerate.xml
$PATCH_HOME/sys/data/config/pin_telco_gsm_sms_aaa_params.xml
$PATCH_HOME/sys/data/config/pin_notify_crm_sync
$PATCH_HOME/sys/data/config/pin_telco_aaa_params.xml
$PATCH_HOME/sys/dm_invoice/data/dd_objects.source
$PATCH_HOME/sys/cm/cm_login_null.so
$PATCH_HOME/sys/cm/cm_login_pw001.so
$PATCH_HOME/sys/cm/taxcodes_map
$PATCH_HOME/sys/dm_aq/libplugin_aq11g.so
$PATCH_HOME/sys/dm_aq/aq_queuenames
$PATCH_HOME/sys/dm_aq/libplugin_aq10g.so
$PATCH_HOME/sys/dm_aq/libdm_eai.so
$PATCH_HOME/sys/dm_eai/plugin_http.so
$PATCH_HOME/sys/dm_eai/plugin_flist.so
$PATCH_HOME/sys/dm_eai/libdm_eai.so
$PATCH_HOME/sys/dm_eai/plugin_xml.so
$PATCH_HOME/sys/eai_js/payloadconfig_ifw_sync.xml
$PATCH_HOME/sys/eai_js/payloadconfig_collections.xml
$PATCH_HOME/sys/eai_js/payloadconfig_ipc.xml
$PATCH_HOME/sys/eai_js/payloadconfig_crm_sync.xml
$PATCH_HOME/sys/eai_js/xsd/CollectionsInfoChange.xsd
$PATCH_HOME/sys/eai_js/xsd/ProductInfoChange.xsd
$PATCH_HOME/sys/eai_js/xsd/AccountInfoChange.xsd
$PATCH_HOME/sys/dd/data/dd_objects_process_audit.source
$PATCH_HOME/sys/dd/data/drop_tables_telco_aaa_oracle.source
$PATCH_HOME/sys/dd/data/dd_objects_collections.source
$PATCH_HOME/sys/dd/data/7.4PS2_create_indexes_collections_AIA.source
$PATCH_HOME/sys/dd/data/drop_tables_collections_oracle.source
$PATCH_HOME/sys/dd/data/init_objects.source
$PATCH_HOME/sys/dd/data/init_objects_collections.source
$PATCH_HOME/sys/dd/data/dd_objects_telco_aaa.source
$PATCH_HOME/sys/dd/data/7.4PS2_create_collections_view_AIA.source
$PATCH_HOME/sys/dd/data/create_indexes_rel_oracle.source
$PATCH_HOME/sys/dd/data/dd_objects_reservation.source
$PATCH_HOME/sys/dd/data/drop_indexes_rel_oracle.source
$PATCH_HOME/sys/dd/data/device_framework_secondary_schema_75ps4.sql
$PATCH_HOME/sys/dd/data/cmt_clean_old_balances_oracle.sql
$PATCH_HOME/sys/dd/data/dd_objects.source
$PATCH_HOME/sys/dd/data/create_indexes_collections_AIA.source
$PATCH_HOME/sys/dd/data/create_collections_view_AIA.source
$PATCH_HOME/sys/dd/data/device_framework_primary_schema_75ps4.sql
$PATCH_HOME/sys/dd/data/create_cmt_procedure_oracle.sql
$PATCH_HOME/sys/dm_tt/dm_tt11g.so
$PATCH_HOME/sys/dm_tt/data/create_pkg_pin_sequence_oracle.plb
$PATCH_HOME/sys/dm_tt/data/pin_rel_tt_updater_sp.plb
$PATCH_HOME/sys/dm_tt/data/tt_create_procedures.plb
$PATCH_HOME/sys/amt/data/create_amt_group_search_pkg.sql
$PATCH_HOME/sys/amt/data/create_amt_group_search_pkb.sql
$PATCH_HOME/sys/amt/data/create_amt_mv_pkb.sql
$PATCH_HOME/sys/amt/data/create_amt_mover_schema.sql
$PATCH_HOME/sys/amt/data/create_amt_mv_pkg.sql
$PATCH_HOME/sys/amt/data/create_generate_amt_metadata.sql
$PATCH_HOME/sys/dm_oracle/dm_oracle10g64.so
$PATCH_HOME/sys/dm_oracle/dm_oracle11g64.so
$PATCH_HOME/sys/dm_oracle/data/create_pkg_pin_sequence_oracle.plb
$PATCH_HOME/sys/dm_oracle/data/create_indexes.source
$PATCH_HOME/sys/dm_oracle/data/job_rerate_procedures_oracle.plb
$PATCH_HOME/sys/dm_oracle/data/create_dd_UTF8.source
$PATCH_HOME/sys/dm_oracle/data/create_md_secondary.source
$PATCH_HOME/sys/dm_oracle/data/create_md_secondary_schema_view.source
$PATCH_HOME/sys/dm_oracle/data/create_get_fields.plb
$PATCH_HOME/sys/dm_oracle/data/create_indexes_base_audit_tables_oracle.source
$PATCH_HOME/sys/dm_oracle/data/create_md_primary.source
$PATCH_HOME/sys/dm_oracle/data/create_indexes_audit_tables_oracle.source
$PATCH_HOME/sys/dm_oracle/data/create_procedures_UTF8.plb
$PATCH_HOME/sys/dm_oracle/data/create_procedures_AL32UTF8.plb
$PATCH_HOME/sys/dm_oracle/data/create_dd_AL32UTF8.source
$PATCH_HOME/sys/dm_oracle/data/grant_permissions_oracle.plb
$PATCH_HOME/sys/dm_oracle/data/update_disable_compact_event.sql
$PATCH_HOME/sys/dm_oracle/data/update_compact_event.sql
$PATCH_HOME/sys/dm_oracle/data/drop_indexes.source
$PATCH_HOME/lib/fm_utils.so
$PATCH_HOME/lib/fm_ip.so
$PATCH_HOME/lib/libloadapp.so
$PATCH_HOME/lib/fm_stub.so
$PATCH_HOME/lib/fm_rate.so
$PATCH_HOME/lib/fm_apn_pol.so
$PATCH_HOME/lib/libportal64.so
$PATCH_HOME/lib/fm_num_pol.so
$PATCH_HOME/lib/fm_asm.so
$PATCH_HOME/lib/fm_monitor.so
$PATCH_HOME/lib/libcmpin.so
$PATCH_HOME/lib/libxercesc.so
$PATCH_HOME/lib/libxalan-c.so
$PATCH_HOME/lib/fm_voucher.so
$PATCH_HOME/lib/fm_content_pol.so
$PATCH_HOME/lib/fm_num.so
$PATCH_HOME/lib/fm_gsm_aaa.so
$PATCH_HOME/lib/libssl.so.1.0.0
$PATCH_HOME/lib/fm_gprs_aaa_pol.so
$PATCH_HOME/lib/fm_order_pol.so
$PATCH_HOME/lib/fm_trans_pol.so
$PATCH_HOME/lib/fm_adu.so
$PATCH_HOME/lib/libctq.so
$PATCH_HOME/lib/fm_zonemap.so
$PATCH_HOME/lib/libLoadValidRating.so
$PATCH_HOME/lib/fm_tcf_gprs.so
$PATCH_HOME/lib/fm_gsm_pol.so
$PATCH_HOME/lib/fm_gl.so
$PATCH_HOME/lib/fm_filter_set.so
$PATCH_HOME/lib/portal_op_flds.dat
$PATCH_HOME/lib/fm_mail.so
$PATCH_HOME/lib/fm_bal_pol.so
$PATCH_HOME/lib/fm_ip_pol.so
$PATCH_HOME/lib/fm_bill_utils.so
$PATCH_HOME/lib/fm_reserve.so
$PATCH_HOME/lib/libpcmcpp6064.so
$PATCH_HOME/lib/fm_channel.so
$PATCH_HOME/lib/libpin_crypt4dm64.so
$PATCH_HOME/lib/libloc.so
$PATCH_HOME/lib/libpin_crypt_aes4dm.so
$PATCH_HOME/lib/libworldtax.so
$PATCH_HOME/lib/fm_publish.so
$PATCH_HOME/lib/fm_inv_pol.so
$PATCH_HOME/lib/pcmif.so
$PATCH_HOME/lib/fm_tcf_pol.so
$PATCH_HOME/lib/libpsiu_for_cm.a
$PATCH_HOME/lib/fm_term.so
$PATCH_HOME/lib/fm_prov.so
$PATCH_HOME/lib/fm_process_audit_pol_create.so
$PATCH_HOME/lib/libpin_crypt_aes.so
$PATCH_HOME/lib/fm_subscription.so
$PATCH_HOME/lib/fm_rate_pol.so
$PATCH_HOME/lib/libpcm.a
$PATCH_HOME/lib/libpinsys.a
$PATCH_HOME/lib/libpin_crypt_aes4dm64.so
$PATCH_HOME/lib/libxalanMsg.so
$PATCH_HOME/lib/libcm_hash.so
$PATCH_HOME/lib/fm_search.so
$PATCH_HOME/lib/fm_ifw_sync.so
$PATCH_HOME/lib/libpin_crypt4qm.so
$PATCH_HOME/lib/libpinldap.so
$PATCH_HOME/lib/fm_sim.so
$PATCH_HOME/lib/fm_gel.so
$PATCH_HOME/lib/fm_sim_pol.so
$PATCH_HOME/lib/fm_delivery.so
$PATCH_HOME/lib/libLoadValidSLM.so
$PATCH_HOME/lib/fm_tcf_aaa.so
$PATCH_HOME/lib/libLoadValidFinancial.so
$PATCH_HOME/lib/pcmdd.so
$PATCH_HOME/lib/fm_tcf_gprs_pol.so
$PATCH_HOME/lib/libpcmext64.so
$PATCH_HOME/lib/fm_device.so
$PATCH_HOME/lib/fm_suspense.so
$PATCH_HOME/lib/libmta.a
$PATCH_HOME/lib/fm_cust_pol.so
$PATCH_HOME/lib/fm_collections_pol.so
$PATCH_HOME/lib/fm_bal.so
$PATCH_HOME/lib/libpin_crypt.so
$PATCH_HOME/lib/fm_term_pol.so
$PATCH_HOME/lib/libpcmcpp60.so
$PATCH_HOME/lib/fm_group.so
$PATCH_HOME/lib/fm_ar.so
$PATCH_HOME/lib/libssl.so
$PATCH_HOME/lib/fm_custcare.so
$PATCH_HOME/lib/libpcmcpp67.so
$PATCH_HOME/lib/libdmpin64.so
$PATCH_HOME/lib/libpinlog.a
$PATCH_HOME/lib/fm_zonemap_pol.so
$PATCH_HOME/lib/fm_gl_pol.so
$PATCH_HOME/lib/libpin_crypt_aes4qm.so
$PATCH_HOME/lib/fm_device_pol.so
$PATCH_HOME/lib/libLoadValidCollections.so
$PATCH_HOME/lib/aes_db.pm
$PATCH_HOME/lib/fm_price_pol.so
$PATCH_HOME/lib/fm_prov_pol.so
$PATCH_HOME/lib/libSCR.so
$PATCH_HOME/lib/fm_order.so
$PATCH_HOME/lib/fm_sdk.so
$PATCH_HOME/lib/fm_tcf.so
$PATCH_HOME/lib/fm_subscription_pol.so
$PATCH_HOME/lib/fm_imt_pol.so
$PATCH_HOME/lib/libpcp.a
$PATCH_HOME/lib/fm_inv.so
$PATCH_HOME/lib/fm_remit.so
$PATCH_HOME/lib/libBAS.so
$PATCH_HOME/lib/fm_reserve_stub.so
$PATCH_HOME/lib/libtaxcommono.so
$PATCH_HOME/lib/fm_ar_pol.so
$PATCH_HOME/lib/fm_ic.so
$PATCH_HOME/lib/fm_collections.so
$PATCH_HOME/lib/fm_gsm.so
$PATCH_HOME/lib/libADT.so
$PATCH_HOME/lib/fm_bill_pol.so
$PATCH_HOME/lib/fm_adu_pol.so
$PATCH_HOME/lib/aes.so
$PATCH_HOME/lib/fm_offer_profile.so
$PATCH_HOME/lib/libcrypto.so
$PATCH_HOME/lib/fm_pymt.so
$PATCH_HOME/lib/fm_bill.so
$PATCH_HOME/lib/fm_batch_suspense.so
$PATCH_HOME/lib/fm_act.so
$PATCH_HOME/lib/fm_cust.so
$PATCH_HOME/lib/libportal.so
$PATCH_HOME/lib/libpin_crypt4dm.so
$PATCH_HOME/lib/fm_process_audit.so
$PATCH_HOME/lib/fm_content.so
$PATCH_HOME/lib/libLoadValidTCFAAA.so
$PATCH_HOME/lib/fm_pymt_pol.so
$PATCH_HOME/lib/fm_global_search_stub.so
$PATCH_HOME/lib/libBAS64.so
$PATCH_HOME/lib/fm_rerate.so
$PATCH_HOME/lib/libpin_crypt_sha1.so
$PATCH_HOME/lib/fm_pdc_pol.so
$PATCH_HOME/lib/fm_voucher_pol.so
$PATCH_HOME/lib/fm_repl_pol.so
$PATCH_HOME/lib/fm_ums.so
$PATCH_HOME/lib/fm_reserve_pol.so
$PATCH_HOME/lib/fm_act_pol.so
$PATCH_HOME/lib/libvst.so
$PATCH_HOME/lib/libpin_cc.so
$PATCH_HOME/lib/libpcmext.so
$PATCH_HOME/lib/fm_tcf_aaa_pol.so
$PATCH_HOME/lib/libloadutils.so
$PATCH_HOME/lib/libdmpin.so
$PATCH_HOME/lib/libregex.a
$PATCH_HOME/lib/fm_gsm_aaa_pol.so
$PATCH_HOME/lib/libcrypto.so.1.0.0
$PATCH_HOME/lib/libpsiu.a
$PATCH_HOME/lib/fm_price.so
$PATCH_HOME/lib/fm_perm.so
$PATCH_HOME/lib/fm_global_search.so
$PATCH_HOME/lib/libcm_main.so
$PATCH_HOME/lib/fm_remit_pol.so
$PATCH_HOME/lib/fm_ifw_sync_pol.so
$PATCH_HOME/lib/libqutil.so
$PATCH_HOME/diagnostics/pin_cfg_bpdump/pin_cfg_bpdump
$PATCH_HOME/uninstaller/uninstaller
$PATCH_HOME/bin_conf/portal_perf_snmp_collect
$PATCH_HOME/deploy/web_services/infranetwebsvc.war
$PATCH_HOME/deploy/web_services/schemas/PCM_OP_CUSTCARE_MOVE_ACCT.xsd
$PATCH_HOME/deploy/web_services/schemas/PCM_OP_AR_GET_BILLS.xsd
$PATCH_HOME/deploy/web_services/schemas/PCM_OP_CUST_UPDATE_SERVICES.xsd
$PATCH_HOME/deploy/web_services/schemas/PCM_OP_BILL_DEBIT.xsd
$PATCH_HOME/deploy/web_services/schemas/PCM_OP_CUST_MODIFY_CUSTOMER.xsd
$PATCH_HOME/deploy/web_services/schemas/PCM_OP_AR_GET_ACCT_ACTION_ITEMS.xsd
$PATCH_HOME/deploy/web_services/schemas/PCM_OP_PRICE_GET_PRICE_LIST.xsd
$PATCH_HOME/deploy/web_services/schemas/PCM_OP_AR_GET_ACCT_BILLS.xsd
$PATCH_HOME/deploy/web_services/schemas/PCM_OP_CUST_SET_STATUS.xsd
$PATCH_HOME/deploy/web_services/schemas/PCM_OP_BAL_GET_BALANCES.xsd
$PATCH_HOME/deploy/web_services/schemas/PCM_OP_PRICE_SET_PRICE_LIST.xsd
$PATCH_HOME/deploy/web_services/schemas/PCM_OP_SUBSCRIPTION_GET_PURCHASED_OFFERINGS.xsd
$PATCH_HOME/deploy/web_services/schemas/PCM_OP_CUST_COMMIT_CUSTOMER.xsd
$PATCH_HOME/deploy/web_services/schemas/PCM_OP_AR_GET_BILL_ITEMS.xsd
$PATCH_HOME/deploy/web_services/schemas/PCM_OP_CUST_UPDATE_CUSTOMER.xsd
$PATCH_HOME/deploy/web_services/schemas/PCM_OP_BILL_GET_ITEM_EVENT_CHARGE_DISCOUNT.xsd
$PATCH_HOME/deploy/web_services/schemas/PCM_OP_PYMT_COLLECT.xsd
$PATCH_HOME/deploy/web_services/schemas/PCM_OP_SUBSCRIPTION_PURCHASE_DEAL.xsd
$PATCH_HOME/deploy/web_services/schemas/PCM_OP_BILL_GROUP_MOVE_MEMBER.xsd
$PATCH_HOME/deploy/web_services/schemas/PCM_OP_SUBSCRIPTION_SET_PRODINFO.xsd
$PATCH_HOME/deploy/web_services/schemas/PCM_OP_SUBSCRIPTION_TRANSFER_SUBSCRIPTION.xsd
$PATCH_HOME/deploy/web_services/schemas/PCM_OP_AR_GET_ACTION_ITEMS.xsd
$PATCH_HOME/deploy/web_services/lib/infranetwebsvc.jar
$PATCH_HOME/deploy/web_services/opspecs/PCM_OP_CUST_UPDATE_CUSTOMER.xml
$PATCH_HOME/deploy/web_services/opspecs/PCM_OP_BAL_GET_BALANCES.xml
$PATCH_HOME/deploy/web_services/opspecs/PCM_OP_SUBSCRIPTION_GET_PURCHASED_OFFERINGS.xml
$PATCH_HOME/deploy/web_services/opspecs/PCM_OP_SUBSCRIPTION_TRANSFER_SUBSCRIPTION.xml
$PATCH_HOME/deploy/web_services/opspecs/PCM_OP_COLLECTIONS_SET_ACTION_STATUS.xml
$PATCH_HOME/deploy/web_services/opspecs/PCM_OP_AR_GET_ACCT_BILLS.xml
$PATCH_HOME/deploy/web_services/opspecs/PCM_OP_SUBSCRIPTION_PURCHASE_DEAL.xml
$PATCH_HOME/deploy/web_services/opspecs/PCM_OP_CUST_UPDATE_SERVICES.xml
$PATCH_HOME/deploy/web_services/opspecs/PCM_OP_CUST_MODIFY_CUSTOMER.xml
$PATCH_HOME/deploy/web_services/opspecs/PCM_OP_CUST_SET_STATUS.xml
$PATCH_HOME/deploy/web_services/opspecs/PCM_OP_AR_GET_BILL_ITEMS.xml
$PATCH_HOME/deploy/web_services/opspecs/PCM_OP_BILL_GET_ITEM_EVENT_CHARGE_DISCOUNT.xml
$PATCH_HOME/deploy/web_services/opspecs/PCM_OP_AR_GET_BILLS.xml
$PATCH_HOME/deploy/web_services/opspecs/PCM_OP_BILL_GROUP_MOVE_MEMBER.xml
$PATCH_HOME/deploy/web_services/opspecs/PCM_OP_CUST_COMMIT_CUSTOMER.xml
$PATCH_HOME/deploy/web_services/opspecs/PCM_OP_AR_GET_ACCT_ACTION_ITEMS.xml
$PATCH_HOME/deploy/web_services/opspecs/PCM_OP_BILL_DEBIT.xml
$PATCH_HOME/deploy/web_services/opspecs/PCM_OP_CUST_CREATE_PROFILE.xml
$PATCH_HOME/deploy/web_services/opspecs/PCM_OP_AR_GET_ACTION_ITEMS.xml
$PATCH_HOME/deploy/web_services/opspecs/PCM_OP_SUBSCRIPTION_SET_PRODINFO.xml
$PATCH_HOME/deploy/web_services/opspecs/PCM_OP_PRICE_SET_PRICE_LIST.xml
$PATCH_HOME/deploy/web_services/opspecs/PCM_OP_PYMT_COLLECT.xml
$PATCH_HOME/deploy/web_services/opspecs/PCM_OP_PRICE_GET_PRICE_LIST.xml
$PATCH_HOME/include/pin_os.h
$PATCH_HOME/include/pin_os_time.h
$PATCH_HOME/include/pin_errs.h
$PATCH_HOME/include/fm_bill_utils.h
$PATCH_HOME/include/pin_bill.h
$PATCH_HOME/include/pin_inv.h
$PATCH_HOME/include/pcm.h
$PATCH_HOME/include/PinFlds.h
$PATCH_HOME/include/pin_ar.h
$PATCH_HOME/include/pin_os_string.h
$PATCH_HOME/include/pin_tcf.h
$PATCH_HOME/include/cm_fm.h
$PATCH_HOME/include/fm_collections.h
$PATCH_HOME/include/psiu_business_params.h
$PATCH_HOME/include/pin_rate.h
$PATCH_HOME/include/pin_cust.h
$PATCH_HOME/include/fm_utils.h
$PATCH_HOME/include/pin_act.h
$PATCH_HOME/include/pin_flds.h
$PATCH_HOME/include/pin_subscription.h
$PATCH_HOME/include/ops/base.h
$PATCH_HOME/include/ops/collections.h
$PATCH_HOME/include/ops/cust.h
$PATCH_HOME/include/ops/rate.h
$PATCH_HOME/include/ops/bill.h
$PATCH_HOME/include/ops/ar.h
$PATCH_HOME/include/ops/tcf.h
$PATCH_HOME/include/ops/pymt.h
$PATCH_HOME/include/ops/asm.h
$PATCH_HOME/include/ops/bal.h
$PATCH_HOME/include/ops/offer_profile.h
$PATCH_HOME/include/ops/price.h
$PATCH_HOME/xsd/bus_params_subscription.xsd
$PATCH_HOME/xsd/bus_params_rating.xsd
$PATCH_HOME/xsd/bus_params_customer.xsd
$PATCH_HOME/xsd/bus_params_act.xsl
$PATCH_HOME/xsd/bus_params_rerate.xsd
$PATCH_HOME/xsd/bus_params_rerate.xsl
$PATCH_HOME/xsd/bus_params_billing.xsl
$PATCH_HOME/xsd/PinTransforms.xsl
$PATCH_HOME/xsd/bus_params_to_rerate.xsl
$PATCH_HOME/xsd/config_service_state_map.xsd
$PATCH_HOME/xsd/config_collections_profile_default.xsd
$PATCH_HOME/xsd/bus_params_billing.xsd
$PATCH_HOME/xsd/bus_params_rating.xsl
$PATCH_HOME/xsd/config_collections_scenario_params.xsd
$PATCH_HOME/xsd/config_collections_action.xsd
$PATCH_HOME/xsd/config_subscriber_preferences_map.xsd
$PATCH_HOME/xsd/PinTypes.xsd
$PATCH_HOME/xsd/pin_telco_aaa_params.xsd
$PATCH_HOME/xsd/bus_params_act.xsd
$PATCH_HOME/xsd/bus_params_to_subscription.xsl
$PATCH_HOME/xsd/bus_params_to_AAA.xsl
$PATCH_HOME/xsd/bus_params_conf.xsd
$PATCH_HOME/xsd/config_collections_scenario.xsd
$PATCH_HOME/xsd/bus_params_subscription.xsl
$PATCH_HOME/xsd/config_collections_action_custom.xsd
$PATCH_HOME/xsd/config_lifecycle_states.xsd
$PATCH_HOME/xsd/config_collections_aging_buckets.xsd
$PATCH_HOME/xsd/bus_params_AAA.xsl
$PATCH_HOME/xsd/bus_params_to_billing.xsl
$PATCH_HOME/xsd/bus_params_customer.xsl
$PATCH_HOME/xsd/config_collections_profile.xsd
$PATCH_HOME/xsd/bus_params_to_act.xsl
$PATCH_HOME/xsd/bus_params_AAA.xsd
$PATCH_HOME/xsd/config_collections_action_custom_late_fee.xsd
$PATCH_HOME/xsd/config_lifecycle_states.xsl
$PATCH_HOME/xsd/config_collections_action_custom_finance_charge.xsd
$PATCH_HOME/xsd/bus_params_to_customer.xsl
$PATCH_HOME/setup/scripts/pin_res.pl
$PATCH_HOME/setup/scripts/pin_cnf_pin_collections.pl
$PATCH_HOME/setup/scripts/pin_cnf_dm.pl
$PATCH_HOME/setup/scripts/pin_offer_profile_policy_labels.xml
$PATCH_HOME/setup/scripts/pin_cnf_pin_state_change.pl
$PATCH_HOME/setup/scripts/pin_cnf_infmgr_cli.pl
$PATCH_HOME/setup/scripts/pin_cnf_infmgr.pl
$PATCH_HOME/setup/scripts/pin_cmp_rel.pl
$PATCH_HOME/setup/scripts/pin_cmp_cmt.pl
$PATCH_HOME/setup/scripts/pin_cnf_tcf_aaa.pl
$PATCH_HOME/setup/scripts/price_list.xsd
$PATCH_HOME/setup/scripts/pin_cmp_dm_oracle.pl
$PATCH_HOME/setup/scripts/pin_cnf_upgrade.pl
$PATCH_HOME/setup/scripts/pin_cnf_dm_db.pl
$PATCH_HOME/setup/scripts/pin_cmp_pin_billd.pl
$PATCH_HOME/setup/scripts/pin_cmp_storable_class_to_xml.pl
$PATCH_HOME/setup/scripts/pin_setup.pl
$PATCH_HOME/setup/scripts/pin_cmp_load_config.pl
$PATCH_HOME/setup/scripts/pin_cmp_qm_port.pl
$PATCH_HOME/setup/scripts/pin_functions.pl
$PATCH_HOME/setup/scripts/pin_cmp_dm_db.pl
$PATCH_HOME/setup/scripts/pin_cnf_dm_tt.pl
$PATCH_HOME/setup/scripts/pin_cmp_emailmgr.pl
$PATCH_HOME/setup/scripts/pin_cnf_connect.pl
$PATCH_HOME/setup/scripts/pin_oracle_functions.pl
$PATCH_HOME/setup/scripts/pin_cnf_cm.pl
$PATCH_HOME/setup/scripts/pin_multidb.pl
$PATCH_HOME/setup/scripts/pin_cnf_dm_fusa.pl
$PATCH_HOME/setup/scripts/create_unified_collections_view_AIA.pl
$PATCH_HOME/setup/scripts/pin_gen_classid_values.pl
$PATCH_HOME/setup/scripts/pin_cmp_pin_collections.pl
$PATCH_HOME/setup/scripts/pin_cnf_load_config.pl
$PATCH_HOME/setup/scripts/pin_cnf_qm.pl
$PATCH_HOME/setup/scripts/pin_cmp_upgrade.pl
$PATCH_HOME/setup/scripts/pin_cmp_virtual_col.pl
$PATCH_HOME/jars/WSDLGenerator.jar
$PATCH_HOME/jars/pfc.jar
$PATCH_HOME/jars/agentsimulator.jar
$PATCH_HOME/jars/loadpricelist.jar
$PATCH_HOME/jars/osdt_cert.jar
$PATCH_HOME/jars/pcm.jar
$PATCH_HOME/jars/pxslt.jar
$PATCH_HOME/jars/owm-3_0.jar
$PATCH_HOME/jars/batch.jar
$PATCH_HOME/jars/js.jar
$PATCH_HOME/jars/ojmisc.jar
$PATCH_HOME/jars/pcmext.jar
$PATCH_HOME/jars/cryptoj_5_0.jar
$PATCH_HOME/jars/cdk.jar
$PATCH_HOME/jars/pin_reset_seq.jar
$PATCH_HOME/jars/formatter.jar
$PATCH_HOME/jars/eai.jar
$PATCH_HOME/jars/amt.jar
$PATCH_HOME/jars/virtualcolumns.jar
$PATCH_HOME/jars/osdt_core.jar
$PATCH_HOME/jars/oraclepki.jar
$PATCH_HOME/jars/ExpandCompactEventSet.jar
$PATCH_HOME/jars/rel.jar
$PATCH_HOME/jars/storableclasstoxml.jar
$PATCH_HOME/apps/cmt/ErrorCodes.properties
$PATCH_HOME/apps/cmt/cmt_mta_cycle_fees
$PATCH_HOME/apps/cmt/Enumeration.properties
$PATCH_HOME/apps/cmt/cmt.jar
$PATCH_HOME/apps/cmt/sample_data/LegacyDataSample_NonPayingChild.xml
$PATCH_HOME/apps/cmt/sample_data/LegacyDataSample_Parent.xml
$PATCH_HOME/apps/cmt/sample_data/LegacyDataSample_PayingChild.xml
$PATCH_HOME/apps/cmt/sample_data/LegacyDataSample.xml
$PATCH_HOME/apps/cmt/schema_files/physical/CMT_Subscribers.xsd
$PATCH_HOME/apps/cmt/schema_files/physical/CMT_Types.xsd
$PATCH_HOME/apps/cmt/schema_files/physical/CMT_Balances.xsd
$PATCH_HOME/apps/cmt/schema_files/physical/deviceNUMExtension.xsd
$PATCH_HOME/apps/cmt/schema_files/conceptual/CMT_Subscribers.xsd
$PATCH_HOME/apps/cmt/schema_files/conceptual/CMT_Types.xsd
$PATCH_HOME/apps/cmt/schema_files/conceptual/CMT_Balances.xsd
$PATCH_HOME/apps/cmt/schema_files/conceptual/deviceNUMExtension.xsd
$PATCH_HOME/apps/cmt/ctl_files/account_t.ctl
$PATCH_HOME/apps/cmt/ctl_files/device_num_t.ctl
$PATCH_HOME/apps/cmt/ctl_files/service_t.ctl
$PATCH_HOME/apps/cmt/ctl_files/event_bal_impacts_t_virtual.ctl
$PATCH_HOME/apps/cmt/ctl_files/purchased_bundle_t.ctl
$PATCH_HOME/apps/cmt/ctl_files/payinfo_t.ctl
$PATCH_HOME/apps/cmt/ctl_files/event_t_virtual.ctl
$PATCH_HOME/apps/cmt/ctl_files/billinfo_t.ctl
$PATCH_HOME/apps/cmt/ctl_files/audit/account_t.ctl
$PATCH_HOME/apps/cmt/ctl_files/audit/service_t.ctl
$PATCH_HOME/apps/cmt/ctl_files/audit/purchased_bundle_t.ctl
$PATCH_HOME/apps/pin_rel/pin_rel_tt_pre_updater_sp.plb
$PATCH_HOME/apps/pin_rel/pin_rel_updater_sp_oracle.plb
$PATCH_HOME/apps/pin_rel/event_bal_impacts_t.ctl
$PATCH_HOME/apps/pin_rel/pin_rel_tt_updater_sp.plb
$PATCH_HOME/apps/pin_rel/pin_rel_preprocess_cdr.pl
$PATCH_HOME/apps/pin_rel/event_t.ctl
$PATCH_HOME/apps/pin_rel/suspense_updater_sp_oracle.plb
$PATCH_HOME/apps/pin_rel/pin_rel
$PATCH_HOME/apps/pin_ifw_sync/pin_ifw_sync_oracle.pl
$PATCH_HOME/apps/pin_ifw_sync/create_ifw_sync_queue.conf
$PATCH_HOME/apps/pin_ifw_sync/create_acct_sync_pkb.sql
$PATCH_HOME/apps/perf/stat_tools/db_run
$PATCH_HOME/apps/perf/unsupported/attach_netflow_ipaddrs
$PATCH_HOME/apps/perf/unsupported/gen_collect
$PATCH_HOME/apps/perf/unsupported/callrecord
$PATCH_HOME/apps/perf/unsupported/db_update_template
$PATCH_HOME/apps/perf/simtools/rad_tester
$PATCH_HOME/apps/perf/simtools/test_loopback
$PATCH_HOME/apps/perf/simtools/process-sessload
$PATCH_HOME/apps/perf/simtools/pin_bill_accts_perf
$PATCH_HOME/apps/perf/simtools/process-opcode_load
$PATCH_HOME/apps/perf/simtools/process-pin_loader
$PATCH_HOME/apps/perf/simtools/zonemap_loader
$PATCH_HOME/apps/perf/simtools/stress_test
$PATCH_HOME/apps/perf/simtools/process-admin_load
$PATCH_HOME/apps/perf/simtools/opcode_load
$PATCH_HOME/apps/perf/simtools/pin_collect_perf
$PATCH_HOME/apps/perf/simtools/connect_load
$PATCH_HOME/apps/perf/simtools/simdiam
$PATCH_HOME/apps/perf/simtools/pin_virtual_time
$PATCH_HOME/apps/perf/simtools/process-connect_load
$PATCH_HOME/apps/perf/simtools/simrad
$PATCH_HOME/apps/perf/simtools/perf_mgr
$PATCH_HOME/apps/perf/simtools/admin_load
$PATCH_HOME/apps/perf/simtools/sessload
$PATCH_HOME/apps/perf/simtools/pin_loader
$PATCH_HOME/apps/perf/simtools/process-simdiam
$PATCH_HOME/apps/perf/sql_loader/update
$PATCH_HOME/apps/perf/sql_loader/sqlsessload
$PATCH_HOME/apps/perf/sql_loader/mycreate
$PATCH_HOME/apps/perf/sql_loader/subord_cre
$PATCH_HOME/apps/perf/sql_loader/dump_file
$PATCH_HOME/apps/perf/sql_loader/create_multidb
$PATCH_HOME/apps/perf/sql_loader/pinaft
$PATCH_HOME/apps/pin_inv_doc_gen/pin_inv_doc_gen.jar
$PATCH_HOME/apps/pin_inv_doc_gen/docgen.sh
$PATCH_HOME/apps/pin_inv_doc_gen/Infranet.properties.sample
$PATCH_HOME/apps/pin_inv_doc_gen/InvoiceList.xsd
$PATCH_HOME/apps/pin_inv_doc_gen/InvoiceList.xml
$PATCH_HOME/apps/pin_inv_doc_gen/invoice_bursting.plb
$PATCH_HOME/apps/pin_inv_doc_gen/Create_Xmlp_Invoice_Job.sql
$PATCH_HOME/apps/pin_inv_doc_gen/lib/ApacheLicense.txt
$PATCH_HOME/apps/pin_inv_doc_gen/lib/xmlp/xmlef.jar
$PATCH_HOME/apps/pin_inv_doc_gen/lib/xmlp/commons-logging.jar
$PATCH_HOME/apps/pin_inv_doc_gen/lib/xmlp/mail.jar
$PATCH_HOME/apps/pin_inv_doc_gen/lib/xmlp/xmlparserv2.jar
$PATCH_HOME/apps/pin_inv_doc_gen/lib/xmlp/xdo-core.jar
$PATCH_HOME/apps/pin_inv_doc_gen/lib/xmlp/jaxrpc.jar
$PATCH_HOME/apps/pin_inv_doc_gen/lib/xmlp/orawsdl.jar
$PATCH_HOME/apps/pin_inv_doc_gen/lib/xmlp/xdo-server.jar
$PATCH_HOME/apps/pin_inv_doc_gen/lib/xmlp/axis_bip.jar
$PATCH_HOME/apps/pin_inv_doc_gen/lib/xmlp/commons-discovery.jar
$PATCH_HOME/apps/pin_inv_doc_gen/lib/wls/ojdbc6.jar
$PATCH_HOME/apps/pin_inv_doc_gen/lib/wls/wlfullclient.jar
$PATCH_HOME/apps/pin_inv_doc_gen/lib/xerces/xercesImpl.jar
$PATCH_HOME/apps/partition_utils/sql_utils/oracle/partition_utils.plb
$PATCH_HOME/apps/uel/uel
$PATCH_HOME/apps/uel/uel.jar
$PATCH_HOME/apps/pin_virtual_columns/pin_virtual_gen
$PATCH_HOME/apps/pin_virtual_columns/oracle/create_pkg_pin_virtual_columns.plb
$PATCH_HOME/apps/pin_aq/create_sync_queue.conf
$PATCH_HOME/apps/pin_aq/pin_portal_sync_oracle.pl
$PATCH_HOME/apps/pin_aq/create_portal_sync_pkb.sql
$PATCH_HOME/apps/load_notification_event/load_notification_event
$PATCH_HOME/apps/load_notification_event/EventNotificationThreshold.xsd
$PATCH_HOME/apps/telco/agent_sim.pl
$PATCH_HOME/apps/brm_integrations/schemas/PCM_OP_CUSTCARE_MOVE_ACCT.xsd
$PATCH_HOME/apps/brm_integrations/schemas/PCM_OP_COLLECTIONS_GROUP_MODIFY.xsd
$PATCH_HOME/apps/brm_integrations/schemas/PCM_OP_PYMT_TOPUP.xsd
$PATCH_HOME/apps/brm_integrations/schemas/PCM_OP_COLLECTIONS_GROUP_DELETE.xsd
$PATCH_HOME/apps/brm_integrations/schemas/PCM_OP_COLLECTIONS_ASSIGN_AGENT.xsd
$PATCH_HOME/apps/brm_integrations/schemas/PCM_OP_AR_GET_BILLS.xsd
$PATCH_HOME/apps/brm_integrations/schemas/PCM_OP_COLLECTIONS_GROUP_ADD_MEMBER.xsd
$PATCH_HOME/apps/brm_integrations/schemas/PCM_OP_CUST_UPDATE_SERVICES.xsd
$PATCH_HOME/apps/brm_integrations/schemas/PCM_OP_BILL_DEBIT.xsd
$PATCH_HOME/apps/brm_integrations/schemas/PCM_OP_COLLECTIONS_GROUP_DELETE_MEMBER.xsd
$PATCH_HOME/apps/brm_integrations/schemas/PCM_OP_CUST_MODIFY_CUSTOMER.xsd
$PATCH_HOME/apps/brm_integrations/schemas/PCM_OP_COLLECTIONS_GET_SCENARIO_DETAIL.xsd
$PATCH_HOME/apps/brm_integrations/schemas/PCM_OP_AR_GET_ACCT_ACTION_ITEMS.xsd
$PATCH_HOME/apps/brm_integrations/schemas/PCM_OP_PRICE_GET_PRICE_LIST.xsd
$PATCH_HOME/apps/brm_integrations/schemas/PCM_OP_SUBSCRIPTION_SHARING_GROUP_DELETE.xsd
$PATCH_HOME/apps/brm_integrations/schemas/PCM_OP_AR_GET_ACCT_BILLS.xsd
$PATCH_HOME/apps/brm_integrations/schemas/PCM_OP_COLLECTIONS_GROUP_SET_PARENT.xsd
$PATCH_HOME/apps/brm_integrations/schemas/PCM_OP_COLLECTIONS_REVOKE_PROMISE_TO_PAY.xsd
$PATCH_HOME/apps/brm_integrations/schemas/PCM_OP_CUST_SET_STATUS.xsd
$PATCH_HOME/apps/brm_integrations/schemas/PCM_OP_BAL_GET_BALANCES.xsd
$PATCH_HOME/apps/brm_integrations/schemas/PCM_OP_SUBSCRIPTION_SHARING_GROUP_CREATE.xsd
$PATCH_HOME/apps/brm_integrations/schemas/PCM_OP_PRICE_SET_PRICE_LIST.xsd
$PATCH_HOME/apps/brm_integrations/schemas/PCM_OP_SUBSCRIPTION_SHARING_GROUP_MODIFY.xsd
$PATCH_HOME/apps/brm_integrations/schemas/PCM_OP_SUBSCRIPTION_SERVICE_BALGRP_TRANSFER.xsd
$PATCH_HOME/apps/brm_integrations/schemas/PCM_OP_COLLECTIONS_GROUP_CREATE.xsd
$PATCH_HOME/apps/brm_integrations/schemas/PCM_OP_SUBSCRIPTION_GET_PURCHASED_OFFERINGS.xsd
$PATCH_HOME/apps/brm_integrations/schemas/PCM_OP_COLLECTIONS_EXEMPT_BILLINFO.xsd
$PATCH_HOME/apps/brm_integrations/schemas/PCM_OP_SUBSCRIPTION_SHARING_GROUP_SET_PARENT.xsd
$PATCH_HOME/apps/brm_integrations/schemas/PCM_OP_CUST_COMMIT_CUSTOMER.xsd
$PATCH_HOME/apps/brm_integrations/schemas/PCM_OP_AR_GET_BILL_ITEMS.xsd
$PATCH_HOME/apps/brm_integrations/schemas/PCM_OP_COLLECTIONS_UPDATE_ACTION_PAYMENT_DETAILS.xsd
$PATCH_HOME/apps/brm_integrations/schemas/PCM_OP_CUST_UPDATE_CUSTOMER.xsd
$PATCH_HOME/apps/brm_integrations/schemas/PCM_OP_COLLECTIONS_GROUP_GET_BILLINFO.xsd
$PATCH_HOME/apps/brm_integrations/schemas/PCM_OP_BILL_GET_ITEM_EVENT_CHARGE_DISCOUNT.xsd
$PATCH_HOME/apps/brm_integrations/schemas/PCM_OP_SUBSCRIPTION_ORDERED_BALGRP.xsd
$PATCH_HOME/apps/brm_integrations/schemas/PCM_OP_PYMT_COLLECT.xsd
$PATCH_HOME/apps/brm_integrations/schemas/PCM_OP_SUBSCRIPTION_PURCHASE_DEAL.xsd
$PATCH_HOME/apps/brm_integrations/schemas/PCM_OP_COLLECTIONS_ADD_ACTION.xsd
$PATCH_HOME/apps/brm_integrations/schemas/PCM_OP_COLLECTIONS_REPLACE_SCENARIO.xsd
$PATCH_HOME/apps/brm_integrations/schemas/PCM_OP_BILL_GROUP_MOVE_MEMBER.xsd
$PATCH_HOME/apps/brm_integrations/schemas/PCM_OP_COLLECTIONS_INVOKE_PROMISE_TO_PAY.xsd
$PATCH_HOME/apps/brm_integrations/schemas/PCM_OP_SUBSCRIPTION_SET_PRODINFO.xsd
$PATCH_HOME/apps/brm_integrations/schemas/PCM_OP_SUBSCRIPTION_TRANSFER_SUBSCRIPTION.xsd
$PATCH_HOME/apps/brm_integrations/schemas/PCM_OP_AR_GET_ACTION_ITEMS.xsd
$PATCH_HOME/apps/brm_integrations/opspecs/PCM_OP_PYMT_TOPUP.xml
$PATCH_HOME/apps/brm_integrations/opspecs/PCM_OP_CUST_UPDATE_CUSTOMER.xml
$PATCH_HOME/apps/brm_integrations/opspecs/PCM_OP_BAL_GET_BALANCES.xml
$PATCH_HOME/apps/brm_integrations/opspecs/PCM_OP_COLLECTIONS_ADD_ACTION.xml
$PATCH_HOME/apps/brm_integrations/opspecs/PCM_OP_COLLECTIONS_GROUP_MODIFY.xml
$PATCH_HOME/apps/brm_integrations/opspecs/PCM_OP_COLLECTIONS_REPLACE_SCENARIO.xml
$PATCH_HOME/apps/brm_integrations/opspecs/PCM_OP_BAL_GET_ACCT_BAL_GRP_AND_SVC.xml
$PATCH_HOME/apps/brm_integrations/opspecs/PCM_OP_SUBSCRIPTION_ORDERED_BALGRP.xml
$PATCH_HOME/apps/brm_integrations/opspecs/PCM_OP_SUBSCRIPTION_TRANSFER_SUBSCRIPTION.xml
$PATCH_HOME/apps/brm_integrations/opspecs/PCM_OP_SUBSCRIPTION_SHARING_GROUP_SET_PARENT.xml
$PATCH_HOME/apps/brm_integrations/opspecs/PCM_OP_COLLECTIONS_SET_ACTION_STATUS.xml
$PATCH_HOME/apps/brm_integrations/opspecs/PCM_OP_AR_GET_ACCT_BILLS.xml
$PATCH_HOME/apps/brm_integrations/opspecs/PCM_OP_COLLECTIONS_GROUP_DELETE_MEMBER.xml
$PATCH_HOME/apps/brm_integrations/opspecs/PCM_OP_COLLECTIONS_GET_SCENARIO_DETAIL.xml
$PATCH_HOME/apps/brm_integrations/opspecs/PCM_OP_COLLECTIONS_GROUP_DELETE.xml
$PATCH_HOME/apps/brm_integrations/opspecs/PCM_OP_SUBSCRIPTION_PURCHASE_DEAL.xml
$PATCH_HOME/apps/brm_integrations/opspecs/PCM_OP_CUST_UPDATE_SERVICES.xml
$PATCH_HOME/apps/brm_integrations/opspecs/PCM_OP_SUBSCRIPTION_SHARING_GROUP_MODIFY.xml
$PATCH_HOME/apps/brm_integrations/opspecs/PCM_OP_CUST_MODIFY_CUSTOMER.xml
$PATCH_HOME/apps/brm_integrations/opspecs/PCM_OP_COLLECTIONS_GROUP_ADD_MEMBER.xml
$PATCH_HOME/apps/brm_integrations/opspecs/PCM_OP_COLLECTIONS_GROUP_CREATE.xml
$PATCH_HOME/apps/brm_integrations/opspecs/PCM_OP_CUST_SET_STATUS.xml
$PATCH_HOME/apps/brm_integrations/opspecs/PCM_OP_AR_GET_BILL_ITEMS.xml
$PATCH_HOME/apps/brm_integrations/opspecs/PCM_OP_COLLECTIONS_INVOKE_PROMISE_TO_PAY.xml
$PATCH_HOME/apps/brm_integrations/opspecs/PCM_OP_BILL_GET_ITEM_EVENT_CHARGE_DISCOUNT.xml
$PATCH_HOME/apps/brm_integrations/opspecs/PCM_OP_AR_GET_BILLS.xml
$PATCH_HOME/apps/brm_integrations/opspecs/PCM_OP_BILL_GROUP_MOVE_MEMBER.xml
$PATCH_HOME/apps/brm_integrations/opspecs/PCM_OP_COLLECTIONS_GROUP_GET_BILLINFO.xml
$PATCH_HOME/apps/brm_integrations/opspecs/PCM_OP_COLLECTIONS_REVOKE_PROMISE_TO_PAY.xml
$PATCH_HOME/apps/brm_integrations/opspecs/PCM_OP_COLLECTIONS_UPDATE_ACTION_PAYMENT_DETAILS.xml
$PATCH_HOME/apps/brm_integrations/opspecs/PCM_OP_SUBSCRIPTION_SHARING_GROUP_CREATE.xml
$PATCH_HOME/apps/brm_integrations/opspecs/PCM_OP_CUST_COMMIT_CUSTOMER.xml
$PATCH_HOME/apps/brm_integrations/opspecs/PCM_OP_AR_GET_ACCT_ACTION_ITEMS.xml
$PATCH_HOME/apps/brm_integrations/opspecs/PCM_OP_SUBSCRIPTION_SHARING_GROUP_DELETE.xml
$PATCH_HOME/apps/brm_integrations/opspecs/PCM_OP_BILL_DEBIT.xml
$PATCH_HOME/apps/brm_integrations/opspecs/PCM_OP_PRICE_COMMIT_PRODUCT.xml
$PATCH_HOME/apps/brm_integrations/opspecs/PCM_OP_CUST_CREATE_PROFILE.xml
$PATCH_HOME/apps/brm_integrations/opspecs/PCM_OP_AR_GET_ACTION_ITEMS.xml
$PATCH_HOME/apps/brm_integrations/opspecs/PCM_OP_SUBSCRIPTION_SET_PRODINFO.xml
$PATCH_HOME/apps/brm_integrations/opspecs/PCM_OP_COLLECTIONS_ASSIGN_AGENT.xml
$PATCH_HOME/apps/brm_integrations/opspecs/PCM_OP_COLLECTIONS_EXEMPT_BILLINFO.xml
$PATCH_HOME/apps/brm_integrations/opspecs/PCM_OP_PRICE_SET_PRICE_LIST.xml
$PATCH_HOME/apps/brm_integrations/opspecs/PCM_OP_PYMT_COLLECT.xml
$PATCH_HOME/apps/brm_integrations/opspecs/PCM_OP_PRICE_GET_PRICE_LIST.xml
$PATCH_HOME/apps/brm_integrations/opspecs/PCM_OP_AR_RESOURCE_AGGREGATION.xml
$PATCH_HOME/apps/brm_integrations/opspecs/PCM_OP_COLLECTIONS_GROUP_SET_PARENT.xml
$PATCH_HOME/apps/brm_integrations/opspecs/PCM_OP_SUBSCRIPTION_SERVICE_BALGRP_TRANSFER.xml
$PATCH_HOME/apps/brm_integrations/jca_adapter/BRMAdapterServletClient.war
$PATCH_HOME/apps/brm_integrations/jca_adapter/weblogic_startup.jar
$PATCH_HOME/apps/brm_integrations/jca_adapter/OracleBRMJCA15Adapter.rar
$PATCH_HOME/apps/brm_integrations/jca_adapter/client/src/BRMAdapterServletClient.java
$PATCH_HOME/apps/brm_integrations/jca_adapter/dependantjars/orabpel-thirdparty.jar
$PATCH_HOME/apps/brm_integrations/jca_adapter/dependantjars/bpm-infra.jar
$PATCH_HOME/apps/brm_integrations/jca_adapter/dependantjars/xmlparserv2.jar
$PATCH_HOME/apps/brm_integrations/jca_adapter/dependantjars/orabpel.jar
$PATCH_HOME/apps/brm_integrations/jca_adapter/dependantjars/orabpel-common.jar
$PATCH_HOME/apps/brm_integrations/wsdls/11g/BRMCollectionsServices.jca
$PATCH_HOME/apps/brm_integrations/wsdls/11g/BRMCollectionsServices.wsdl
$PATCH_HOME/apps/brm_integrations/wsdls/11g/BRMSubscriptionServices.jca
$PATCH_HOME/apps/brm_integrations/wsdls/11g/BRMPymtServices.jca
$PATCH_HOME/apps/brm_integrations/wsdls/11g/BRMSubscriptionServices.wsdl
$PATCH_HOME/apps/brm_integrations/wsdls/11g/BRMPymtServices.wsdl
$PATCH_HOME/apps/brm_integrations/wsdls/10g/BRMCollectionsServices.wsdl
$PATCH_HOME/apps/brm_integrations/wsdls/10g/BRMSubscriptionServices.wsdl
$PATCH_HOME/bin/rad_tester
$PATCH_HOME/bin/pin_collections_process
$PATCH_HOME/bin/answer_b
$PATCH_HOME/bin/pin_wsdl_generator
$PATCH_HOME/bin/pin_cycle_fees
$PATCH_HOME/bin/dm
$PATCH_HOME/bin/dm_fusa
$PATCH_HOME/bin/load_tax_supplier
$PATCH_HOME/bin/load_pin_batch_suspense_override_reason
$PATCH_HOME/bin/load_pin_beid
$PATCH_HOME/bin/dm_ldap10g
$PATCH_HOME/bin/pin_rerate
$PATCH_HOME/bin/load_pin_bill_suppression
$PATCH_HOME/bin/load_pin_ach
$PATCH_HOME/bin/load_pin_config_business_type
$PATCH_HOME/bin/start_batch_controller
$PATCH_HOME/bin/load_pin_telco_service_order_state
$PATCH_HOME/bin/load_config
$PATCH_HOME/bin/load_config_item_tags
$PATCH_HOME/bin/load_pin_network_elements
$PATCH_HOME/bin/load_config_provisioning_tags
$PATCH_HOME/bin/pin_export_price
$PATCH_HOME/bin/pin_make_corrective_bills
$PATCH_HOME/bin/load_pin_glid
$PATCH_HOME/bin/OODHandler
$PATCH_HOME/bin/pin_crypt_rewrite
$PATCH_HOME/bin/pin_channel_clear_errors
$PATCH_HOME/bin/pin_change_num_quarantine
$PATCH_HOME/bin/load_pin_invoice_data_map
$PATCH_HOME/bin/load_pin_sim_config
$PATCH_HOME/bin/load_pin_spec_rates
$PATCH_HOME/bin/pin_trial_bill_accts
$PATCH_HOME/bin/stop_rel_daemon
$PATCH_HOME/bin/pin_crypt_app
$PATCH_HOME/bin/pin_ctl
$PATCH_HOME/bin/load_pin_billing_segment
$PATCH_HOME/bin/pin_opspec_to_schema
$PATCH_HOME/bin/start_formatter
$PATCH_HOME/bin/pin_collect
$PATCH_HOME/bin/load_aaa_config_opcodemap_tcf
$PATCH_HOME/bin/pin_inv_send
$PATCH_HOME/bin/pin_recover
$PATCH_HOME/bin/pin_bus_params
$PATCH_HOME/bin/start_dm_oracle
$PATCH_HOME/bin/pin_clean
$PATCH_HOME/bin/pin_rate_change
$PATCH_HOME/bin/dm_oracle
$PATCH_HOME/bin/load_pin_config_ra_flows
$PATCH_HOME/bin/load_pin_batch_suspense_reason_code
$PATCH_HOME/bin/pin_voucher_expiration
$PATCH_HOME/bin/pin_load_invoice_template
$PATCH_HOME/bin/testnap
$PATCH_HOME/bin/load_event_map
$PATCH_HOME/bin/dm_tt
$PATCH_HOME/bin/pin_configure_ha
$PATCH_HOME/bin/pin_term_acct
$PATCH_HOME/bin/pin_radiusd_sig
$PATCH_HOME/bin/pin_update_items_journals
$PATCH_HOME/bin/dm_ldap11g
$PATCH_HOME/bin/nmgr
$PATCH_HOME/bin/load_usage_map
$PATCH_HOME/bin/pin_unlock_service
$PATCH_HOME/bin/pin_crypt_upgrade
$PATCH_HOME/bin/load_pin_bus_params
$PATCH_HOME/bin/pin_mta_monitor
$PATCH_HOME/bin/dm_email
$PATCH_HOME/bin/pin_event_extract
$PATCH_HOME/bin/load_config_reservation_aaa_prefs
$PATCH_HOME/bin/load_pin_event_record_map
$PATCH_HOME/bin/infmgr_cli
$PATCH_HOME/bin/pin_state_change
$PATCH_HOME/bin/load_pin_rtp_trim_flist
$PATCH_HOME/bin/load_localized_strings
$PATCH_HOME/bin/load_config_item_types
$PATCH_HOME/bin/pin_refund
$PATCH_HOME/bin/pin_sub_balance_cleanup
$PATCH_HOME/bin/load_pin_suspense_reason_code
$PATCH_HOME/bin/dm_eai
$PATCH_HOME/bin/load_pin_service_framework_permitted_service_types
$PATCH_HOME/bin/load_config_dist
$PATCH_HOME/bin/load_pin_dealers
$PATCH_HOME/bin/start_dm_invoice
$PATCH_HOME/bin/load_pin_business_profile
$PATCH_HOME/bin/fusamux
$PATCH_HOME/bin/cm_proxy
$PATCH_HOME/bin/pin_ipass_loader
$PATCH_HOME/bin/load_pin_config_batchstat_link
$PATCH_HOME/bin/dm_aq
$PATCH_HOME/bin/pin_load_invoice_events
$PATCH_HOME/bin/pin_monitor_balance
$PATCH_HOME/bin/load_pin_config_ra_alerts
$PATCH_HOME/bin/load_pin_customer_segment
$PATCH_HOME/bin/partition_utils
$PATCH_HOME/bin/pin_dd_to_schema
$PATCH_HOME/bin/pin_product_clear
$PATCH_HOME/bin/load_pin_config_export_gl
$PATCH_HOME/bin/pin_tt_schema_gen
$PATCH_HOME/bin/pin_amt_tt
$PATCH_HOME/bin/load_pin_sub_bal_contributor
$PATCH_HOME/bin/load_pin_order_state
$PATCH_HOME/bin/popper
$PATCH_HOME/bin/load_pin_recharge_card_type
$PATCH_HOME/bin/load_pin_config_ra_thresholds
$PATCH_HOME/bin/infmgr
$PATCH_HOME/bin/pin_mailer
$PATCH_HOME/bin/pin_history_on
$PATCH_HOME/bin/load_pin_telco_provisioning
$PATCH_HOME/bin/fldgen
$PATCH_HOME/bin/dm_taxware
$PATCH_HOME/bin/load_pin_suspense_override_reason
$PATCH_HOME/bin/answer_s
$PATCH_HOME/bin/pin_bill_accts
$PATCH_HOME/bin/pin_uei_deploy
$PATCH_HOME/bin/cm
$PATCH_HOME/bin/load_pin_rerate_flds
$PATCH_HOME/bin/load_pin_excluded_logins
$PATCH_HOME/bin/load_pin_config_auth_reauth_info
$PATCH_HOME/bin/pin_upd_assoc_bus_profile
$PATCH_HOME/bin/start_dm_eai
$PATCH_HOME/bin/pin_deferred_act
$PATCH_HOME/bin/pin_rollover
$PATCH_HOME/bin/create_svr_wallet_cert
$PATCH_HOME/bin/pin_cycle_forward
$PATCH_HOME/bin/pin_load_template
$PATCH_HOME/bin/start_rel_daemon
$PATCH_HOME/bin/pin_mass_refund
$PATCH_HOME/bin/pin_inv_accts
$PATCH_HOME/bin/load_pin_num_config
$PATCH_HOME/bin/pin_purge
$PATCH_HOME/bin/load_pin_telco_tags
$PATCH_HOME/bin/pin_get_results
$PATCH_HOME/bin/load_pin_payment_term
$PATCH_HOME/bin/dm_invoice
$PATCH_HOME/bin/load_pin_impact_category
$PATCH_HOME/bin/load_pin_rum
$PATCH_HOME/bin/pin_trial_bill_purge
$PATCH_HOME/bin/parse_custom_ops_fields.pl
$PATCH_HOME/bin/pin_load_rerate_jobs
$PATCH_HOME/bin/load_pin_remittance_flds
$PATCH_HOME/bin/pin_channel_report
$PATCH_HOME/bin/pin_config_distribution
$PATCH_HOME/bin/orapki
$PATCH_HOME/bin/pin_iscript
$PATCH_HOME/bin/load_ara_config_object
$PATCH_HOME/bin/load_channel_config
$PATCH_HOME/bin/load_pin_snowball_distribution
$PATCH_HOME/bin/load_pin_calendar
$PATCH_HOME/bin/pin_inv_export
$PATCH_HOME/bin/load_suspended_batch_info
$PATCH_HOME/bin/BillHandler
$PATCH_HOME/bin/start_dm_prov_telco
$PATCH_HOME/bin/pin_balance_transfer
$PATCH_HOME/bin/pin_collections_send_dunning
$PATCH_HOME/bin/load_pin_glchartaccts
$PATCH_HOME/bin/splitPinlog
$PATCH_HOME/bin/load_transition_type
$PATCH_HOME/bin/multi_db_synch_dd
$PATCH_HOME/bin/load_pin_voucher_config
$PATCH_HOME/bin/pin_ledger_report
$PATCH_HOME/bin/load_pin_verify
$PATCH_HOME/bin/pin_recycle
$PATCH_HOME/bin/load_pin_remittance_spec
$PATCH_HOME/bin/pin_virtual_time
$PATCH_HOME/bin/pin_channel_export
$PATCH_HOME/bin/pin_bill_day
$PATCH_HOME/bin/stop_all
$PATCH_HOME/bin/pin_ra_check_thresholds
$PATCH_HOME/bin/load_pin_config_ood_criteria
$PATCH_HOME/bin/dm_ifw_sync
$PATCH_HOME/bin/pin_apply_bulk_adjustment
$PATCH_HOME/bin/start_all
$PATCH_HOME/bin/load_pin_telco_aaa_params
$PATCH_HOME/bin/pin_ctl.conf
$PATCH_HOME/bin/pin_deposit
$PATCH_HOME/bin/load_pin_suspense_edr_fld_map
$PATCH_HOME/bin/dm_vertex
$PATCH_HOME/bin/pin_radiusd
$PATCH_HOME/bin/pin_deploy
$PATCH_HOME/bin/pin_discount_cleanup
$PATCH_HOME/bin/pin_clean_asos
$PATCH_HOME/bin/pin_remittance
$PATCH_HOME/bin/load_pin_uniqueness
$PATCH_HOME/bin/pin_clean_rsvns
$PATCH_HOME/bin/load_pin_suspense_params
$PATCH_HOME/bin/load_pin_notify
$PATCH_HOME/bin/load_pin_config_controlpoint_link
$PATCH_HOME/bin/pin_mta_test_caf
$PATCH_HOME/bin/load_content_srvc_profiles
$PATCH_HOME/bin/cmmp
$PATCH_HOME/bin/start_eai_js
$PATCH_HOME/bin/load_pin_suspense_editable_flds
$PATCH_HOME/bin/dm_prov_telco
$PATCH_HOME/bin/opgen
$PATCH_HOME/bin/load_pin_ar_taxes
$PATCH_HOME/wallet/root/ewallet.p12
$PATCH_HOME/wallet/client/cwallet.sso
$PATCH_HOME/wallet/client/ewallet.p12
$PATCH_HOME/source/sys/fm_bill_pol/fm_bill_pol_config.c
$PATCH_HOME/source/sys/fm_bill_pol/Makefile
$PATCH_HOME/source/sys/fm_bill_pol/fm_bill_pol_spec_future_cycle.c
$PATCH_HOME/source/sys/fm_remit_pol/Makefile
$PATCH_HOME/source/sys/fm_process_audit_pol/Makefile
$PATCH_HOME/source/sys/fm_collections_pol/Makefile
$PATCH_HOME/source/sys/fm_collections_pol/fm_collections_pol_config.c
$PATCH_HOME/source/sys/fm_content_pol/Makefile
$PATCH_HOME/source/sys/fm_cust_pol/fm_cust_pol_post_commit.c
$PATCH_HOME/source/sys/fm_cust_pol/fm_cust_pol_tax_calc.c
$PATCH_HOME/source/sys/fm_cust_pol/fm_cust_pol_prep_payinfo.c
$PATCH_HOME/source/sys/fm_cust_pol/fm_cust_pol_valid_passwd.c
$PATCH_HOME/source/sys/fm_cust_pol/fm_cust_pol_prep_passwd.c
$PATCH_HOME/source/sys/fm_cust_pol/fm_cust_pol_get_subscribed_plans.c
$PATCH_HOME/source/sys/fm_cust_pol/fm_cust_pol_get_intro_msg.c
$PATCH_HOME/source/sys/fm_cust_pol/fm_cust_pol_compare_passwd.c
$PATCH_HOME/source/sys/fm_cust_pol/Makefile
$PATCH_HOME/source/sys/fm_cust_pol/fm_cust_pol_valid_login.c
$PATCH_HOME/source/sys/fm_cust_pol/fm_cust_pol_valid_billinfo.c
$PATCH_HOME/source/sys/fm_cust_pol/fm_cust_pol_encrypt_passwd.c
$PATCH_HOME/source/sys/fm_cust_pol/fm_cust_pol_util.c
$PATCH_HOME/source/sys/fm_cust_pol/fm_cust_pol_prep_billinfo.c
$PATCH_HOME/source/sys/fm_cust_pol/fm_cust_pol_get_db_no.c
$PATCH_HOME/source/sys/fm_cust_pol/fm_cust_pol_valid_payinfo.c
$PATCH_HOME/source/sys/fm_cust_pol/fm_cust_pol_valid_profile.c
$PATCH_HOME/source/sys/fm_cust_pol/fm_cust_pol_tax_init.c
$PATCH_HOME/source/sys/fm_cust_pol/fm_cust_pol_prep_nameinfo.c
$PATCH_HOME/source/sys/fm_price_pol/Makefile
$PATCH_HOME/source/sys/fm_term_pol/Makefile
$PATCH_HOME/source/sys/fm_act_pol/fm_act_pol_config_billing_cycle.c
$PATCH_HOME/source/sys/fm_act_pol/fm_act_pol_event_notify.c
$PATCH_HOME/source/sys/fm_tcf_pol/Makefile
$PATCH_HOME/source/sys/fm_num_pol/Makefile
$PATCH_HOME/source/sys/fm_num_pol/fm_num_pol_device_associate.c
$PATCH_HOME/source/sys/fm_ip_pol/Makefile
$PATCH_HOME/source/sys/fm_ip_pol/fm_ip_pol_device_associate.c
$PATCH_HOME/source/sys/fm_apn_pol/Makefile
$PATCH_HOME/source/sys/fm_apn_pol/fm_apn_pol_device_set_state.c
$PATCH_HOME/source/sys/fm_repl_pol/Makefile
$PATCH_HOME/source/sys/fm_device_pol/Makefile
$PATCH_HOME/source/sys/fm_order_pol/Makefile
$PATCH_HOME/source/sys/fm_sim_pol/fm_sim_pol_device_associate.c
$PATCH_HOME/source/sys/fm_sim_pol/Makefile
$PATCH_HOME/source/sys/fm_sim_pol/fm_sim_pol_config.c
$PATCH_HOME/source/sys/fm_subscription_pol/Makefile
$PATCH_HOME/source/sys/fm_subscription_pol/fm_subscription_pol_config_eet.c
$PATCH_HOME/source/sys/fm_subscription_pol/fm_subscription_pol_provisioning.c
$PATCH_HOME/source/sys/fm_subscription_pol/fm_subscription_pol_config.c
$PATCH_HOME/source/sys/fm_subscription_pol/fm_subscription_pol_prep_fold.c
$PATCH_HOME/source/sys/fm_prov_pol/Makefile
$PATCH_HOME/source/sys/fm_ar_pol/Makefile
$PATCH_HOME/source/sys/fm_ar_pol/fm_ar_pol_config.c
$PATCH_HOME/source/sys/fm_trans_pol/Makefile
$PATCH_HOME/source/sys/fm_bal_pol/Makefile
$PATCH_HOME/source/sys/fm_bal_pol/fm_bal_pol_config.c
$PATCH_HOME/source/sys/fm_inv_pol/fm_inv_pol_prep_invoice.c
$PATCH_HOME/source/sys/fm_inv_pol/Makefile
$PATCH_HOME/source/sys/fm_zonemap_pol/Makefile
$PATCH_HOME/source/sys/fm_zonemap_pol/fm_zonemap_pol_get_lineage.c
$PATCH_HOME/source/sys/fm_gsm_aaa_pol/Makefile
$PATCH_HOME/source/sys/fm_gl_pol/Makefile
$PATCH_HOME/source/sys/fm_pymt_pol/fm_pymt_pol_config.c
$PATCH_HOME/source/sys/fm_pymt_pol/fm_pymt_pol_validate_payment.c
$PATCH_HOME/source/sys/fm_pymt_pol/Makefile
$PATCH_HOME/source/sys/fm_pymt_pol/fm_pymt_pol_suspend_payment.c
$PATCH_HOME/source/sys/fm_pymt_pol/fm_pymt_pol_pre_collect.c
$PATCH_HOME/source/sys/fm_adu_pol/Makefile
$PATCH_HOME/source/sys/fm_voucher_pol/Makefile
$PATCH_HOME/source/sys/fm_voucher_pol/fm_voucher_pol_device_associate.c
$PATCH_HOME/source/sys/fm_rate_pol/fm_rate_pol_process_eras.c
$PATCH_HOME/source/sys/fm_rate_pol/Makefile
$PATCH_HOME/source/sys/fm_rate_pol/fm_rate_pol_tax_code.c
$PATCH_HOME/source/apps/pin_mailer/Makefile
$PATCH_HOME/source/apps/sample/sample_del
$PATCH_HOME/source/apps/sample/sample_app
$PATCH_HOME/source/apps/sample/sample_act
$PATCH_HOME/source/apps/sample/Makefile
$PATCH_HOME/source/apps/sample/sample_who
$PATCH_HOME/source/apps/sample/sample_search
---------------------------------------------
# The following files will not be installed
# because the latest version exists in the 
# system 
---------------------------------------------
sys/msgs/simcardtypes/sim_card_types.en_US
sys/msgs/simcardtypes/sim_card_types.es
sys/msgs/simcardtypes/sim_card_types.zh_TW
sys/msgs/simcardtypes/sim_card_types.it
sys/msgs/simcardtypes/sim_card_types.fr
sys/msgs/simcardtypes/sim_card_types.ko
sys/msgs/simcardtypes/sim_card_types.ja
sys/msgs/simcardtypes/sim_card_types.zh
sys/msgs/simcardtypes/sim_card_types.pt_BR
sys/msgs/numcategories/num_categories.ko
sys/msgs/numcategories/num_categories.es
sys/msgs/numcategories/num_categories.zh_TW
sys/msgs/numcategories/num_categories.zh
sys/msgs/numcategories/num_categories.pt_BR
sys/msgs/numcategories/num_categories.it
sys/msgs/numcategories/num_categories.ja
sys/msgs/numcategories/num_categories.en_US
sys/msgs/numcategories/num_categories.fr
sys/msgs/numvanities/num_vanities.fr
sys/msgs/numvanities/num_vanities.ja
sys/msgs/numvanities/num_vanities.pt_BR
sys/msgs/numvanities/num_vanities.ko
sys/msgs/numvanities/num_vanities.en_US
sys/msgs/numvanities/num_vanities.zh
sys/msgs/numvanities/num_vanities.es
sys/msgs/numvanities/num_vanities.zh_TW
sys/msgs/numvanities/num_vanities.it
sys/msgs/simdevicestates/sim_device_states.it
sys/msgs/simdevicestates/sim_device_states.en_US
sys/msgs/simdevicestates/sim_device_states.fr
sys/msgs/simdevicestates/sim_device_states.ko
sys/msgs/simdevicestates/sim_device_states.ja
sys/msgs/simdevicestates/sim_device_states.pt_BR
sys/msgs/simdevicestates/sim_device_states.zh
sys/msgs/simdevicestates/sim_device_states.es
sys/msgs/simdevicestates/sim_device_states.zh_TW
---------------------------------------------
# The following files will not be installed
# because the prerequisite product is not
# installed in the system 
---------------------------------------------
apps/brm_integrations/jca_adapter/dependantjars/bpm-infra.jar,BRM_JCA_Adapter
apps/brm_integrations/jca_adapter/dependantjars/orabpel-common.jar,BRM_JCA_Adapter
apps/brm_integrations/jca_adapter/dependantjars/orabpel-thirdparty.jar,BRM_JCA_Adapter
apps/brm_integrations/jca_adapter/dependantjars/orabpel.jar,BRM_JCA_Adapter
apps/brm_integrations/jca_adapter/dependantjars/xmlparserv2.jar,BRM_JCA_Adapter
apps/brm_integrations/opspecs/PCM_OP_AR_RESOURCE_AGGREGATION.xml,BRM_JCA_Adapter
apps/brm_integrations/opspecs/PCM_OP_BAL_GET_ACCT_BAL_GRP_AND_SVC.xml,BRM_JCA_Adapter
apps/brm_integrations/opspecs/PCM_OP_COLLECTIONS_ADD_ACTION.xml,BRM_JCA_Adapter
apps/brm_integrations/opspecs/PCM_OP_COLLECTIONS_ASSIGN_AGENT.xml,BRM_JCA_Adapter
apps/brm_integrations/opspecs/PCM_OP_COLLECTIONS_EXEMPT_BILLINFO.xml,BRM_JCA_Adapter
apps/brm_integrations/opspecs/PCM_OP_COLLECTIONS_GET_SCENARIO_DETAIL.xml,BRM_JCA_Adapter
apps/brm_integrations/opspecs/PCM_OP_COLLECTIONS_GROUP_ADD_MEMBER.xml,BRM_JCA_Adapter
apps/brm_integrations/opspecs/PCM_OP_COLLECTIONS_GROUP_CREATE.xml,BRM_JCA_Adapter
apps/brm_integrations/opspecs/PCM_OP_COLLECTIONS_GROUP_DELETE.xml,BRM_JCA_Adapter
apps/brm_integrations/opspecs/PCM_OP_COLLECTIONS_GROUP_DELETE_MEMBER.xml,BRM_JCA_Adapter
apps/brm_integrations/opspecs/PCM_OP_COLLECTIONS_GROUP_GET_BILLINFO.xml,BRM_JCA_Adapter
apps/brm_integrations/opspecs/PCM_OP_COLLECTIONS_GROUP_MODIFY.xml,BRM_JCA_Adapter
apps/brm_integrations/opspecs/PCM_OP_COLLECTIONS_GROUP_SET_PARENT.xml,BRM_JCA_Adapter
apps/brm_integrations/opspecs/PCM_OP_COLLECTIONS_INVOKE_PROMISE_TO_PAY.xml,BRM_JCA_Adapter
apps/brm_integrations/opspecs/PCM_OP_COLLECTIONS_REPLACE_SCENARIO.xml,BRM_JCA_Adapter
apps/brm_integrations/opspecs/PCM_OP_COLLECTIONS_REVOKE_PROMISE_TO_PAY.xml,BRM_JCA_Adapter
apps/brm_integrations/opspecs/PCM_OP_COLLECTIONS_UPDATE_ACTION_PAYMENT_DETAILS.xml,BRM_JCA_Adapter
apps/brm_integrations/opspecs/PCM_OP_PRICE_COMMIT_PRODUCT.xml,BRM_JCA_Adapter
apps/brm_integrations/opspecs/PCM_OP_PRICE_GET_PRICE_LIST.xml,BRM_JCA_Adapter
apps/brm_integrations/opspecs/PCM_OP_PRICE_SET_PRICE_LIST.xml,BRM_JCA_Adapter
apps/brm_integrations/opspecs/PCM_OP_PYMT_TOPUP.xml,BRM_JCA_Adapter
apps/brm_integrations/opspecs/PCM_OP_SUBSCRIPTION_ORDERED_BALGRP.xml,BRM_JCA_Adapter
apps/brm_integrations/opspecs/PCM_OP_SUBSCRIPTION_SERVICE_BALGRP_TRANSFER.xml,BRM_JCA_Adapter
apps/brm_integrations/opspecs/PCM_OP_SUBSCRIPTION_SHARING_GROUP_CREATE.xml,BRM_JCA_Adapter
apps/brm_integrations/opspecs/PCM_OP_SUBSCRIPTION_SHARING_GROUP_DELETE.xml,BRM_JCA_Adapter
apps/brm_integrations/opspecs/PCM_OP_SUBSCRIPTION_SHARING_GROUP_MODIFY.xml,BRM_JCA_Adapter
apps/brm_integrations/opspecs/PCM_OP_SUBSCRIPTION_SHARING_GROUP_SET_PARENT.xml,BRM_JCA_Adapter
apps/brm_integrations/schemas/PCM_OP_COLLECTIONS_ADD_ACTION.xsd,BRM_JCA_Adapter
apps/brm_integrations/schemas/PCM_OP_COLLECTIONS_ASSIGN_AGENT.xsd,BRM_JCA_Adapter
apps/brm_integrations/schemas/PCM_OP_COLLECTIONS_EXEMPT_BILLINFO.xsd,BRM_JCA_Adapter
apps/brm_integrations/schemas/PCM_OP_COLLECTIONS_GET_SCENARIO_DETAIL.xsd,BRM_JCA_Adapter
apps/brm_integrations/schemas/PCM_OP_COLLECTIONS_GROUP_ADD_MEMBER.xsd,BRM_JCA_Adapter
apps/brm_integrations/schemas/PCM_OP_COLLECTIONS_GROUP_CREATE.xsd,BRM_JCA_Adapter
apps/brm_integrations/schemas/PCM_OP_COLLECTIONS_GROUP_DELETE.xsd,BRM_JCA_Adapter
apps/brm_integrations/schemas/PCM_OP_COLLECTIONS_GROUP_DELETE_MEMBER.xsd,BRM_JCA_Adapter
apps/brm_integrations/schemas/PCM_OP_COLLECTIONS_GROUP_GET_BILLINFO.xsd,BRM_JCA_Adapter
apps/brm_integrations/schemas/PCM_OP_COLLECTIONS_GROUP_MODIFY.xsd,BRM_JCA_Adapter
apps/brm_integrations/schemas/PCM_OP_COLLECTIONS_GROUP_SET_PARENT.xsd,BRM_JCA_Adapter
apps/brm_integrations/schemas/PCM_OP_COLLECTIONS_INVOKE_PROMISE_TO_PAY.xsd,BRM_JCA_Adapter
apps/brm_integrations/schemas/PCM_OP_COLLECTIONS_REPLACE_SCENARIO.xsd,BRM_JCA_Adapter
apps/brm_integrations/schemas/PCM_OP_COLLECTIONS_REVOKE_PROMISE_TO_PAY.xsd,BRM_JCA_Adapter
apps/brm_integrations/schemas/PCM_OP_COLLECTIONS_UPDATE_ACTION_PAYMENT_DETAILS.xsd,BRM_JCA_Adapter
apps/brm_integrations/schemas/PCM_OP_PYMT_TOPUP.xsd,BRM_JCA_Adapter
apps/brm_integrations/schemas/PCM_OP_SUBSCRIPTION_ORDERED_BALGRP.xsd,BRM_JCA_Adapter
apps/brm_integrations/schemas/PCM_OP_SUBSCRIPTION_SERVICE_BALGRP_TRANSFER.xsd,BRM_JCA_Adapter
apps/brm_integrations/schemas/PCM_OP_SUBSCRIPTION_SHARING_GROUP_CREATE.xsd,BRM_JCA_Adapter
apps/brm_integrations/schemas/PCM_OP_SUBSCRIPTION_SHARING_GROUP_DELETE.xsd,BRM_JCA_Adapter
apps/brm_integrations/schemas/PCM_OP_SUBSCRIPTION_SHARING_GROUP_MODIFY.xsd,BRM_JCA_Adapter
apps/brm_integrations/schemas/PCM_OP_SUBSCRIPTION_SHARING_GROUP_SET_PARENT.xsd,BRM_JCA_Adapter
apps/cmt/ctl_files/audit/purchased_bundle_t.ctl,ConversionMgr
apps/cmt/ctl_files/event_bal_impacts_t_virtual.ctl,ConversionMgr
apps/cmt/ctl_files/event_t_virtual.ctl,ConversionMgr
apps/cmt/ctl_files/purchased_bundle_t.ctl,ConversionMgr
bin/start_rel_daemon,RatedEventLoader
bin/stop_rel_daemon,RatedEventLoader
setup/scripts/pin_gen_classid_values.pl,RatedEventLoader
sys/eai_js/xsd/AccountInfoChange.xsd,DM_AQ
sys/eai_js/xsd/CollectionsInfoChange.xsd,DM_AQ
---------------------------------------------
# The following are the new files were 
# packaged with this patch 
---------------------------------------------
sys/msgs/revenueassurance/ra_alert_message.zh
sys/msgs/revenueassurance/ra_alert_message.it
sys/msgs/revenueassurance/ra_alert_message.fr
sys/msgs/revenueassurance/ra_alert_message.pt_BR
sys/msgs/revenueassurance/ra_alert_message.ru_RU
sys/msgs/revenueassurance/ra_alert_message.ko
sys/msgs/revenueassurance/ra_alert_message.en_US
sys/msgs/revenueassurance/ra_alert_message.ja
sys/msgs/revenueassurance/ra_alert_message.es
sys/msgs/revenueassurance/ra_alert_message.zh_TW
sys/msgs/lifecycle_states/lifecycle_states.en_US
sys/msgs/lifecycle_states/lifecycle_states.zh
sys/msgs/lifecycle_states/lifecycle_states.es
sys/msgs/lifecycle_states/lifecycle_states.it
sys/msgs/lifecycle_states/lifecycle_states.ru_RU
sys/msgs/lifecycle_states/lifecycle_states.zh_TW
sys/msgs/lifecycle_states/lifecycle_states.ja
sys/msgs/lifecycle_states/lifecycle_states.pt_BR
sys/msgs/lifecycle_states/lifecycle_states.fr
sys/msgs/lifecycle_states/lifecycle_states.ko
sys/msgs/eradescr/era_descr.ru_RU
sys/msgs/featuresandprofilestates/features_and_profiles_states.ru_RU
sys/msgs/simcardtypes/sim_card_types.ru_RU
sys/msgs/ipdevicestates/ip_device_states.pt_BR
sys/msgs/ipdevicestates/ip_device_states.ko
sys/msgs/ipdevicestates/ip_device_states.ru_RU
sys/msgs/numcategories/num_categories.ru_RU
sys/msgs/paymentchannel/payment_channel.pt_BR
sys/msgs/paymentchannel/payment_channel.ru_RU
sys/msgs/paymentchannel/payment_channel.ko
sys/msgs/numvanities/num_vanities.ru_RU
sys/msgs/errorcodes/errors.ru_RU
sys/msgs/active_mediation/active_mediation.zh
sys/msgs/active_mediation/active_mediation.pt_BR
sys/msgs/active_mediation/active_mediation.fr
sys/msgs/active_mediation/active_mediation.it
sys/msgs/active_mediation/active_mediation.zh_TW
sys/msgs/active_mediation/active_mediation.es
sys/msgs/active_mediation/active_mediation.ja
sys/msgs/active_mediation/active_mediation.en_US
sys/msgs/active_mediation/active_mediation.ko
sys/msgs/active_mediation/active_mediation.ru_RU
sys/msgs/licenseerrors/license_error.ru_RU
sys/msgs/collections/collections.en_US
sys/msgs/collections/collections.zh
sys/msgs/collections/collections.pt_BR
sys/msgs/collections/collections.ja
sys/msgs/collections/collections.ko
sys/msgs/collections/collections.es
sys/msgs/collections/collections.zh_TW
sys/msgs/collections/collections.fr
sys/msgs/collections/collections.it
sys/msgs/collections/collections.ru_RU
sys/msgs/businessprofile/business_profile_descr.pt_BR
sys/msgs/businessprofile/business_profile_descr.ko
sys/msgs/businessprofile/business_profile_descr.ru_RU
sys/msgs/apndevicestates/apn_device_states.ru_RU
sys/msgs/apndevicestates/apn_device_states.pt_BR
sys/msgs/apndevicestates/apn_device_states.ko
sys/msgs/simdevicestates/sim_device_states.ru_RU
sys/msgs/numdevicestates/num_device_states.ru_RU
sys/msgs/reasoncodes/reasons.ru_RU
sys/msgs/localedescr/locale_descr.ru_RU
sys/data/config/bus_params_AAA.xml
sys/data/config/bus_params_customer.xml
sys/data/config/pin_slm_business_profile.xml
sys/data/config/config_collections_scenario_params.xml
sys/data/config/config_lifecycle_states.xml
sys/data/config/pin_offer_profile_provisioning_tags_policy_attributes.xml
sys/data/config/config_service_state_map.xml
sys/data/config/pin_notify_ipc
sys/data/config/config_subscriber_preferences_map.xml
sys/eai_js/payloadconfig_ipc.xml
sys/dd/data/7.4PS2_create_indexes_collections_AIA.source
sys/dd/data/7.4PS2_create_collections_view_AIA.source
sys/dd/data/device_framework_secondary_schema_75ps4.sql
sys/dd/data/create_indexes_collections_AIA.source
sys/dd/data/create_collections_view_AIA.source
sys/dd/data/device_framework_primary_schema_75ps4.sql
sys/dm_oracle/data/create_indexes_audit_tables_oracle.source
sys/dm_oracle/data/grant_permissions_oracle.plb
sys/dm_oracle/data/update_disable_compact_event.sql
sys/dm_oracle/data/update_compact_event.sql
lib/libxalan-c.so
lib/libssl.so.1.0.0
lib/libxalanMsg.so
lib/libcm_hash.so
lib/libpin_crypt4qm.so
lib/libLoadValidSLM.so
lib/libssl.so
lib/libpin_crypt_aes4qm.so
lib/libLoadValidCollections.so
lib/fm_offer_profile.so
lib/libcrypto.so
lib/libLoadValidTCFAAA.so
lib/libpin_crypt_sha1.so
lib/libcrypto.so.1.0.0
include/ops/asm.h
include/ops/offer_profile.h
xsd/bus_params_customer.xsd
xsd/PinTransforms.xsl
xsd/config_service_state_map.xsd
xsd/config_collections_profile_default.xsd
xsd/config_collections_scenario_params.xsd
xsd/config_collections_action.xsd
xsd/config_subscriber_preferences_map.xsd
xsd/bus_params_to_AAA.xsl
xsd/config_collections_scenario.xsd
xsd/config_collections_action_custom.xsd
xsd/config_lifecycle_states.xsd
xsd/config_collections_aging_buckets.xsd
xsd/bus_params_AAA.xsl
xsd/bus_params_customer.xsl
xsd/config_collections_profile.xsd
xsd/bus_params_AAA.xsd
xsd/config_collections_action_custom_late_fee.xsd
xsd/config_lifecycle_states.xsl
xsd/config_collections_action_custom_finance_charge.xsd
xsd/bus_params_to_customer.xsl
setup/scripts/pin_offer_profile_policy_labels.xml
setup/scripts/pin_cnf_pin_state_change.pl
setup/scripts/pin_cnf_upgrade.pl
setup/scripts/pin_cmp_qm_port.pl
setup/scripts/create_unified_collections_view_AIA.pl
setup/scripts/pin_cmp_upgrade.pl
setup/scripts/pin_cmp_virtual_col.pl
jars/osdt_cert.jar
jars/owm-3_0.jar
jars/ojmisc.jar
jars/cryptoj_5_0.jar
jars/virtualcolumns.jar
jars/osdt_core.jar
jars/oraclepki.jar
apps/pin_inv_doc_gen/pin_inv_doc_gen.jar
apps/pin_inv_doc_gen/docgen.sh
apps/pin_inv_doc_gen/Infranet.properties.sample
apps/pin_inv_doc_gen/InvoiceList.xsd
apps/pin_inv_doc_gen/InvoiceList.xml
apps/pin_inv_doc_gen/invoice_bursting.plb
apps/pin_inv_doc_gen/Create_Xmlp_Invoice_Job.sql
apps/pin_inv_doc_gen/lib/ApacheLicense.txt
apps/pin_inv_doc_gen/lib/xmlp/xmlef.jar
apps/pin_inv_doc_gen/lib/xmlp/commons-logging.jar
apps/pin_inv_doc_gen/lib/xmlp/mail.jar
apps/pin_inv_doc_gen/lib/xmlp/xmlparserv2.jar
apps/pin_inv_doc_gen/lib/xmlp/xdo-core.jar
apps/pin_inv_doc_gen/lib/xmlp/jaxrpc.jar
apps/pin_inv_doc_gen/lib/xmlp/orawsdl.jar
apps/pin_inv_doc_gen/lib/xmlp/xdo-server.jar
apps/pin_inv_doc_gen/lib/xmlp/axis_bip.jar
apps/pin_inv_doc_gen/lib/xmlp/commons-discovery.jar
apps/pin_inv_doc_gen/lib/wls/ojdbc6.jar
apps/pin_inv_doc_gen/lib/wls/wlfullclient.jar
apps/pin_inv_doc_gen/lib/xerces/xercesImpl.jar
apps/pin_virtual_columns/pin_virtual_gen
apps/pin_virtual_columns/oracle/create_pkg_pin_virtual_columns.plb
bin/pin_update_items_journals
bin/pin_state_change
bin/create_svr_wallet_cert
bin/orapki
wallet/root/ewallet.p12
wallet/client/cwallet.sso
wallet/client/ewallet.p12
