-----------------IMPORTANT-------------------
# The following files will be installed 
# with this patch 
---------------------------------------------
$INSTALL_HOME/source/sys/fm_cust_pol/fm_cust_pol_prep_nameinfo.c
$INSTALL_HOME/source/sys/fm_cust_pol/fm_cust_pol_prep_acctinfo.c
$INSTALL_HOME/source/sys/fm_pymt_pol/fm_pymt_pol_validate_payment.c
$INSTALL_HOME/jars/pcm.jar
$INSTALL_HOME/jars/pcmext.jar
$INSTALL_HOME/jars/batch.jar
$INSTALL_HOME/jars/formatter.jar
$INSTALL_HOME/jars/eai.jar
$INSTALL_HOME/jars/pfc.jar
$INSTALL_HOME/jars/sepa.jar
$INSTALL_HOME/jars/js.jar
$INSTALL_HOME/jars/storableclasstoxml.jar
$INSTALL_HOME/jars/agentsimulator.jar
$INSTALL_HOME/jars/virtualcolumns.jar
$INSTALL_HOME/jars/ExpandCompactEventSet.jar
$INSTALL_HOME/jars/pxslt.jar
$INSTALL_HOME/jars/WSDLGenerator.jar
$INSTALL_HOME/jars/loadpricelist.jar
$INSTALL_HOME/bin/pin_cc_migrate
$INSTALL_HOME/bin/pin_product_clear
$INSTALL_HOME/bin/pin_deferred_act
$INSTALL_HOME/bin/pin_crypt_rewrite
$INSTALL_HOME/bin/pin_monitor_balance
$INSTALL_HOME/bin/dm
$INSTALL_HOME/bin/dm_fusa
$INSTALL_HOME/bin/pin_balance_transfer
$INSTALL_HOME/bin/dm_invoice
$INSTALL_HOME/bin/pin_apply_bulk_adjustment
$INSTALL_HOME/bin/dm_aq
$INSTALL_HOME/bin/pin_deploy
$INSTALL_HOME/bin/load_aaa_config_opcodemap_tcf
$INSTALL_HOME/bin/load_pin_telco_service_order_state
$INSTALL_HOME/bin/pin_bill_accts
$INSTALL_HOME/bin/pin_inv_accts
$INSTALL_HOME/bin/pin_opspec_to_schema_v2
$INSTALL_HOME/bin/pin_update_items_journals
$INSTALL_HOME/bin/load_pin_event_record_map
$INSTALL_HOME/bin/load_pin_order_state
$INSTALL_HOME/bin/pin_rerate
$INSTALL_HOME/bin/pin_trial_bill_purge
$INSTALL_HOME/bin/pin_upd_assoc_bus_profile
$INSTALL_HOME/bin/pin_clean_rsvns
$INSTALL_HOME/bin/pin_sub_balance_cleanup
$INSTALL_HOME/bin/answer_s
$INSTALL_HOME/bin/pin_mta_test_caf
$INSTALL_HOME/bin/pin_clean_asos
$INSTALL_HOME/bin/load_config_reservation_aaa_prefs
$INSTALL_HOME/bin/dm_eai
$INSTALL_HOME/bin/pin_collections_process
$INSTALL_HOME/bin/pin_uei_deploy
$INSTALL_HOME/bin/pin_rollover
$INSTALL_HOME/bin/dm_prov_telco
$INSTALL_HOME/bin/dm_vertex
$INSTALL_HOME/bin/pin_cycle_forward
$INSTALL_HOME/bin/pin_crypt_app
$INSTALL_HOME/bin/pin_make_corrective_bills
$INSTALL_HOME/bin/dm_email
$INSTALL_HOME/bin/pin_export_price
$INSTALL_HOME/bin/pin_collect
$INSTALL_HOME/bin/pin_state_change
$INSTALL_HOME/bin/pin_collections_send_dunning
$INSTALL_HOME/bin/pin_inv_send
$INSTALL_HOME/bin/pin_cycle_fees
$INSTALL_HOME/bin/load_config
$INSTALL_HOME/bin/pin_trial_bill_accts
$INSTALL_HOME/bin/dm_ifw_sync
$INSTALL_HOME/bin/pin_crypt_upgrade
$INSTALL_HOME/bin/pin_discount_cleanup
$INSTALL_HOME/bin/pin_inv_export
$INSTALL_HOME/bin/cm_proxy
$INSTALL_HOME/bin/pin_ledger_report
$INSTALL_HOME/bin/dm_oracle
$INSTALL_HOME/bin/pin_history_on
$INSTALL_HOME/bin/pin_mta_monitor
$INSTALL_HOME/deploy/web_services/weblogic_ws_startup.jar
$INSTALL_HOME/deploy/web_services/infranetwebsvc.war
$INSTALL_HOME/deploy/web_services/stylesheets/opspec.xsd
$INSTALL_HOME/deploy/web_services/stylesheets/pin_opspec_to_schema.xsl
$INSTALL_HOME/deploy/web_services/schemas/PCM_OP_SEARCH.xsd
$INSTALL_HOME/deploy/web_services/schemas/PCM_OP_SUBSCRIPTION_SET_DISCOUNTINFO.xsd
$INSTALL_HOME/deploy/web_services/schemas/PCM_OP_BILL_MAKE_BILL_NOW.xsd
$INSTALL_HOME/deploy/web_services/schemas/PCM_OP_PRICE_COMMIT_PRODUCT.xsd
$INSTALL_HOME/deploy/web_services/schemas/PCM_OP_READ_OBJ.xsd
$INSTALL_HOME/deploy/web_services/schemas/PCM_OP_BAL_GET_ACCT_BAL_GRP_AND_SVC.xsd
$INSTALL_HOME/deploy/web_services/schemas/PCM_OP_AR_ITEM_ADJUSTMENT.xsd
$INSTALL_HOME/deploy/web_services/schemas/PCM_OP_CUST_SET_STATUS.xsd
$INSTALL_HOME/deploy/web_services/schemas/PCM_OP_SUBSCRIPTION_SET_BUNDLE.xsd
$INSTALL_HOME/deploy/web_services/schemas/PCM_OP_PRICE_COMMIT_DISCOUNT.xsd
$INSTALL_HOME/deploy/web_services/schemas/PCM_OP_CUST_COMMIT_CUSTOMER.xsd
$INSTALL_HOME/deploy/web_services/schemas/PCM_OP_AR_GET_ACCT_BAL_SUMMARY.xsd
$INSTALL_HOME/deploy/web_services/schemas/PCM_OP_PRICE_SET_PRICE_LIST.xsd
$INSTALL_HOME/deploy/web_services/schemas/PCM_OP_CUST_DELETE_PAYINFO.xsd
$INSTALL_HOME/deploy/web_services/schemas/PCM_OP_BILL_GROUP_GET_PARENT.xsd
$INSTALL_HOME/deploy/web_services/schemas/PCM_OP_SUBSCRIPTION_CHANGE_DEAL.xsd
$INSTALL_HOME/deploy/web_services/schemas/PCM_OP_AR_GET_ACCT_ACTION_ITEMS.xsd
$INSTALL_HOME/deploy/web_services/schemas/PCM_OP_CUST_UPDATE_SERVICES.xsd
$INSTALL_HOME/deploy/web_services/schemas/PCM_OP_COLLECTIONS_SET_ACTION_STATUS.xsd
$INSTALL_HOME/deploy/web_services/schemas/PCM_OP_SUBSCRIPTION_PURCHASE_DEAL.xsd
$INSTALL_HOME/deploy/web_services/schemas/PCM_OP_SUBSCRIPTION_CANCEL_DISCOUNT.xsd
$INSTALL_HOME/deploy/web_services/schemas/PCM_OP_SUBSCRIPTION_SET_PRODUCT_STATUS.xsd
$INSTALL_HOME/deploy/web_services/schemas/PCM_OP_SUBSCRIPTION_CANCEL_SUBSCRIPTION.xsd
$INSTALL_HOME/deploy/web_services/schemas/PCM_OP_CUST_DELETE_ACCT.xsd
$INSTALL_HOME/deploy/web_services/schemas/PCM_OP_CUST_MODIFY_CUSTOMER.xsd
$INSTALL_HOME/deploy/web_services/schemas/PCM_OP_BILL_GROUP_MOVE_MEMBER.xsd
$INSTALL_HOME/deploy/web_services/schemas/PCM_OP_SUBSCRIPTION_GET_PURCHASED_OFFERINGS.xsd
$INSTALL_HOME/deploy/web_services/schemas/PCM_OP_PYMT_COLLECT.xsd
$INSTALL_HOME/deploy/web_services/schemas/PCM_OP_BILL_GET_ITEM_EVENT_CHARGE_DISCOUNT.xsd
$INSTALL_HOME/deploy/web_services/schemas/PCM_OP_SUBSCRIPTION_SET_DISCOUNT_STATUS.xsd
$INSTALL_HOME/deploy/web_services/schemas/PCM_OP_AR_ACCOUNT_ADJUSTMENT.xsd
$INSTALL_HOME/deploy/web_services/schemas/PCM_OP_BILL_DEBIT.xsd
$INSTALL_HOME/deploy/web_services/schemas/PCM_OP_AR_GET_BAL_SUMMARY.xsd
$INSTALL_HOME/deploy/web_services/schemas/PCM_OP_CUST_MODIFY_PROFILE.xsd
$INSTALL_HOME/deploy/web_services/schemas/PCM_OP_SUBSCRIPTION_CANCEL_PRODUCT.xsd
$INSTALL_HOME/deploy/web_services/schemas/PCM_OP_CUST_DELETE_PROFILE.xsd
$INSTALL_HOME/deploy/web_services/schemas/PCM_OP_AR_EVENT_ADJUSTMENT.xsd
$INSTALL_HOME/deploy/web_services/schemas/PCM_OP_READ_FLDS.xsd
$INSTALL_HOME/deploy/web_services/schemas/PCM_OP_SUBSCRIPTION_TRANSFER_SUBSCRIPTION.xsd
$INSTALL_HOME/deploy/web_services/schemas/PCM_OP_PRICE_GET_PRICE_LIST.xsd
$INSTALL_HOME/deploy/web_services/schemas/PCM_OP_BAL_GET_BAL_GRP_AND_SVC.xsd
$INSTALL_HOME/deploy/web_services/schemas/PCM_OP_INV_VIEW_INVOICE.xsd
$INSTALL_HOME/deploy/web_services/schemas/PCM_OP_AR_GET_ACCT_BILLS.xsd
$INSTALL_HOME/deploy/web_services/schemas/PCM_OP_AR_GET_ACTION_ITEMS.xsd
$INSTALL_HOME/deploy/web_services/schemas/PCM_OP_BAL_GET_BALANCES.xsd
$INSTALL_HOME/deploy/web_services/schemas/PCM_OP_CUST_UPDATE_CUSTOMER.xsd
$INSTALL_HOME/deploy/web_services/schemas/PCM_OP_BAL_GET_ACCT_BILLINFO.xsd
$INSTALL_HOME/deploy/web_services/schemas/PCM_OP_CUSTCARE_MOVE_ACCT.xsd
$INSTALL_HOME/deploy/web_services/schemas/PCM_OP_AR_GET_BILL_ITEMS.xsd
$INSTALL_HOME/deploy/web_services/schemas/PCM_OP_SUBSCRIPTION_SET_PRODINFO.xsd
$INSTALL_HOME/deploy/web_services/schemas/PCM_OP_AR_GET_BILLS.xsd
$INSTALL_HOME/deploy/web_services/schemas/PCM_OP_AR_BILL_ADJUSTMENT.xsd
$INSTALL_HOME/deploy/web_services/schemas/PCM_OP_CUST_CREATE_PROFILE.xsd
$INSTALL_HOME/deploy/web_services/schemas/PCM_OP_AR_RESOURCE_AGGREGATION.xsd
$INSTALL_HOME/deploy/web_services/opspecs/PCM_OP_AR_EVENT_ADJUSTMENT.xml
$INSTALL_HOME/deploy/web_services/opspecs/PCM_OP_CUST_UPDATE_CUSTOMER.xml
$INSTALL_HOME/deploy/web_services/opspecs/PCM_OP_AR_GET_ACCT_ACTION_ITEMS.xml
$INSTALL_HOME/deploy/web_services/opspecs/PCM_OP_AR_GET_BILLS.xml
$INSTALL_HOME/deploy/web_services/opspecs/PCM_OP_BILL_DEBIT.xml
$INSTALL_HOME/deploy/web_services/opspecs/PCM_OP_SUBSCRIPTION_TRANSFER_SUBSCRIPTION.xml
$INSTALL_HOME/deploy/web_services/opspecs/PCM_OP_CUST_SET_STATUS.xml
$INSTALL_HOME/deploy/web_services/opspecs/PCM_OP_CUST_MODIFY_PROFILE.xml
$INSTALL_HOME/deploy/web_services/opspecs/PCM_OP_COLLECTIONS_SET_ACTION_STATUS.xml
$INSTALL_HOME/deploy/web_services/opspecs/PCM_OP_AR_GET_ACCT_BAL_SUMMARY.xml
$INSTALL_HOME/deploy/web_services/opspecs/PCM_OP_SUBSCRIPTION_CANCEL_SUBSCRIPTION.xml
$INSTALL_HOME/deploy/web_services/opspecs/PCM_OP_SUBSCRIPTION_SET_BUNDLE.xml
$INSTALL_HOME/deploy/web_services/opspecs/PCM_OP_INV_VIEW_INVOICE.xml
$INSTALL_HOME/deploy/web_services/opspecs/PCM_OP_BAL_GET_ACCT_BILLINFO.xml
$INSTALL_HOME/deploy/web_services/opspecs/PCM_OP_AR_ITEM_ADJUSTMENT.xml
$INSTALL_HOME/deploy/web_services/opspecs/PCM_OP_CUST_CREATE_PROFILE.xml
$INSTALL_HOME/deploy/web_services/opspecs/PCM_OP_PRICE_SET_PRICE_LIST.xml
$INSTALL_HOME/deploy/web_services/opspecs/PCM_OP_SUBSCRIPTION_CHANGE_DEAL.xml
$INSTALL_HOME/deploy/web_services/opspecs/PCM_OP_SUBSCRIPTION_GET_PURCHASED_OFFERINGS.xml
$INSTALL_HOME/deploy/web_services/opspecs/PCM_OP_CUST_DELETE_PROFILE.xml
$INSTALL_HOME/deploy/web_services/opspecs/PCM_OP_BAL_GET_ACCT_BAL_GRP_AND_SVC.xml
$INSTALL_HOME/deploy/web_services/opspecs/PCM_OP_SUBSCRIPTION_SET_PRODINFO.xml
$INSTALL_HOME/deploy/web_services/opspecs/PCM_OP_PYMT_COLLECT.xml
$INSTALL_HOME/deploy/web_services/opspecs/PCM_OP_SUBSCRIPTION_CANCEL_PRODUCT.xml
$INSTALL_HOME/deploy/web_services/opspecs/PCM_OP_CUST_COMMIT_CUSTOMER.xml
$INSTALL_HOME/deploy/web_services/opspecs/PCM_OP_AR_GET_BAL_SUMMARY.xml
$INSTALL_HOME/deploy/web_services/opspecs/PCM_OP_AR_GET_ACCT_BILLS.xml
$INSTALL_HOME/deploy/web_services/opspecs/PCM_OP_SUBSCRIPTION_SET_DISCOUNT_STATUS.xml
$INSTALL_HOME/deploy/web_services/opspecs/PCM_OP_CUST_UPDATE_SERVICES.xml
$INSTALL_HOME/deploy/web_services/opspecs/PCM_OP_BILL_GROUP_GET_PARENT.xml
$INSTALL_HOME/deploy/web_services/opspecs/PCM_OP_BAL_GET_BAL_GRP_AND_SVC.xml
$INSTALL_HOME/deploy/web_services/opspecs/PCM_OP_SUBSCRIPTION_CANCEL_DISCOUNT.xml
$INSTALL_HOME/deploy/web_services/opspecs/PCM_OP_SUBSCRIPTION_SET_DISCOUNTINFO.xml
$INSTALL_HOME/deploy/web_services/opspecs/PCM_OP_AR_GET_BILL_ITEMS.xml
$INSTALL_HOME/deploy/web_services/opspecs/PCM_OP_PRICE_COMMIT_PRODUCT.xml
$INSTALL_HOME/deploy/web_services/opspecs/PCM_OP_CUST_DELETE_ACCT.xml
$INSTALL_HOME/deploy/web_services/opspecs/PCM_OP_AR_GET_ACTION_ITEMS.xml
$INSTALL_HOME/deploy/web_services/opspecs/PCM_OP_BILL_MAKE_BILL_NOW.xml
$INSTALL_HOME/deploy/web_services/opspecs/PCM_OP_BAL_GET_BALANCES.xml
$INSTALL_HOME/deploy/web_services/opspecs/PCM_OP_CUST_MODIFY_CUSTOMER.xml
$INSTALL_HOME/deploy/web_services/opspecs/PCM_OP_BILL_GET_ITEM_EVENT_CHARGE_DISCOUNT.xml
$INSTALL_HOME/deploy/web_services/opspecs/PCM_OP_PRICE_COMMIT_DISCOUNT.xml
$INSTALL_HOME/deploy/web_services/opspecs/PCM_OP_BILL_GROUP_MOVE_MEMBER.xml
$INSTALL_HOME/deploy/web_services/opspecs/PCM_OP_AR_ACCOUNT_ADJUSTMENT.xml
$INSTALL_HOME/deploy/web_services/opspecs/PCM_OP_CUST_DELETE_PAYINFO.xml
$INSTALL_HOME/deploy/web_services/opspecs/PCM_OP_AR_RESOURCE_AGGREGATION.xml
$INSTALL_HOME/deploy/web_services/opspecs/PCM_OP_SUBSCRIPTION_PURCHASE_DEAL.xml
$INSTALL_HOME/deploy/web_services/opspecs/PCM_OP_AR_BILL_ADJUSTMENT.xml
$INSTALL_HOME/deploy/web_services/opspecs/PCM_OP_SUBSCRIPTION_SET_PRODUCT_STATUS.xml
$INSTALL_HOME/deploy/web_services/opspecs/PCM_OP_PRICE_GET_PRICE_LIST.xml
$INSTALL_HOME/apps/uel/uel.jar
$INSTALL_HOME/apps/pin_aq/create_receive_event.sql
$INSTALL_HOME/apps/pin_aq/create_send_event.sql
$INSTALL_HOME/apps/pin_ifw_sync/create_receive_event.sql
$INSTALL_HOME/apps/pin_ifw_sync/create_send_event.sql
$INSTALL_HOME/apps/brm_integrations/schemas/PCM_OP_PRICE_COMMIT_DISCOUNT.xsd
$INSTALL_HOME/apps/brm_integrations/schemas/PCM_OP_COLLECTIONS_SET_ACTION_STATUS.xsd
$INSTALL_HOME/apps/pin_inv_doc_gen/pin_inv_doc_gen.jar
$INSTALL_HOME/xsd/config_object.xsd
$INSTALL_HOME/include/pcm.h
$INSTALL_HOME/include/pin_bill.h
$INSTALL_HOME/include/pinlog.h
$INSTALL_HOME/include/pin_cust.h
$INSTALL_HOME/include/pin_act.h
$INSTALL_HOME/include/fm_bill_utils.h
$INSTALL_HOME/include/ops/cust.h
$INSTALL_HOME/include/ops/base.h
$INSTALL_HOME/sys/dd/data/create_indexes_collections_oracle.source
$INSTALL_HOME/sys/dd/data/drop_indexes_collections_oracle.source
$INSTALL_HOME/sys/dm_prov_telco/dm_prov_telco.so
$INSTALL_HOME/sys/dm_vertex/dm_vertex_stq3221.so
$INSTALL_HOME/sys/dm_vertex/dm_vertex_stq316.so
$INSTALL_HOME/sys/dm_vertex/dm_vertex_ctq20005.so
$INSTALL_HOME/sys/dm_vertex/dm_vertex_ctq10106.so
$INSTALL_HOME/sys/dm_vertex/dm_vertex_stq406.so
$INSTALL_HOME/sys/dm_vertex/dm_vertex_ctq10013.so
$INSTALL_HOME/sys/msgs/eradescr/era_descr.zh_TW
$INSTALL_HOME/sys/msgs/errorcodes/errors.ja
$INSTALL_HOME/sys/msgs/errorcodes/errors.pt_BR
$INSTALL_HOME/sys/msgs/errorcodes/errors.zh_TW
$INSTALL_HOME/sys/msgs/errorcodes/errors.it
$INSTALL_HOME/sys/msgs/errorcodes/errors.ko
$INSTALL_HOME/sys/msgs/errorcodes/errors.es
$INSTALL_HOME/sys/msgs/errorcodes/errors.fr
$INSTALL_HOME/sys/msgs/errorcodes/errors.ru_RU
$INSTALL_HOME/sys/msgs/errorcodes/errors.zh
$INSTALL_HOME/sys/msgs/reasoncodes/reasons.pt_BR
$INSTALL_HOME/sys/msgs/reasoncodes/reasons.it
$INSTALL_HOME/sys/msgs/reasoncodes/reasons.zh_TW
$INSTALL_HOME/sys/msgs/reasoncodes/reasons.zh
$INSTALL_HOME/sys/msgs/reasoncodes/reasons.ru_RU
$INSTALL_HOME/sys/msgs/reasoncodes/reasons.ko
$INSTALL_HOME/sys/msgs/reasoncodes/reasons.es
$INSTALL_HOME/sys/msgs/reasoncodes/reasons.fr
$INSTALL_HOME/sys/msgs/reasoncodes/reasons.ja
$INSTALL_HOME/sys/data/config/pin_invoice_data_map
$INSTALL_HOME/sys/diagnostics/pin_adu_validate/pin_adu_validate
$INSTALL_HOME/sys/dm_oracle/dm_oracle11g64.so
$INSTALL_HOME/sys/dm_oracle/dm_oracle10g64.so
$INSTALL_HOME/sys/dm_oracle/data/create_tax_procedures_UTF8.plb
$INSTALL_HOME/sys/dm_oracle/data/create_procedures_UTF8.plb
$INSTALL_HOME/sys/dm_oracle/data/drop_indexes.source
$INSTALL_HOME/sys/dm_oracle/data/create_pkg_journal_UTF8.plb
$INSTALL_HOME/sys/dm_oracle/data/create_pkg_journal_AL32UTF8.plb
$INSTALL_HOME/sys/dm_oracle/data/create_indexes.source
$INSTALL_HOME/sys/dm_oracle/data/create_tax_procedures_AL32UTF8.plb
$INSTALL_HOME/sys/dm_oracle/data/create_procedures_AL32UTF8.plb
$INSTALL_HOME/setup/scripts/pin_oracle_functions.pl
$INSTALL_HOME/setup/scripts/pin_cnf_cm.pl
$INSTALL_HOME/setup/scripts/pin_cnf_dm_fusa.pl
$INSTALL_HOME/lib/libnzsdk64.so
$INSTALL_HOME/lib/libcmpin.so
$INSTALL_HOME/lib/fm_cust_pol.so
$INSTALL_HOME/lib/libcm_main.so
$INSTALL_HOME/lib/libpcp.a
$INSTALL_HOME/lib/libpinlog.a
$INSTALL_HOME/lib/fm_utils.so
$INSTALL_HOME/lib/libADT.so
$INSTALL_HOME/lib/libpcmext64.so
$INSTALL_HOME/lib/libpin_crypt_aes4dm64.so
$INSTALL_HOME/lib/libpin_crypt4dm64.so
$INSTALL_HOME/lib/libdmpin.so
$INSTALL_HOME/lib/libmta.a
$INSTALL_HOME/lib/fm_adu.so
$INSTALL_HOME/lib/fm_bill.so
$INSTALL_HOME/lib/libdmpin64.so
$INSTALL_HOME/lib/fm_ar.so
$INSTALL_HOME/lib/libportal.so
$INSTALL_HOME/lib/fm_collections.so
$INSTALL_HOME/lib/fm_rate.so
$INSTALL_HOME/lib/fm_pymt.so
$INSTALL_HOME/lib/libpin_crypt_aes4dm.so
$INSTALL_HOME/lib/fm_offer_profile.so
$INSTALL_HOME/lib/libpin_crypt_aes4qm.so
$INSTALL_HOME/lib/fm_subscription.so
$INSTALL_HOME/lib/libportal64.so
$INSTALL_HOME/lib/fm_tcf.so
$INSTALL_HOME/lib/libloadutils.so
$INSTALL_HOME/lib/libpcm.a
$INSTALL_HOME/lib/fm_act.so
$INSTALL_HOME/lib/portal_op_flds.dat
$INSTALL_HOME/lib/fm_rerate.so
$INSTALL_HOME/lib/libBAS64.so
$INSTALL_HOME/lib/libpcmcpp67.so
$INSTALL_HOME/lib/libpin_crypt4qm.so
$INSTALL_HOME/lib/libpcmcpp6064.so
$INSTALL_HOME/lib/libpcmcpp60.so
$INSTALL_HOME/lib/fm_order.so
$INSTALL_HOME/lib/libcm_hash.so
$INSTALL_HOME/lib/libSCR.so
$INSTALL_HOME/lib/fm_cust.so
$INSTALL_HOME/lib/libpin_crypt_aes.so
$INSTALL_HOME/lib/fm_bill_utils.so
$INSTALL_HOME/lib/fm_inv.so
$INSTALL_HOME/lib/libBAS.so
$INSTALL_HOME/lib/fm_pymt_pol.so
$INSTALL_HOME/jars/impl_generator.jar
$INSTALL_HOME/bin/pin_wsgen
$INSTALL_HOME/deploy/web_services/BrmWebServices.war
---------------------------------------------
# The following files were packaged with 
# this patch, However only the applicable 
# files will be installed 
---------------------------------------------
$PATCH_HOME/source/apps/popper/pop_pcm.c
$PATCH_HOME/source/apps/popper/popper.c
$PATCH_HOME/source/apps/popper/pop_dropcopy.c
$PATCH_HOME/source/apps/popper/pop_bull.c
$PATCH_HOME/source/apps/popper/pop_uidl.c
$PATCH_HOME/source/apps/radius/lib/libradius.a
$PATCH_HOME/source/apps/radius/lib/libgeneral.a
$PATCH_HOME/source/apps/pin_mailer/pin_mail_deliv.c
$PATCH_HOME/source/apps/pin_mailer/pin_mail.c
$PATCH_HOME/source/sys/fm_process_audit_pol/fm_process_audit_pol_create.c
$PATCH_HOME/source/sys/fm_cust_pol/fm_cust_pol_prep_nameinfo.c
$PATCH_HOME/source/sys/fm_cust_pol/fm_cust_pol_prep_acctinfo.c
$PATCH_HOME/source/sys/fm_pymt_pol/fm_pymt_pol_validate_payment.c
$PATCH_HOME/source/sys/fm_apn_pol/fm_apn_pol_device_create.c
$PATCH_HOME/jars/pcm.jar
$PATCH_HOME/jars/pin_reset_seq.jar
$PATCH_HOME/jars/pcmext.jar
$PATCH_HOME/jars/spamt.jar
$PATCH_HOME/jars/batch.jar
$PATCH_HOME/jars/cdk.jar
$PATCH_HOME/jars/formatter.jar
$PATCH_HOME/jars/eai.jar
$PATCH_HOME/jars/pfc.jar
$PATCH_HOME/jars/sepa.jar
$PATCH_HOME/jars/js.jar
$PATCH_HOME/jars/rel.jar
$PATCH_HOME/jars/amt.jar
$PATCH_HOME/jars/impl_generator.jar
$PATCH_HOME/jars/storableclasstoxml.jar
$PATCH_HOME/jars/agentsimulator.jar
$PATCH_HOME/jars/virtualcolumns.jar
$PATCH_HOME/jars/ExpandCompactEventSet.jar
$PATCH_HOME/jars/pxslt.jar
$PATCH_HOME/jars/WSDLGenerator.jar
$PATCH_HOME/jars/loadpricelist.jar
$PATCH_HOME/bin/pin_cc_migrate
$PATCH_HOME/bin/pin_product_clear
$PATCH_HOME/bin/pin_radiusd_sig
$PATCH_HOME/bin/dm_ldap10g
$PATCH_HOME/bin/dm_tt
$PATCH_HOME/bin/pin_deferred_act
$PATCH_HOME/bin/pin_crypt_rewrite
$PATCH_HOME/bin/dm_ldap11g
$PATCH_HOME/bin/pin_monitor_balance
$PATCH_HOME/bin/dm
$PATCH_HOME/bin/dm_fusa
$PATCH_HOME/bin/pin_balance_transfer
$PATCH_HOME/bin/pin_amt_tt
$PATCH_HOME/bin/dm_taxware
$PATCH_HOME/bin/dm_invoice
$PATCH_HOME/bin/popper
$PATCH_HOME/bin/start_dm_tt
$PATCH_HOME/bin/pin_apply_bulk_adjustment
$PATCH_HOME/bin/pin_channel_export
$PATCH_HOME/bin/dm_aq
$PATCH_HOME/bin/pin_deploy
$PATCH_HOME/bin/load_aaa_config_opcodemap_tcf
$PATCH_HOME/bin/load_pin_telco_service_order_state
$PATCH_HOME/bin/pin_bill_accts
$PATCH_HOME/bin/load_config_dist
$PATCH_HOME/bin/pin_inv_accts
$PATCH_HOME/bin/pin_opspec_to_schema_v2
$PATCH_HOME/bin/pin_update_items_journals
$PATCH_HOME/bin/load_pin_event_record_map
$PATCH_HOME/bin/load_pin_config_ra_thresholds
$PATCH_HOME/bin/load_pin_order_state
$PATCH_HOME/bin/stop_dm_tt
$PATCH_HOME/bin/rad_tester
$PATCH_HOME/bin/pin_rerate
$PATCH_HOME/bin/pin_radiusd
$PATCH_HOME/bin/pin_trial_bill_purge
$PATCH_HOME/bin/pin_upd_assoc_bus_profile
$PATCH_HOME/bin/pin_clean_rsvns
$PATCH_HOME/bin/load_content_srvc_profiles
$PATCH_HOME/bin/pin_sub_balance_cleanup
$PATCH_HOME/bin/answer_s
$PATCH_HOME/bin/pin_mta_test_caf
$PATCH_HOME/bin/pin_clean_asos
$PATCH_HOME/bin/load_config_reservation_aaa_prefs
$PATCH_HOME/bin/dm_eai
$PATCH_HOME/bin/load_ara_config_object
$PATCH_HOME/bin/pin_collections_process
$PATCH_HOME/bin/pin_uei_deploy
$PATCH_HOME/bin/pin_rollover
$PATCH_HOME/bin/dm_prov_telco
$PATCH_HOME/bin/dm_vertex
$PATCH_HOME/bin/pin_cycle_forward
$PATCH_HOME/bin/pin_crypt_app
$PATCH_HOME/bin/pin_make_corrective_bills
$PATCH_HOME/bin/dm_email
$PATCH_HOME/bin/pin_export_price
$PATCH_HOME/bin/pin_collect
$PATCH_HOME/bin/pin_state_change
$PATCH_HOME/bin/load_edr_field_mapping
$PATCH_HOME/bin/pin_collections_send_dunning
$PATCH_HOME/bin/pin_inv_send
$PATCH_HOME/bin/pin_cycle_fees
$PATCH_HOME/bin/pin_mailer
$PATCH_HOME/bin/load_config
$PATCH_HOME/bin/pin_purge
$PATCH_HOME/bin/pin_trial_bill_accts
$PATCH_HOME/bin/dm_ifw_sync
$PATCH_HOME/bin/start_rel_daemon
$PATCH_HOME/bin/pin_crypt_upgrade
$PATCH_HOME/bin/pin_wsgen
$PATCH_HOME/bin/pin_discount_cleanup
$PATCH_HOME/bin/pin_inv_export
$PATCH_HOME/bin/cm_proxy
$PATCH_HOME/bin/pin_ledger_report
$PATCH_HOME/bin/dm_oracle
$PATCH_HOME/bin/pin_history_on
$PATCH_HOME/bin/pin_mta_monitor
$PATCH_HOME/deploy/web_services/weblogic_ws_startup.jar
$PATCH_HOME/deploy/web_services/BrmWebServices.war
$PATCH_HOME/deploy/web_services/infranetwebsvc.war
$PATCH_HOME/deploy/web_services/stylesheets/opspec.xsd
$PATCH_HOME/deploy/web_services/stylesheets/pin_opspec_to_schema.xsl
$PATCH_HOME/deploy/web_services/schemas/PCM_OP_SEARCH.xsd
$PATCH_HOME/deploy/web_services/schemas/PCM_OP_SUBSCRIPTION_SET_DISCOUNTINFO.xsd
$PATCH_HOME/deploy/web_services/schemas/PCM_OP_BILL_MAKE_BILL_NOW.xsd
$PATCH_HOME/deploy/web_services/schemas/PCM_OP_PRICE_COMMIT_PRODUCT.xsd
$PATCH_HOME/deploy/web_services/schemas/PCM_OP_READ_OBJ.xsd
$PATCH_HOME/deploy/web_services/schemas/PCM_OP_BAL_GET_ACCT_BAL_GRP_AND_SVC.xsd
$PATCH_HOME/deploy/web_services/schemas/PCM_OP_AR_ITEM_ADJUSTMENT.xsd
$PATCH_HOME/deploy/web_services/schemas/PCM_OP_CUST_SET_STATUS.xsd
$PATCH_HOME/deploy/web_services/schemas/PCM_OP_SUBSCRIPTION_SET_BUNDLE.xsd
$PATCH_HOME/deploy/web_services/schemas/PCM_OP_PRICE_COMMIT_DISCOUNT.xsd
$PATCH_HOME/deploy/web_services/schemas/PCM_OP_CUST_COMMIT_CUSTOMER.xsd
$PATCH_HOME/deploy/web_services/schemas/PCM_OP_AR_GET_ACCT_BAL_SUMMARY.xsd
$PATCH_HOME/deploy/web_services/schemas/PCM_OP_PRICE_SET_PRICE_LIST.xsd
$PATCH_HOME/deploy/web_services/schemas/PCM_OP_CUST_DELETE_PAYINFO.xsd
$PATCH_HOME/deploy/web_services/schemas/PCM_OP_BILL_GROUP_GET_PARENT.xsd
$PATCH_HOME/deploy/web_services/schemas/PCM_OP_SUBSCRIPTION_CHANGE_DEAL.xsd
$PATCH_HOME/deploy/web_services/schemas/PCM_OP_AR_GET_ACCT_ACTION_ITEMS.xsd
$PATCH_HOME/deploy/web_services/schemas/PCM_OP_CUST_UPDATE_SERVICES.xsd
$PATCH_HOME/deploy/web_services/schemas/PCM_OP_COLLECTIONS_SET_ACTION_STATUS.xsd
$PATCH_HOME/deploy/web_services/schemas/PCM_OP_SUBSCRIPTION_PURCHASE_DEAL.xsd
$PATCH_HOME/deploy/web_services/schemas/PCM_OP_SUBSCRIPTION_CANCEL_DISCOUNT.xsd
$PATCH_HOME/deploy/web_services/schemas/PCM_OP_SUBSCRIPTION_SET_PRODUCT_STATUS.xsd
$PATCH_HOME/deploy/web_services/schemas/PCM_OP_SUBSCRIPTION_CANCEL_SUBSCRIPTION.xsd
$PATCH_HOME/deploy/web_services/schemas/PCM_OP_CUST_DELETE_ACCT.xsd
$PATCH_HOME/deploy/web_services/schemas/PCM_OP_CUST_MODIFY_CUSTOMER.xsd
$PATCH_HOME/deploy/web_services/schemas/PCM_OP_BILL_GROUP_MOVE_MEMBER.xsd
$PATCH_HOME/deploy/web_services/schemas/PCM_OP_SUBSCRIPTION_GET_PURCHASED_OFFERINGS.xsd
$PATCH_HOME/deploy/web_services/schemas/PCM_OP_PYMT_COLLECT.xsd
$PATCH_HOME/deploy/web_services/schemas/PCM_OP_BILL_GET_ITEM_EVENT_CHARGE_DISCOUNT.xsd
$PATCH_HOME/deploy/web_services/schemas/PCM_OP_SUBSCRIPTION_SET_DISCOUNT_STATUS.xsd
$PATCH_HOME/deploy/web_services/schemas/PCM_OP_AR_ACCOUNT_ADJUSTMENT.xsd
$PATCH_HOME/deploy/web_services/schemas/PCM_OP_BILL_DEBIT.xsd
$PATCH_HOME/deploy/web_services/schemas/PCM_OP_AR_GET_BAL_SUMMARY.xsd
$PATCH_HOME/deploy/web_services/schemas/PCM_OP_CUST_MODIFY_PROFILE.xsd
$PATCH_HOME/deploy/web_services/schemas/PCM_OP_SUBSCRIPTION_CANCEL_PRODUCT.xsd
$PATCH_HOME/deploy/web_services/schemas/PCM_OP_CUST_DELETE_PROFILE.xsd
$PATCH_HOME/deploy/web_services/schemas/PCM_OP_AR_EVENT_ADJUSTMENT.xsd
$PATCH_HOME/deploy/web_services/schemas/PCM_OP_READ_FLDS.xsd
$PATCH_HOME/deploy/web_services/schemas/PCM_OP_SUBSCRIPTION_TRANSFER_SUBSCRIPTION.xsd
$PATCH_HOME/deploy/web_services/schemas/PCM_OP_PRICE_GET_PRICE_LIST.xsd
$PATCH_HOME/deploy/web_services/schemas/PCM_OP_BAL_GET_BAL_GRP_AND_SVC.xsd
$PATCH_HOME/deploy/web_services/schemas/PCM_OP_INV_VIEW_INVOICE.xsd
$PATCH_HOME/deploy/web_services/schemas/PCM_OP_AR_GET_ACCT_BILLS.xsd
$PATCH_HOME/deploy/web_services/schemas/PCM_OP_AR_GET_ACTION_ITEMS.xsd
$PATCH_HOME/deploy/web_services/schemas/PCM_OP_BAL_GET_BALANCES.xsd
$PATCH_HOME/deploy/web_services/schemas/PCM_OP_CUST_UPDATE_CUSTOMER.xsd
$PATCH_HOME/deploy/web_services/schemas/PCM_OP_BAL_GET_ACCT_BILLINFO.xsd
$PATCH_HOME/deploy/web_services/schemas/PCM_OP_CUSTCARE_MOVE_ACCT.xsd
$PATCH_HOME/deploy/web_services/schemas/PCM_OP_AR_GET_BILL_ITEMS.xsd
$PATCH_HOME/deploy/web_services/schemas/PCM_OP_SUBSCRIPTION_SET_PRODINFO.xsd
$PATCH_HOME/deploy/web_services/schemas/PCM_OP_AR_GET_BILLS.xsd
$PATCH_HOME/deploy/web_services/schemas/PCM_OP_AR_BILL_ADJUSTMENT.xsd
$PATCH_HOME/deploy/web_services/schemas/PCM_OP_CUST_CREATE_PROFILE.xsd
$PATCH_HOME/deploy/web_services/schemas/PCM_OP_AR_RESOURCE_AGGREGATION.xsd
$PATCH_HOME/deploy/web_services/opspecs/PCM_OP_AR_EVENT_ADJUSTMENT.xml
$PATCH_HOME/deploy/web_services/opspecs/PCM_OP_CUST_UPDATE_CUSTOMER.xml
$PATCH_HOME/deploy/web_services/opspecs/PCM_OP_AR_GET_ACCT_ACTION_ITEMS.xml
$PATCH_HOME/deploy/web_services/opspecs/PCM_OP_AR_GET_BILLS.xml
$PATCH_HOME/deploy/web_services/opspecs/PCM_OP_BILL_DEBIT.xml
$PATCH_HOME/deploy/web_services/opspecs/PCM_OP_SUBSCRIPTION_TRANSFER_SUBSCRIPTION.xml
$PATCH_HOME/deploy/web_services/opspecs/PCM_OP_CUST_SET_STATUS.xml
$PATCH_HOME/deploy/web_services/opspecs/PCM_OP_CUST_MODIFY_PROFILE.xml
$PATCH_HOME/deploy/web_services/opspecs/PCM_OP_COLLECTIONS_SET_ACTION_STATUS.xml
$PATCH_HOME/deploy/web_services/opspecs/PCM_OP_AR_GET_ACCT_BAL_SUMMARY.xml
$PATCH_HOME/deploy/web_services/opspecs/PCM_OP_SUBSCRIPTION_CANCEL_SUBSCRIPTION.xml
$PATCH_HOME/deploy/web_services/opspecs/PCM_OP_SUBSCRIPTION_SET_BUNDLE.xml
$PATCH_HOME/deploy/web_services/opspecs/PCM_OP_INV_VIEW_INVOICE.xml
$PATCH_HOME/deploy/web_services/opspecs/PCM_OP_BAL_GET_ACCT_BILLINFO.xml
$PATCH_HOME/deploy/web_services/opspecs/PCM_OP_AR_ITEM_ADJUSTMENT.xml
$PATCH_HOME/deploy/web_services/opspecs/PCM_OP_CUST_CREATE_PROFILE.xml
$PATCH_HOME/deploy/web_services/opspecs/PCM_OP_PRICE_SET_PRICE_LIST.xml
$PATCH_HOME/deploy/web_services/opspecs/PCM_OP_SUBSCRIPTION_CHANGE_DEAL.xml
$PATCH_HOME/deploy/web_services/opspecs/PCM_OP_SUBSCRIPTION_GET_PURCHASED_OFFERINGS.xml
$PATCH_HOME/deploy/web_services/opspecs/PCM_OP_CUST_DELETE_PROFILE.xml
$PATCH_HOME/deploy/web_services/opspecs/PCM_OP_BAL_GET_ACCT_BAL_GRP_AND_SVC.xml
$PATCH_HOME/deploy/web_services/opspecs/PCM_OP_SUBSCRIPTION_SET_PRODINFO.xml
$PATCH_HOME/deploy/web_services/opspecs/PCM_OP_PYMT_COLLECT.xml
$PATCH_HOME/deploy/web_services/opspecs/PCM_OP_SUBSCRIPTION_CANCEL_PRODUCT.xml
$PATCH_HOME/deploy/web_services/opspecs/PCM_OP_CUST_COMMIT_CUSTOMER.xml
$PATCH_HOME/deploy/web_services/opspecs/PCM_OP_AR_GET_BAL_SUMMARY.xml
$PATCH_HOME/deploy/web_services/opspecs/PCM_OP_AR_GET_ACCT_BILLS.xml
$PATCH_HOME/deploy/web_services/opspecs/PCM_OP_SUBSCRIPTION_SET_DISCOUNT_STATUS.xml
$PATCH_HOME/deploy/web_services/opspecs/PCM_OP_CUST_UPDATE_SERVICES.xml
$PATCH_HOME/deploy/web_services/opspecs/PCM_OP_BILL_GROUP_GET_PARENT.xml
$PATCH_HOME/deploy/web_services/opspecs/PCM_OP_BAL_GET_BAL_GRP_AND_SVC.xml
$PATCH_HOME/deploy/web_services/opspecs/PCM_OP_SUBSCRIPTION_CANCEL_DISCOUNT.xml
$PATCH_HOME/deploy/web_services/opspecs/PCM_OP_SUBSCRIPTION_SET_DISCOUNTINFO.xml
$PATCH_HOME/deploy/web_services/opspecs/PCM_OP_AR_GET_BILL_ITEMS.xml
$PATCH_HOME/deploy/web_services/opspecs/PCM_OP_PRICE_COMMIT_PRODUCT.xml
$PATCH_HOME/deploy/web_services/opspecs/PCM_OP_CUST_DELETE_ACCT.xml
$PATCH_HOME/deploy/web_services/opspecs/PCM_OP_AR_GET_ACTION_ITEMS.xml
$PATCH_HOME/deploy/web_services/opspecs/PCM_OP_BILL_MAKE_BILL_NOW.xml
$PATCH_HOME/deploy/web_services/opspecs/PCM_OP_BAL_GET_BALANCES.xml
$PATCH_HOME/deploy/web_services/opspecs/PCM_OP_CUST_MODIFY_CUSTOMER.xml
$PATCH_HOME/deploy/web_services/opspecs/PCM_OP_BILL_GET_ITEM_EVENT_CHARGE_DISCOUNT.xml
$PATCH_HOME/deploy/web_services/opspecs/PCM_OP_PRICE_COMMIT_DISCOUNT.xml
$PATCH_HOME/deploy/web_services/opspecs/PCM_OP_BILL_GROUP_MOVE_MEMBER.xml
$PATCH_HOME/deploy/web_services/opspecs/PCM_OP_AR_ACCOUNT_ADJUSTMENT.xml
$PATCH_HOME/deploy/web_services/opspecs/PCM_OP_CUST_DELETE_PAYINFO.xml
$PATCH_HOME/deploy/web_services/opspecs/PCM_OP_AR_RESOURCE_AGGREGATION.xml
$PATCH_HOME/deploy/web_services/opspecs/PCM_OP_SUBSCRIPTION_PURCHASE_DEAL.xml
$PATCH_HOME/deploy/web_services/opspecs/PCM_OP_AR_BILL_ADJUSTMENT.xml
$PATCH_HOME/deploy/web_services/opspecs/PCM_OP_SUBSCRIPTION_SET_PRODUCT_STATUS.xml
$PATCH_HOME/deploy/web_services/opspecs/PCM_OP_PRICE_GET_PRICE_LIST.xml
$PATCH_HOME/apps/pin_rel/pin_rel_updater_sp_oracle.plb
$PATCH_HOME/apps/uel/uel.jar
$PATCH_HOME/apps/pin_aq/create_receive_event.sql
$PATCH_HOME/apps/pin_aq/create_send_event.sql
$PATCH_HOME/apps/pin_ifw_sync/create_receive_event.sql
$PATCH_HOME/apps/pin_ifw_sync/create_send_event.sql
$PATCH_HOME/apps/brm_integrations/stylesheets/opspec.xsd
$PATCH_HOME/apps/brm_integrations/stylesheets/pin_opspec_to_schema.xsl
$PATCH_HOME/apps/brm_integrations/schemas/PCM_OP_COLLECTIONS_REPLACE_SCENARIO.xsd
$PATCH_HOME/apps/brm_integrations/schemas/PCM_OP_CUST_SET_NOTE.xsd
$PATCH_HOME/apps/brm_integrations/schemas/PCM_OP_SEARCH.xsd
$PATCH_HOME/apps/brm_integrations/schemas/PCM_OP_SUBSCRIPTION_SET_DISCOUNTINFO.xsd
$PATCH_HOME/apps/brm_integrations/schemas/PCM_OP_BILL_MAKE_BILL_NOW.xsd
$PATCH_HOME/apps/brm_integrations/schemas/PCM_OP_PRICE_COMMIT_PRODUCT.xsd
$PATCH_HOME/apps/brm_integrations/schemas/PCM_OP_READ_OBJ.xsd
$PATCH_HOME/apps/brm_integrations/schemas/PCM_OP_BAL_GET_ACCT_BAL_GRP_AND_SVC.xsd
$PATCH_HOME/apps/brm_integrations/schemas/PCM_OP_AR_ITEM_ADJUSTMENT.xsd
$PATCH_HOME/apps/brm_integrations/schemas/PCM_OP_CUST_GET_NEWSFEED.xsd
$PATCH_HOME/apps/brm_integrations/schemas/PCM_OP_CUST_SET_STATUS.xsd
$PATCH_HOME/apps/brm_integrations/schemas/PCM_OP_COLLECTIONS_UPDATE_ACTION_PAYMENT_DETAILS.xsd
$PATCH_HOME/apps/brm_integrations/schemas/PCM_OP_COLLECTIONS_GROUP_DELETE_MEMBER.xsd
$PATCH_HOME/apps/brm_integrations/schemas/PCM_OP_SUBSCRIPTION_SET_BUNDLE.xsd
$PATCH_HOME/apps/brm_integrations/schemas/PCM_OP_COLLECTIONS_GROUP_GET_BILLINFO.xsd
$PATCH_HOME/apps/brm_integrations/schemas/PCM_OP_PRICE_COMMIT_DISCOUNT.xsd
$PATCH_HOME/apps/brm_integrations/schemas/PCM_OP_CUST_COMMIT_CUSTOMER.xsd
$PATCH_HOME/apps/brm_integrations/schemas/PCM_OP_COLLECTIONS_GROUP_DELETE.xsd
$PATCH_HOME/apps/brm_integrations/schemas/PCM_OP_AR_GET_ACCT_BAL_SUMMARY.xsd
$PATCH_HOME/apps/brm_integrations/schemas/PCM_OP_PRICE_SET_PRICE_LIST.xsd
$PATCH_HOME/apps/brm_integrations/schemas/PCM_OP_COLLECTIONS_GROUP_SET_PARENT.xsd
$PATCH_HOME/apps/brm_integrations/schemas/PCM_OP_CUST_DELETE_PAYINFO.xsd
$PATCH_HOME/apps/brm_integrations/schemas/PCM_OP_CUST_GET_NOTE.xsd
$PATCH_HOME/apps/brm_integrations/schemas/PCM_OP_SUBSCRIPTION_SERVICE_BALGRP_TRANSFER.xsd
$PATCH_HOME/apps/brm_integrations/schemas/PCM_OP_COLLECTIONS_GROUP_CREATE.xsd
$PATCH_HOME/apps/brm_integrations/schemas/PCM_OP_COLLECTIONS_GET_SCENARIO_DETAIL.xsd
$PATCH_HOME/apps/brm_integrations/schemas/PCM_OP_COLLECTIONS_GROUP_MODIFY.xsd
$PATCH_HOME/apps/brm_integrations/schemas/PCM_OP_SUBSCRIPTION_SHARING_GROUP_DELETE.xsd
$PATCH_HOME/apps/brm_integrations/schemas/PCM_OP_BILL_GROUP_GET_PARENT.xsd
$PATCH_HOME/apps/brm_integrations/schemas/PCM_OP_SUBSCRIPTION_CHANGE_DEAL.xsd
$PATCH_HOME/apps/brm_integrations/schemas/PCM_OP_AR_GET_ACCT_ACTION_ITEMS.xsd
$PATCH_HOME/apps/brm_integrations/schemas/PCM_OP_CUST_UPDATE_SERVICES.xsd
$PATCH_HOME/apps/brm_integrations/schemas/PCM_OP_COLLECTIONS_ASSIGN_AGENT.xsd
$PATCH_HOME/apps/brm_integrations/schemas/PCM_OP_COLLECTIONS_SET_ACTION_STATUS.xsd
$PATCH_HOME/apps/brm_integrations/schemas/PCM_OP_SUBSCRIPTION_PURCHASE_DEAL.xsd
$PATCH_HOME/apps/brm_integrations/schemas/PCM_OP_SUBSCRIPTION_CANCEL_DISCOUNT.xsd
$PATCH_HOME/apps/brm_integrations/schemas/PCM_OP_COLLECTIONS_EXEMPT_BILLINFO.xsd
$PATCH_HOME/apps/brm_integrations/schemas/PCM_OP_SUBSCRIPTION_SHARING_GROUP_CREATE.xsd
$PATCH_HOME/apps/brm_integrations/schemas/PCM_OP_SUBSCRIPTION_SET_PRODUCT_STATUS.xsd
$PATCH_HOME/apps/brm_integrations/schemas/PCM_OP_COLLECTIONS_GROUP_ADD_MEMBER.xsd
$PATCH_HOME/apps/brm_integrations/schemas/PCM_OP_SUBSCRIPTION_CANCEL_SUBSCRIPTION.xsd
$PATCH_HOME/apps/brm_integrations/schemas/PCM_OP_CUST_DELETE_ACCT.xsd
$PATCH_HOME/apps/brm_integrations/schemas/PCM_OP_SUBSCRIPTION_SHARING_GROUP_MODIFY.xsd
$PATCH_HOME/apps/brm_integrations/schemas/PCM_OP_SUBSCRIPTION_ORDERED_BALGRP.xsd
$PATCH_HOME/apps/brm_integrations/schemas/PCM_OP_CUST_MODIFY_CUSTOMER.xsd
$PATCH_HOME/apps/brm_integrations/schemas/PCM_OP_BILL_GROUP_MOVE_MEMBER.xsd
$PATCH_HOME/apps/brm_integrations/schemas/PCM_OP_SUBSCRIPTION_GET_PURCHASED_OFFERINGS.xsd
$PATCH_HOME/apps/brm_integrations/schemas/PCM_OP_PYMT_COLLECT.xsd
$PATCH_HOME/apps/brm_integrations/schemas/PCM_OP_BILL_GET_ITEM_EVENT_CHARGE_DISCOUNT.xsd
$PATCH_HOME/apps/brm_integrations/schemas/PCM_OP_SUBSCRIPTION_SET_DISCOUNT_STATUS.xsd
$PATCH_HOME/apps/brm_integrations/schemas/PCM_OP_AR_ACCOUNT_ADJUSTMENT.xsd
$PATCH_HOME/apps/brm_integrations/schemas/PCM_OP_BILL_DEBIT.xsd
$PATCH_HOME/apps/brm_integrations/schemas/PCM_OP_AR_GET_BAL_SUMMARY.xsd
$PATCH_HOME/apps/brm_integrations/schemas/PCM_OP_COLLECTIONS_ADD_ACTION.xsd
$PATCH_HOME/apps/brm_integrations/schemas/PCM_OP_TRANS_OPEN.xsd
$PATCH_HOME/apps/brm_integrations/schemas/PCM_OP_CUST_MODIFY_PROFILE.xsd
$PATCH_HOME/apps/brm_integrations/schemas/PCM_OP_COLLECTIONS_REVOKE_PROMISE_TO_PAY.xsd
$PATCH_HOME/apps/brm_integrations/schemas/PCM_OP_SUBSCRIPTION_CANCEL_PRODUCT.xsd
$PATCH_HOME/apps/brm_integrations/schemas/PCM_OP_CUST_DELETE_PROFILE.xsd
$PATCH_HOME/apps/brm_integrations/schemas/PCM_OP_AR_EVENT_ADJUSTMENT.xsd
$PATCH_HOME/apps/brm_integrations/schemas/PCM_OP_READ_FLDS.xsd
$PATCH_HOME/apps/brm_integrations/schemas/PCM_OP_SUBSCRIPTION_TRANSFER_SUBSCRIPTION.xsd
$PATCH_HOME/apps/brm_integrations/schemas/PCM_OP_PRICE_GET_PRICE_LIST.xsd
$PATCH_HOME/apps/brm_integrations/schemas/PCM_OP_TRANS_ABORT.xsd
$PATCH_HOME/apps/brm_integrations/schemas/PCM_OP_BAL_GET_BAL_GRP_AND_SVC.xsd
$PATCH_HOME/apps/brm_integrations/schemas/PCM_OP_INV_VIEW_INVOICE.xsd
$PATCH_HOME/apps/brm_integrations/schemas/PCM_OP_AR_GET_ACCT_BILLS.xsd
$PATCH_HOME/apps/brm_integrations/schemas/PCM_OP_SUBSCRIPTION_SHARING_GROUP_SET_PARENT.xsd
$PATCH_HOME/apps/brm_integrations/schemas/PCM_OP_AR_GET_ACTION_ITEMS.xsd
$PATCH_HOME/apps/brm_integrations/schemas/PCM_OP_BAL_GET_BALANCES.xsd
$PATCH_HOME/apps/brm_integrations/schemas/PCM_OP_CUST_UPDATE_CUSTOMER.xsd
$PATCH_HOME/apps/brm_integrations/schemas/PCM_OP_COLLECTIONS_INVOKE_PROMISE_TO_PAY.xsd
$PATCH_HOME/apps/brm_integrations/schemas/PCM_OP_BAL_GET_ACCT_BILLINFO.xsd
$PATCH_HOME/apps/brm_integrations/schemas/PCM_OP_CUSTCARE_MOVE_ACCT.xsd
$PATCH_HOME/apps/brm_integrations/schemas/PCM_OP_AR_GET_BILL_ITEMS.xsd
$PATCH_HOME/apps/brm_integrations/schemas/PCM_OP_SUBSCRIPTION_SET_PRODINFO.xsd
$PATCH_HOME/apps/brm_integrations/schemas/PCM_OP_AR_GET_BILLS.xsd
$PATCH_HOME/apps/brm_integrations/schemas/PCM_OP_TRANS_COMMIT.xsd
$PATCH_HOME/apps/brm_integrations/schemas/PCM_OP_AR_BILL_ADJUSTMENT.xsd
$PATCH_HOME/apps/brm_integrations/schemas/PCM_OP_PYMT_TOPUP.xsd
$PATCH_HOME/apps/brm_integrations/schemas/PCM_OP_CUST_CREATE_PROFILE.xsd
$PATCH_HOME/apps/brm_integrations/schemas/PCM_OP_AR_RESOURCE_AGGREGATION.xsd
$PATCH_HOME/apps/brm_integrations/opspecs/PCM_OP_COLLECTIONS_GROUP_SET_PARENT.xml
$PATCH_HOME/apps/brm_integrations/opspecs/PCM_OP_AR_EVENT_ADJUSTMENT.xml
$PATCH_HOME/apps/brm_integrations/opspecs/PCM_OP_COLLECTIONS_EXEMPT_BILLINFO.xml
$PATCH_HOME/apps/brm_integrations/opspecs/PCM_OP_TRANS_COMMIT.xml
$PATCH_HOME/apps/brm_integrations/opspecs/PCM_OP_CUST_GET_NOTE.xml
$PATCH_HOME/apps/brm_integrations/opspecs/PCM_OP_SUBSCRIPTION_ORDERED_BALGRP.xml
$PATCH_HOME/apps/brm_integrations/opspecs/PCM_OP_CUST_UPDATE_CUSTOMER.xml
$PATCH_HOME/apps/brm_integrations/opspecs/PCM_OP_SUBSCRIPTION_SHARING_GROUP_CREATE.xml
$PATCH_HOME/apps/brm_integrations/opspecs/PCM_OP_COLLECTIONS_REPLACE_SCENARIO.xml
$PATCH_HOME/apps/brm_integrations/opspecs/PCM_OP_AR_GET_ACCT_ACTION_ITEMS.xml
$PATCH_HOME/apps/brm_integrations/opspecs/PCM_OP_AR_GET_BILLS.xml
$PATCH_HOME/apps/brm_integrations/opspecs/PCM_OP_BILL_DEBIT.xml
$PATCH_HOME/apps/brm_integrations/opspecs/PCM_OP_PYMT_TOPUP.xml
$PATCH_HOME/apps/brm_integrations/opspecs/PCM_OP_SUBSCRIPTION_TRANSFER_SUBSCRIPTION.xml
$PATCH_HOME/apps/brm_integrations/opspecs/PCM_OP_CUST_SET_STATUS.xml
$PATCH_HOME/apps/brm_integrations/opspecs/PCM_OP_CUST_MODIFY_PROFILE.xml
$PATCH_HOME/apps/brm_integrations/opspecs/PCM_OP_COLLECTIONS_SET_ACTION_STATUS.xml
$PATCH_HOME/apps/brm_integrations/opspecs/PCM_OP_AR_GET_ACCT_BAL_SUMMARY.xml
$PATCH_HOME/apps/brm_integrations/opspecs/PCM_OP_TRANS_ABORT.xml
$PATCH_HOME/apps/brm_integrations/opspecs/PCM_OP_SUBSCRIPTION_CANCEL_SUBSCRIPTION.xml
$PATCH_HOME/apps/brm_integrations/opspecs/PCM_OP_COLLECTIONS_ADD_ACTION.xml
$PATCH_HOME/apps/brm_integrations/opspecs/PCM_OP_SUBSCRIPTION_SET_BUNDLE.xml
$PATCH_HOME/apps/brm_integrations/opspecs/PCM_OP_INV_VIEW_INVOICE.xml
$PATCH_HOME/apps/brm_integrations/opspecs/PCM_OP_COLLECTIONS_GROUP_MODIFY.xml
$PATCH_HOME/apps/brm_integrations/opspecs/PCM_OP_BAL_GET_ACCT_BILLINFO.xml
$PATCH_HOME/apps/brm_integrations/opspecs/PCM_OP_COLLECTIONS_UPDATE_ACTION_PAYMENT_DETAILS.xml
$PATCH_HOME/apps/brm_integrations/opspecs/PCM_OP_AR_ITEM_ADJUSTMENT.xml
$PATCH_HOME/apps/brm_integrations/opspecs/PCM_OP_TRANS_OPEN.xml
$PATCH_HOME/apps/brm_integrations/opspecs/PCM_OP_CUST_CREATE_PROFILE.xml
$PATCH_HOME/apps/brm_integrations/opspecs/PCM_OP_PRICE_SET_PRICE_LIST.xml
$PATCH_HOME/apps/brm_integrations/opspecs/PCM_OP_SUBSCRIPTION_CHANGE_DEAL.xml
$PATCH_HOME/apps/brm_integrations/opspecs/PCM_OP_CUST_DELETE_PROFILE.xml
$PATCH_HOME/apps/brm_integrations/opspecs/PCM_OP_BAL_GET_ACCT_BAL_GRP_AND_SVC.xml
$PATCH_HOME/apps/brm_integrations/opspecs/PCM_OP_SUBSCRIPTION_SET_PRODINFO.xml
$PATCH_HOME/apps/brm_integrations/opspecs/PCM_OP_SUBSCRIPTION_SHARING_GROUP_MODIFY.xml
$PATCH_HOME/apps/brm_integrations/opspecs/PCM_OP_PYMT_COLLECT.xml
$PATCH_HOME/apps/brm_integrations/opspecs/PCM_OP_SUBSCRIPTION_CANCEL_PRODUCT.xml
$PATCH_HOME/apps/brm_integrations/opspecs/PCM_OP_CUST_COMMIT_CUSTOMER.xml
$PATCH_HOME/apps/brm_integrations/opspecs/PCM_OP_AR_GET_BAL_SUMMARY.xml
$PATCH_HOME/apps/brm_integrations/opspecs/PCM_OP_AR_GET_ACCT_BILLS.xml
$PATCH_HOME/apps/brm_integrations/opspecs/PCM_OP_SUBSCRIPTION_SET_DISCOUNT_STATUS.xml
$PATCH_HOME/apps/brm_integrations/opspecs/PCM_OP_CUST_UPDATE_SERVICES.xml
$PATCH_HOME/apps/brm_integrations/opspecs/PCM_OP_BAL_GET_BAL_GRP_AND_SVC.xml
$PATCH_HOME/apps/brm_integrations/opspecs/PCM_OP_SUBSCRIPTION_CANCEL_DISCOUNT.xml
$PATCH_HOME/apps/brm_integrations/opspecs/PCM_OP_SUBSCRIPTION_SET_DISCOUNTINFO.xml
$PATCH_HOME/apps/brm_integrations/opspecs/PCM_OP_COLLECTIONS_GROUP_GET_BILLINFO.xml
$PATCH_HOME/apps/brm_integrations/opspecs/PCM_OP_AR_GET_BILL_ITEMS.xml
$PATCH_HOME/apps/brm_integrations/opspecs/PCM_OP_PRICE_COMMIT_PRODUCT.xml
$PATCH_HOME/apps/brm_integrations/opspecs/PCM_OP_AR_GET_ACTION_ITEMS.xml
$PATCH_HOME/apps/brm_integrations/opspecs/PCM_OP_BILL_MAKE_BILL_NOW.xml
$PATCH_HOME/apps/brm_integrations/opspecs/PCM_OP_COLLECTIONS_GROUP_DELETE.xml
$PATCH_HOME/apps/brm_integrations/opspecs/PCM_OP_BAL_GET_BALANCES.xml
$PATCH_HOME/apps/brm_integrations/opspecs/PCM_OP_COLLECTIONS_ASSIGN_AGENT.xml
$PATCH_HOME/apps/brm_integrations/opspecs/PCM_OP_CUST_MODIFY_CUSTOMER.xml
$PATCH_HOME/apps/brm_integrations/opspecs/PCM_OP_COLLECTIONS_GROUP_ADD_MEMBER.xml
$PATCH_HOME/apps/brm_integrations/opspecs/PCM_OP_COLLECTIONS_GET_SCENARIO_DETAIL.xml
$PATCH_HOME/apps/brm_integrations/opspecs/PCM_OP_BILL_GET_ITEM_EVENT_CHARGE_DISCOUNT.xml
$PATCH_HOME/apps/brm_integrations/opspecs/PCM_OP_PRICE_COMMIT_DISCOUNT.xml
$PATCH_HOME/apps/brm_integrations/opspecs/PCM_OP_BILL_GROUP_MOVE_MEMBER.xml
$PATCH_HOME/apps/brm_integrations/opspecs/PCM_OP_SUBSCRIPTION_SERVICE_BALGRP_TRANSFER.xml
$PATCH_HOME/apps/brm_integrations/opspecs/PCM_OP_AR_ACCOUNT_ADJUSTMENT.xml
$PATCH_HOME/apps/brm_integrations/opspecs/PCM_OP_CUST_DELETE_PAYINFO.xml
$PATCH_HOME/apps/brm_integrations/opspecs/PCM_OP_AR_RESOURCE_AGGREGATION.xml
$PATCH_HOME/apps/brm_integrations/opspecs/PCM_OP_COLLECTIONS_REVOKE_PROMISE_TO_PAY.xml
$PATCH_HOME/apps/brm_integrations/opspecs/PCM_OP_SUBSCRIPTION_PURCHASE_DEAL.xml
$PATCH_HOME/apps/brm_integrations/opspecs/PCM_OP_AR_BILL_ADJUSTMENT.xml
$PATCH_HOME/apps/brm_integrations/opspecs/PCM_OP_SUBSCRIPTION_SET_PRODUCT_STATUS.xml
$PATCH_HOME/apps/brm_integrations/opspecs/PCM_OP_COLLECTIONS_GROUP_DELETE_MEMBER.xml
$PATCH_HOME/apps/brm_integrations/opspecs/PCM_OP_SUBSCRIPTION_SHARING_GROUP_DELETE.xml
$PATCH_HOME/apps/brm_integrations/opspecs/PCM_OP_PRICE_GET_PRICE_LIST.xml
$PATCH_HOME/apps/brm_integrations/opspecs/PCM_OP_COLLECTIONS_GROUP_CREATE.xml
$PATCH_HOME/apps/brm_integrations/opspecs/PCM_OP_CUST_GET_NEWSFEED.xml
$PATCH_HOME/apps/brm_integrations/opspecs/PCM_OP_COLLECTIONS_INVOKE_PROMISE_TO_PAY.xml
$PATCH_HOME/apps/brm_integrations/opspecs/PCM_OP_CUST_SET_NOTE.xml
$PATCH_HOME/apps/brm_integrations/opspecs/PCM_OP_SUBSCRIPTION_SHARING_GROUP_SET_PARENT.xml
$PATCH_HOME/apps/brm_integrations/jca_adapter/OracleBRMJCA15Adapter.rar
$PATCH_HOME/apps/brm_integrations/jca_adapter/weblogic_startup.jar
$PATCH_HOME/apps/brm_integrations/jca_adapter/BRMAdapterServletClient.war
$PATCH_HOME/apps/perf/simtools/pin_loader
$PATCH_HOME/apps/perf/simtools/zonemap_loader
$PATCH_HOME/apps/perf/simtools/rad_tester
$PATCH_HOME/apps/perf/simtools/simrad
$PATCH_HOME/apps/perf/simtools/pin_collect_perf
$PATCH_HOME/apps/cmt/ErrorCodes.properties
$PATCH_HOME/apps/cmt/Enumeration.properties
$PATCH_HOME/apps/cmt/cmt_mta_cycle_fees
$PATCH_HOME/apps/cmt/cmt.jar
$PATCH_HOME/apps/cmt/schema_files/physical/CMT_Subscribers.xsd
$PATCH_HOME/apps/cmt/schema_files/conceptual/CMT_Subscribers.xsd
$PATCH_HOME/apps/cmt/ctl_files/audit/profile_t.ctl
$PATCH_HOME/apps/cmt/ctl_files/audit/ordered_balgroup_t.ctl
$PATCH_HOME/apps/cmt/ctl_files/audit/bal_grp_t.ctl
$PATCH_HOME/apps/cmt/ctl_files/audit/group_t.ctl
$PATCH_HOME/apps/pin_inv_doc_gen/pin_inv_doc_gen.jar
$PATCH_HOME/lib64/libitc2612d.so
$PATCH_HOME/lib64/libthread3212d.so
$PATCH_HOME/lib64/libfunctor_map2612d.so
$PATCH_HOME/lib64/libthrexcept2612d.so
$PATCH_HOME/lib64/libtrace3112d.so
$PATCH_HOME/lib64/libnetwork3112d.so
$PATCH_HOME/lib64/libsync4112d.so
$PATCH_HOME/lib64/libmime1412d.so
$PATCH_HOME/lib64/libfunctor2612d.so
$PATCH_HOME/lib64/libdbt7212d.so
$PATCH_HOME/lib64/libstreams1612d.so
$PATCH_HOME/lib64/libfunctor_list2612d.so
$PATCH_HOME/lib64/libtls9112d.so
$PATCH_HOME/lib64/libpointer2812d.so
$PATCH_HOME/lib64/libmny21012d.so
$PATCH_HOME/xsd/config_object.xsd
$PATCH_HOME/include/pcm.h
$PATCH_HOME/include/pin_bill.h
$PATCH_HOME/include/pinlog.h
$PATCH_HOME/include/pin_cust.h
$PATCH_HOME/include/pin_act.h
$PATCH_HOME/include/fm_bill_utils.h
$PATCH_HOME/include/ops/cust.h
$PATCH_HOME/include/ops/base.h
$PATCH_HOME/sys/dm_tt/dm_tt11g.so
$PATCH_HOME/sys/dd/data/create_indexes_collections_oracle.source
$PATCH_HOME/sys/dd/data/drop_indexes_collections_oracle.source
$PATCH_HOME/sys/dm_prov_telco/dm_prov_telco.so
$PATCH_HOME/sys/dm_vertex/dm_vertex_stq3221.so
$PATCH_HOME/sys/dm_vertex/dm_vertex_stq316.so
$PATCH_HOME/sys/dm_vertex/dm_vertex_ctq20005.so
$PATCH_HOME/sys/dm_vertex/dm_vertex_ctq10106.so
$PATCH_HOME/sys/dm_vertex/dm_vertex_stq406.so
$PATCH_HOME/sys/dm_vertex/dm_vertex_ctq10013.so
$PATCH_HOME/sys/msgs/eradescr/era_descr.zh_TW
$PATCH_HOME/sys/msgs/errorcodes/errors.ja
$PATCH_HOME/sys/msgs/errorcodes/errors.pt_BR
$PATCH_HOME/sys/msgs/errorcodes/errors.zh_TW
$PATCH_HOME/sys/msgs/errorcodes/errors.it
$PATCH_HOME/sys/msgs/errorcodes/errors.ko
$PATCH_HOME/sys/msgs/errorcodes/errors.es
$PATCH_HOME/sys/msgs/errorcodes/errors.fr
$PATCH_HOME/sys/msgs/errorcodes/errors.ru_RU
$PATCH_HOME/sys/msgs/errorcodes/errors.zh
$PATCH_HOME/sys/msgs/reasoncodes/reasons.pt_BR
$PATCH_HOME/sys/msgs/reasoncodes/reasons.it
$PATCH_HOME/sys/msgs/reasoncodes/reasons.zh_TW
$PATCH_HOME/sys/msgs/reasoncodes/reasons.zh
$PATCH_HOME/sys/msgs/reasoncodes/reasons.ru_RU
$PATCH_HOME/sys/msgs/reasoncodes/reasons.ko
$PATCH_HOME/sys/msgs/reasoncodes/reasons.es
$PATCH_HOME/sys/msgs/reasoncodes/reasons.fr
$PATCH_HOME/sys/msgs/reasoncodes/reasons.ja
$PATCH_HOME/sys/data/config/pin_invoice_data_map
$PATCH_HOME/sys/data/config/CollectProcessAuditForIREL.sql
$PATCH_HOME/sys/amt/data/create_amt_mv_pkb.sql
$PATCH_HOME/sys/diagnostics/pin_adu_validate/pin_adu_validate
$PATCH_HOME/sys/dm_oracle/dm_oracle11g64.so
$PATCH_HOME/sys/dm_oracle/dm_oracle10g64.so
$PATCH_HOME/sys/dm_oracle/data/create_tax_procedures_UTF8.plb
$PATCH_HOME/sys/dm_oracle/data/create_procedures_UTF8.plb
$PATCH_HOME/sys/dm_oracle/data/drop_indexes.source
$PATCH_HOME/sys/dm_oracle/data/create_pkg_journal_UTF8.plb
$PATCH_HOME/sys/dm_oracle/data/create_pkg_journal_AL32UTF8.plb
$PATCH_HOME/sys/dm_oracle/data/create_indexes.source
$PATCH_HOME/sys/dm_oracle/data/create_tax_procedures_AL32UTF8.plb
$PATCH_HOME/sys/dm_oracle/data/create_procedures_AL32UTF8.plb
$PATCH_HOME/setup/scripts/pin_oracle_functions.pl
$PATCH_HOME/setup/scripts/pin_cnf_cm.pl
$PATCH_HOME/setup/scripts/pin_cnf_dm_fusa.pl
$PATCH_HOME/setup/scripts/LdapPlan.xml
$PATCH_HOME/lib/libnzsdk64.so
$PATCH_HOME/lib/libpinldap.so
$PATCH_HOME/lib/libcmpin.so
$PATCH_HOME/lib/fm_cust_pol.so
$PATCH_HOME/lib/libcm_main.so
$PATCH_HOME/lib/libpcp.a
$PATCH_HOME/lib/libpinlog.a
$PATCH_HOME/lib/fm_utils.so
$PATCH_HOME/lib/libADT.so
$PATCH_HOME/lib/libpcmext64.so
$PATCH_HOME/lib/libpin_crypt_aes4dm64.so
$PATCH_HOME/lib/fm_process_audit.so
$PATCH_HOME/lib/libpin_crypt4dm64.so
$PATCH_HOME/lib/libdmpin.so
$PATCH_HOME/lib/libmta.a
$PATCH_HOME/lib/fm_adu.so
$PATCH_HOME/lib/fm_bill.so
$PATCH_HOME/lib/libdmpin64.so
$PATCH_HOME/lib/fm_ar.so
$PATCH_HOME/lib/fm_apn_pol.so
$PATCH_HOME/lib/libportal.so
$PATCH_HOME/lib/fm_collections.so
$PATCH_HOME/lib/fm_process_audit_pol_create.so
$PATCH_HOME/lib/fm_rate.so
$PATCH_HOME/lib/fm_pymt.so
$PATCH_HOME/lib/libpin_crypt_aes4dm.so
$PATCH_HOME/lib/fm_offer_profile.so
$PATCH_HOME/lib/libpin_crypt_aes4qm.so
$PATCH_HOME/lib/fm_subscription.so
$PATCH_HOME/lib/libportal64.so
$PATCH_HOME/lib/fm_tcf.so
$PATCH_HOME/lib/libloadutils.so
$PATCH_HOME/lib/libpcm.a
$PATCH_HOME/lib/fm_act.so
$PATCH_HOME/lib/portal_op_flds.dat
$PATCH_HOME/lib/fm_rerate.so
$PATCH_HOME/lib/libBAS64.so
$PATCH_HOME/lib/libpcmcpp67.so
$PATCH_HOME/lib/libpin_crypt4qm.so
$PATCH_HOME/lib/libpcmcpp6064.so
$PATCH_HOME/lib/libpcmcpp60.so
$PATCH_HOME/lib/fm_order.so
$PATCH_HOME/lib/libcm_hash.so
$PATCH_HOME/lib/libSCR.so
$PATCH_HOME/lib/fm_cust.so
$PATCH_HOME/lib/libpin_crypt_aes.so
$PATCH_HOME/lib/fm_bill_utils.so
$PATCH_HOME/lib/fm_inv.so
$PATCH_HOME/lib/libBAS.so
$PATCH_HOME/lib/fm_content.so
$PATCH_HOME/lib/fm_pymt_pol.so
---------------------------------------------
# The following files will not be installed
# because the latest version exists in the 
# system 
---------------------------------------------
lib64/libitc2612d.so
lib64/libthread3212d.so
lib64/libfunctor_map2612d.so
lib64/libthrexcept2612d.so
lib64/libtrace3112d.so
lib64/libnetwork3112d.so
lib64/libsync4112d.so
lib64/libmime1412d.so
lib64/libfunctor2612d.so
lib64/libdbt7212d.so
lib64/libstreams1612d.so
lib64/libfunctor_list2612d.so
lib64/libtls9112d.so
lib64/libpointer2812d.so
lib64/libmny21012d.so
---------------------------------------------
# The following files will not be installed
# because the prerequisite product is not
# installed in the system 
---------------------------------------------
bin/dm_tt,TimesTen_Manager
bin/pin_amt_tt,AccountMigrationMgr
bin/pin_purge,TimesTen_Manager
bin/start_dm_tt,TimesTen_Manager
bin/stop_dm_tt,TimesTen_Manager
lib/libBAS64.so,Portal_Base,TimesTen_Manager
lib/libdmpin64.so,Portal_Base,TimesTen_Manager
lib/libpcmcpp6064.so,Portal_Base,TimesTen_Manager
lib/libpcmext64.so,Portal_Base,TimesTen_Manager
lib/libpin_crypt4dm64.so,Portal_Base,TimesTen_Manager
lib/libpin_crypt_aes4dm64.so,Portal_Base,TimesTen_Manager
lib/libportal64.so,Portal_Base,TimesTen_Manager
lib64/libdbt7212d.so,Portal_Base,TimesTen_Manager
lib64/libfunctor2612d.so,Portal_Base,TimesTen_Manager
lib64/libfunctor_list2612d.so,Portal_Base,TimesTen_Manager
lib64/libfunctor_map2612d.so,Portal_Base,TimesTen_Manager
lib64/libitc2612d.so,Portal_Base,TimesTen_Manager
lib64/libmime1412d.so,Portal_Base,TimesTen_Manager
lib64/libmny21012d.so,Portal_Base,TimesTen_Manager
lib64/libnetwork3112d.so,Portal_Base,TimesTen_Manager
lib64/libpointer2812d.so,Portal_Base,TimesTen_Manager
lib64/libstreams1612d.so,Portal_Base,TimesTen_Manager
lib64/libsync4112d.so,Portal_Base,TimesTen_Manager
lib64/libthread3212d.so,Portal_Base,TimesTen_Manager
lib64/libthrexcept2612d.so,Portal_Base,TimesTen_Manager
lib64/libtls9112d.so,Portal_Base,TimesTen_Manager
lib64/libtrace3112d.so,Portal_Base,TimesTen_Manager
sys/dm_tt/dm_tt11g.so,TimesTen_Manager
---------------------------------------------
# The following are the new files were 
# packaged with this patch 
---------------------------------------------
jars/impl_generator.jar
bin/pin_wsgen
deploy/web_services/BrmWebServices.war
